 0.011  4 3  1.618
 0.008  5 4  0.82
 0.01  6 5  0.758
 0.008  7 6  0.65
 0.007  9 8  0.61
 0.005  9 8  0.532
 0.007  9 8  0.564
 0.009  11 10  0.608
 0.008  10 9  0.487
 0.007  11 10  0.525
 0.009  12 11  0.538
 0.009  15 14  0.552
 0.008  13 12  0.534
 0.009  17 16  0.549
 0.013  24 23  0.593
 0.012  21 20  0.501
 0.015  29 28  0.598
 0.017  33 32  0.553
 0.014  28 27  0.571
 0.02  31 30  0.578
 0.021  38 37  0.618
 0.021  44 43  0.572
 0.021  44 43  0.579
 0.021  42 41  0.613
 0.023  46 45  0.576
 0.023  43 42  0.583
 0.025  49 48  0.644
 0.025  49 48  0.514
 0.032  69 68  0.626
 0.023  47 46  0.561
 0.038  72 71  0.689
 0.03  63 62  0.657
 0.037  74 73  0.595
 0.047  84 83  0.708
 0.044  88 87  0.583
 0.045  91 90  0.637
 0.045  80 79  0.685
 0.045  89 88  0.593
 0.064  132 131  0.644
 0.068  124 123  0.686
 0.077  156 155  0.6
 0.071  142 141  0.666
 0.072  149 148  0.652
 0.081  156 155  0.711
 0.103  209 208  0.701
 0.087  166 165  0.751
 0.123  248 247  0.764
 0.131  261 260  0.691
 0.107  201 200  0.774
 0.121  239 238  0.717
 0.127  258 257  0.721
 0.138  272 271  0.703
 0.142  272 271  0.708
 0.154  304 303  0.776
 0.113  223 222  0.714
 0.128  259 258  0.696
 0.129  237 236  0.715
 0.17  330 329  0.775
 0.159  314 313  0.752
 0.157  289 288  0.73
 0.169  329 328  0.712
 0.175  340 339  0.728
 0.241  458 457  0.824
 0.256  500 499  0.86
 0.29  573 572  0.756
 0.268  511 510  0.783
 0.277  534 533  0.793
 0.313  611 610  0.744
 0.309  599 598  0.793
 0.307  591 590  0.787
 0.323  635 634  0.816
 0.332  636 635  0.841
 0.33  618 617  0.759
 0.358  691 690  0.879
 0.355  672 671  0.808
 0.389  745 744  0.789
 0.42  812 811  0.862
 0.422  783 782  0.833
 0.382  727 726  0.801
 0.464  904 903  0.798
 0.425  798 797  0.818
 0.482  918 917  0.902
 0.486  866 865  0.808
 0.433  813 812  0.802
 0.449  856 855  0.81
 0.473  877 876  0.842
 0.53  987 986  0.821
 0.516  955 954  0.803
 0.586  1066 1065  0.842
 0.623  1113 1112  0.812
 0.567  1024 1023  0.878
 0.549  986 985  0.928
 0.54  999 998  0.869
 0.601  1130 1129  0.872
 0.599  1038 1037  0.995
 0.633  1139 1138  0.87
 0.668  1229 1228  0.961
 0.619  1144 1143  0.884
 0.709  1296 1295  1.016
 0.712  1259 1258  0.964
 0.658  1221 1220  0.892
 0.737  1342 1341  1.097
 0.752  1303 1302  0.895
 0.818  1513 1512  0.85
 0.649  1179 1178  0.846
 0.769  1389 1388  0.886
 0.737  1360 1359  0.835
 0.829  1529 1528  0.872
 0.831  1532 1531  0.805
 0.734  1341 1340  0.892
 0.824  1512 1511  0.907
 0.889  1628 1627  0.874
 0.736  1337 1336  0.873
 0.81  1472 1471  0.848
 0.887  1593 1592  0.857
 0.861  1572 1571  0.891
 0.939  1726 1725  0.886
 0.966  1767 1766  0.902
 0.978  1771 1770  0.948
 1.025  1871 1870  0.895
 0.686  1276 1275  0.897
 0.722  1332 1331  0.914
 0.703  1287 1286  0.962
 0.719  1319 1318  0.85
 0.834  1468 1467  0.988
 0.856  1590 1589  0.95
 0.809  1484 1483  0.853
 0.694  1272 1271  0.842
 0.802  1443 1442  0.856
 0.9  1666 1665  0.853
 0.955  1767 1766  0.897
 0.927  1687 1686  0.882
 0.866  1582 1581  0.877
 0.887  1617 1616  0.871
 0.938  1700 1699  0.855
 0.934  1719 1718  0.87
 1.049  1918 1917  0.857
 1.102  1907 1906  0.896
 1.022  1863 1862  0.871
 1.086  1987 1986  0.882
 1  1827 1826  0.866
 1.139  2064 2063  0.814
 0.975  1764 1763  0.866
 1.137  2050 2049  0.86
 0.965  1744 1743  0.862
 1.44  2533 2532  0.948
 1.521  2679 2678  0.923
 1.465  2560 2559  0.953
 1.375  2418 2417  0.915
 1.564  2778 2777  0.912
 1.537  2660 2659  0.939
 1.759  3134 3133  0.921
 1.571  2754 2753  0.912
 1.625  2873 2872  0.923
 1.754  3110 3109  0.935
 1.589  2807 2806  0.954
 1.692  2973 2972  0.94
 1.727  3018 3017  0.923
 1.81  3166 3165  0.927
 1.762  3103 3102  0.902
 1.86  3310 3309  0.929
 1.826  3227 3226  0.911
 1.833  3227 3226  0.912
 1.853  3261 3260  0.924
 1.794  3142 3141  0.945
 1.909  3331 3330  0.86
 1.892  3296 3295  0.922
 1.962  3464 3463  0.93
 1.842  3242 3241  0.94
 1.938  3367 3366  0.962
 1.717  3064 3063  0.881
 1.752  3044 3043  0.937
 1.587  2811 2810  0.948
 1.714  3042 3041  0.883
 1.655  2955 2954  0.931
 1.751  3122 3121  0.942
 1.688  2958 2957  0.946
 1.741  3073 3072  0.955
 1.676  2964 2963  0.937
 1.664  2940 2939  0.963
 1.757  3100 3099  0.916
 1.857  3233 3232  0.955
 1.833  3199 3198  0.912
 1.965  3422 3421  0.956
 2.061  3622 3621  0.889
 2.016  3498 3497  0.884
 1.703  2977 2976  0.917
 1.989  3408 3407  0.981
 1.888  3289 3288  0.926
 2.038  3593 3592  0.943
 2.095  3659 3658  0.928
 1.97  3463 3462  0.901
 2.213  3868 3867  0.956
 2.007  3499 3498  0.946
 1.972  3453 3452  0.92
 2.931  4952 4951  0.988
 3.489  5908 5907  0.963
 3.89  6433 6432  1.031
 3.687  6203 6202  1.008
 3.514  5824 5823  1.002
 3.69  6247 6246  0.962
 3.762  6331 6330  1
 3.46  5859 5858  0.997
 3.797  6383 6382  0.996
 3.554  6000 5999  0.993
 3.438  5783 5782  0.982
 4.017  6780 6779  0.986
 3.644  6154 6153  0.982
 4.012  6771 6770  1.035
 3.662  6171 6170  0.986
 4.135  6939 6938  1.035
 3.874  6460 6459  1.011
 3.678  6120 6119  1.044
 4.28  7149 7148  0.988
 4.193  7027 7026  1.006
 3.757  6331 6330  1.014
 4.148  6734 6733  1.031
 3.558  5932 5931  0.993
 3.968  6667 6666  0.988
 4.296  7169 7168  0.976
 3.632  6122 6121  1.02
 3.835  6465 6464  0.981
 4.293  7064 7063  1.083
 3.845  6494 6493  1.039
 4.552  7699 7698  1.002
 4.173  7066 7065  0.988
 4.26  7205 7204  1.017
 4.14  6840 6839  0.976
 3.672  6124 6123  1.014
 4.068  6635 6634  1.024
 3.953  6588 6587  0.983
 4.076  6813 6812  1.008
 4.335  7254 7253  1.025
 4.013  6684 6683  1.016
 4.299  7244 7243  1.044
 4.34  7247 7246  1.019
 3.823  6407 6406  1.016
 3.741  6276 6275  1.015
 4.336  7264 7263  1.052
 4.669  7852 7851  1.022
 3.775  6341 6340  1.007
 4.542  7578 7577  1.04
 4.063  6766 6765  1.035
 3.817  6365 6364  1.022
 4.37  7310 7309  1.003
 7.878  12730 12729  1.098
 7.991  12898 12897  1.126
 8.537  13730 13729  1.125
 8.553  13712 13711  1.082
 8.627  13770 13769  1.159
 8.585  13827 13826  1.079
 10.084  13771 13770  1.177
 8.981  14275 14274  1.403
 9.192  14642 14641  1.128
 8.561  13684 13683  1.062
 8.99  14256 14255  1.125
 8.556  13732 13731  1.115
 8.843  14104 14103  1.096
 9.151  14695 14694  1.066
 9.176  14718 14717  1.121
 8.588  13724 13723  1.099
 8.938  14312 14311  1.216
 8.581  13721 13720  1.142
 9.667  15324 15323  1.069
 9.164  14529 14528  1.125
 9.611  15307 15306  1.068
 8.792  14038 14037  1.097
 8.574  13665 13664  1.062
 8.632  13873 13872  1.096
 8.587  13728 13727  1.098
 8.96  14361 14360  1.083
 8.567  13734 13733  1.071
 9.06  14563 14562  1.105
 10.224  15309 15308  1.225
 8.454  13515 13514  1.11
 8.983  14366 14365  1.113
 9.89  15876 15875  1.059
 8.471  13507 13506  1.094
 8.188  13034 13033  1.243
 9.699  15522 15521  1.066
 10.051  16060 16059  1.086
 9.409  15044 15043  1.091
 9.45  15094 15093  1.079
 8.854  14109 14108  1.12
 9.127  14516 14515  1.116
 8.818  14101 14100  1.121
 8.496  13570 13569  1.087
 9.609  15286 15285  1.087
 9.127  14587 14586  1.114
 8.681  13863 13862  1.107
 10.645  16929 16928  1.101
 9.629  15327 15326  1.211
 8.723  13919 13918  1.081
 9.193  14482 14481  1.127
 9.415  15061 15060  1.118
 19.851  30077 30076  1.187
 20.426  31100 31099  1.225
 19.196  28907 28906  1.212
 19.844  30172 30171  1.192
 18.284  27760 27759  1.219
 20.477  30967 30966  1.19
 21.749  33043 33042  1.214
 18.903  28585 28584  1.195
 19.218  29034 29033  1.223
 18.056  27328 27327  1.226
 20.147  30402 30401  1.187
 23.271  32155 32154  1.261
 20.947  31624 31623  1.194
 19.12  28992 28991  1.205
 20.426  30846 30845  1.215
 18.091  27481 27480  1.205
 17.514  26522 26521  1.179
 19.999  30394 30393  1.21
 18.472  28010 28009  1.207
 18.467  28119 28118  1.21
 20.133  30412 30411  1.195
 20.777  31406 31405  1.228
 20.604  31194 31193  1.215
 18.153  27571 27570  1.17
 20.042  30345 30344  1.201
 21.395  32322 32321  1.145
 20.684  31337 31336  1.13
 21.455  32438 32437  1.111
 21.627  32784 32783  1.158
 21.339  32408 32407  1.139
 19.761  29932 29931  1.154
 21.265  32187 32186  1.152
 24.271  36574 36573  1.188
 20.843  31608 31607  1.152
 18.751  28425 28424  1.133
 20.69  31098 31097  1.156
 22.046  33445 33444  1.167
 20.437  30911 30910  1.171
 22.314  33722 33721  1.142
 20.379  30922 30921  1.147
 23.55  35637 35636  1.15
 22.51  34029 34028  1.134
 20.875  31544 31543  1.159
 21.249  32082 32081  1.171
 23.006  34883 34882  1.154
 22.203  33624 33623  1.161
 21.695  32732 32731  1.206
 20.752  31386 31385  1.172
 22.119  33442 33441  1.197
 19.49  29501 29500  1.157
 46.781  66970 66969  1.386
 45.444  65136 65135  1.33
 48.237  69129 69128  1.325
 43.933  63323 63322  1.301
 46.633  67217 67216  1.332
 46.317  66578 66577  1.291
 44.81  64278 64277  1.358
 49.757  71329 71328  1.311
 45.429  65109 65108  1.503
 48.928  70034 70033  1.268
 40.703  58276 58275  1.422
 42.386  60997 60996  1.277
 43.983  63329 63328  1.325
 41.661  59940 59939  1.314
 45.854  65805 65804  1.303
 44.208  63494 63493  1.324
 46.962  67488 67487  1.29
 45.551  65285 65284  1.361
 46.385  66710 66709  1.342
 42.162  60693 60692  1.37
 45.625  64900 64899  1.335
 41.117  58827 58826  1.458
 45.815  66089 66088  1.266
 45.497  65120 65119  1.317
 47.189  64687 64686  1.383
 46.048  65885 65884  1.38
 49.97  71700 71699  1.334
 46.293  66315 66314  1.274
 48.774  70063 70062  1.356
 48.874  69374 69373  1.326
 50.541  72301 72300  1.343
 46.955  64526 64525  1.292
 44.195  63465 63464  1.324
 47.118  67343 67342  1.358
 50.034  70809 70808  1.366
 44.009  62942 62941  1.32
 52.077  74759 74758  1.302
 47.529  68139 68138  1.32
 47.209  67812 67811  1.303
 49.129  69176 69175  1.352
 47.795  68585 68584  1.327
 54.204  77681 77680  1.312
 50.931  73121 73120  1.357
 48.051  67886 67885  1.337
 51.655  72769 72768  1.385
 47.357  67514 67513  1.364
 49.123  70422 70421  1.373
 49.292  70413 70412  1.33
 48.668  68446 68445  1.372
 46.07  65980 65979  1.302
 102.815  137081 137080  1.611
 101.582  138555 138554  1.506
 114.258  152723 152722  1.505
 107.273  145327 145326  1.499
 98.279  133972 133971  1.586
 99.203  134799 134798  1.63
 108.099  144951 144950  1.551
 111.338  148848 148847  1.48
 107.559  146541 146540  1.502
 105.179  140129 140128  1.616
 103.859  141520 141519  1.502
 108.32  147738 147737  1.537
 107.762  144110 144109  1.606
 105.358  143096 143095  1.502
 101.691  138266 138265  1.56
 106.891  145480 145479  1.558
 106.995  145513 145512  1.505
 107.829  146875 146874  1.487
 110.247  146994 146993  1.569
 100.821  136798 136797  1.521
 107.53  144342 144341  1.543
 112.853  150426 150425  1.461
 106.063  141605 141604  1.52
 103.079  140530 140529  1.456
 115.657  154071 154070  1.551
 115.948  154458 154457  1.659
 106.018  144144 144143  1.456
 106.804  140637 140636  1.689
 123.932  164736 164735  1.56
 112.697  152189 152188  1.644
 106.042  141164 141163  1.627
 113.089  150539 150538  1.675
 110.611  149166 149165  1.484
 120.656  158145 158144  1.534
 110.686  146670 146669  1.689
 109.827  146027 146026  1.545
 120.095  158144 158143  1.558
 111.627  148695 148694  2.318
 110.604  147625 147624  1.525
 116.496  155584 155583  1.561
 110.276  147324 147323  1.597
 109.507  147333 147332  1.508
 112.191  150240 150239  1.539
 111.385  148678 148677  1.541
 122.686  165625 165624  1.447
 119.969  160325 160324  1.542
 119.95  159452 159451  1.494
 117.641  156003 156002  1.612
 114.543  152521 152520  1.519
 115.001  153434 153433  1.599
 248.89  316390 316389  1.743
 253.599  323364 323363  1.745
 244.813  311650 311649  1.871
 239.541  305339 305338  1.82
 243.337  309970 309969  1.729
 225.912  288364 288363  1.732
 238.4  303322 303321  1.721
 237.212  301795 301794  1.759
 219.952  281482 281481  1.804
 255.673  325563 325562  1.664
 238.781  304539 304538  1.772
 251.266  320266 320265  1.771
 240.466  307008 307007  1.932
 244.739  311307 311306  1.755
 253.724  321790 321789  1.8
 258.121  328355 328354  1.704
 237.866  302462 302461  1.801
 236.919  301333 301332  1.862
 226.612  289496 289495  1.658
 234.124  297376 297375  1.806
 231.682  296124 296123  1.792
 261.714  332648 332647  1.854
 234.602  299090 299089  1.624
 228.254  290665 290664  1.891
 257.235  324230 324229  2.079
 253.651  322536 322535  1.896
 258.925  322334 322333  0.625
 251.535  319935 319934  1.847
 253.128  313862 313861  0.651
 272.754  345221 345220  1.866
 259.992  323771 323770  0.631
 266.722  339105 339104  1.941
 256.452  319652 319651  0.618
 237.245  302468 302467  1.61
 250.83  312056 312055  0.621
 266.255  337658 337657  2.066
 288.648  360024 360023  0.662
 254.787  323693 323692  1.95
 287.767  359202 359201  0.665
 268.12  338297 338296  1.977
 288.018  358630 358629  0.673
 251.114  318730 318729  1.973
 286.771  357590 357589  0.666
 280.08  355894 355893  1.959
 292.765  361080 361079  0.674
 303.496  382473 382472  1.691
 311.141  386859 386858  0.694
 282.419  357343 357342  2.056
 310.712  386607 386606  0.654
 288.751  365084 365083  1.916
 311.774  388760 388759  0.677
 307.116  388467 388466  1.938
 308.409  383527 383526  0.664
 288.99  366841 366840  1.82
 315.798  391116 391115  0.667
 295.964  372312 372311  1.7
 336.566  416160 416159  0.711
 305.077  385655 385654  2.07
 345.508  427728 427727  0.658
 320.008  402604 402603  1.771
 335.645  416153 416152  0.651
 311.057  391203 391202  1.76
 339.046  420718 420717  0.688
 306.562  387528 387527  2.145
 341.946  423010 423009  0.676
 284.965  359580 359579  2.118
 353.04  437115 437114  0.674
 333.396  419879 419878  2.038
 348.54  432171 432170  0.698
 304.575  385166 385165  1.888
 356.683  441660 441659  0.662
 309.563  392030 392029  1.729
 358.321  440100 440099  0.651
 333.051  417071 417070  1.716
 370.951  460003 460002  0.681
 356.896  444976 444975  1.995
 380.848  471892 471891  0.648
 310.626  393562 393561  2.007
 377.403  463943 463942  0.683
 349.161  438189 438188  1.957
 378.948  466758 466757  0.675
 350.089  441367 441366  2.041
 377.61  465552 465551  0.652
 337.577  424923 424922  2.037
 377.757  466381 466380  0.643
 303.784  383936 383935  2.117
 396.61  489504 489503  0.703
 377.911  475222 475221  1.909
 391.611  480804 480803  0.667
 313.279  391273 391272  1.848
 397.898  482851 482850  0.662
 355.107  446261 446260  2.111
 398.943  492623 492622  0.689
 362.726  456873 456872  1.891
 387.065  477730 477729  0.69
 396.781  495124 495123  1.786
 412.424  507361 507360  0.655
 382.986  470446 470445  2.137
 418.607  516623 516622  1.705
 389.302  488010 488009  1.857
 433.735  533001 533000  0.681
 360.366  452973 452972  1.739
 419.402  518094 518093  0.65
 354.65  445855 445854  1.7
 419.188  518264 518263  0.654
 415.191  518185 518184  1.961
 454.786  558927 558926  0.672
 345.41  434419 434418  1.919
 428.001  526305 526304  0.687
 394.338  493860 493859  1.779
 429.614  528604 528603  0.655
 412.68  515831 515830  1.715
 463.502  569768 569767  0.651
 418.592  522914 522913  1.876
 450.658  552237 552236  0.696
 432.804  542094 542093  1.899
 455.943  560115 560114  0.692
 399.767  498586 498585  2.02
 449.253  550890 550889  0.688
 441.483  550643 550642  2.07
 441.691  542185 542184  0.672
 378.433  473393 473392  2.017
 436.904  537214 537213  0.663
 473.207  588548 588547  1.932
 438.287  539756 539755  0.714
 426.023  532789 532788  1.727
 490.439  602647 602646  0.654
 411.461  516068 516067  1.895
 497.188  610600 610599  0.684
 426.384  533263 533262  1.882
 492.195  603985 603984  0.654
 446.678  555735 555734  1.815
 466.856  572466 572465  0.649
 432.904  541009 541008  1.857
 461.732  568281 568280  0.651
 468.007  584194 584193  1.766
 494.353  606645 606644  0.645
 429.774  536895 536894  1.749
 515.69  629860 629859  0.653
 474.856  591062 591061  1.923
 499.585  612235 612234  0.652
 449.967  561913 561912  1.952
 510.864  625508 625507  0.692
 502.583  622823 622822  1.718
 448.865  552284 552283  0.67
 501.75  620547 620546  1.805
 469.218  576643 576642  0.71
 510.089  632454 632453  2.085
 537.638  656227 656226  0.657
 499.681  618326 618325  1.743
 509.338  623182 623181  0.658
 476.895  590799 590798  2.084
 499.568  609470 609469  0.646
 491.627  610393 610392  1.821
 467.241  574813 574812  0.648
 565.348  697198 697197  2.002
 532.687  650123 650122  0.682
 474.473  589072 589071  2.094
 516.21  630459 630458  0.725
 460.61  573637 573636  1.925
 517.237  631261 631260  0.735
 478.168  594613 594612  2.001
 553.035  675174 675173  0.673
 509.893  629818 629817  2.076
 526.59  643830 643829  0.704
 498.442  617259 617258  2.141
 522.925  637554 637553  0.667
 531.007  655459 655458  2.05
 574.019  699640 699639  0.674
 468.334  581921 581920  2.162
 528.827  643941 643940  0.736
 452.106  560625 560624  2.294
 522.773  638793 638792  0.742
 486.952  604185 604184  1.896
 580.04  707502 707501  0.659
 524.953  647828 647827  1.76
 593.927  721756 721755  0.788
 536.865  665209 665208  2.195
 595.877  715877 715876  0.696
 505.964  627756 627755  1.848
 562.378  687271 687270  0.657
 444.125  554620 554619  1.781
 585.85  714996 714995  0.642
 560.043  691380 691379  2.014
 572.525  698097 698096  0.672
 545.955  674152 674151  1.833
 588.494  717190 717189  0.659
 558.357  689355 689354  1.765
 528.98  646473 646472  0.647
 564.939  698456 698455  1.912
 612.37  745971 745970  0.661
 588.52  725187 725186  2.014
 605.764  738628 738627  0.655
 493.427  610260 610259  1.746
 660.339  802178 802177  0.762
 477.92  593674 593673  2.013
 617.479  752608 752607  0.66
 512.067  633686 633685  1.747
 687.18  825371 825370  0.711
 594.762  730710 730709  1.712
 607.748  737936 737935  0.683
 430.784  534318 534317  2.006
 642.032  778983 778982  0.764
 542.369  667479 667478  1.748
 648.964  788115 788114  0.666
 601.617  739431 739430  2.107
 623.973  758604 758603  0.783
 588.739  726331 726330  1.816
 665.375  808280 808279  0.656
 607.258  740074 740073  2.258
 640.436  775803 775802  0.675
 537.226  665739 665738  1.833
 636.658  765946 765945  0.69
 690.877  843236 843235  1.759
 648.757  787728 787727  0.719
 645.996  795119 795118  1.763
 625.291  761432 761431  0.651
 603.807  739136 739135  2.283
 691.272  836084 836083  0.687
 622.53  763934 763933  1.813
 631.857  767553 767552  0.722
 604.888  745792 745791  1.884
 655.912  794471 794470  0.732
 590.614  727717 727716  1.89
 637.587  775879 775878  0.683
 720.625  879808 879807  1.779
 683.121  831383 831382  0.637
 560.624  686623 686622  2.248
 649.928  784662 784661  0.721
 697.207  851048 851047  2.082
 634.394  763526 763525  0.731
 632.945  778430 778429  1.722
 649.188  785647 785646  0.78
 642.418  789312 789311  4.257
 668.702  811908 811907  0.654
 616.051  757393 757392  1.78
 792.543  952215 952214  0.732
 602.229  741155 741154  1.695
 721.569  871394 871393  0.755
 616.425  758215 758214  1.797
 659.288  798650 798649  0.686
 699.122  855292 855291  2.048
 723.985  872210 872209  0.721
 650.213  797285 797284  1.749
 742.271  894175 894174  0.699
 631.381  743782 743781  3.447
 670.056  808267 808266  0.692
 723.323  881977 881976  1.891
 734.165  885645 885644  0.756
 722.743  884403 884402  1.81
 722.589  872343 872342  0.794
 744.353  905939 905938  1.763
 677.884  820496 820495  0.681
 692.811  846274 846273  1.764
 740.623  889508 889507  0.801
 696.238  852086 852085  1.789
 716.731  863839 863838  0.692
 616.861  757443 757442  1.836
 723.719  874566 874565  0.685
 658.977  807828 807827  1.773
 777.205  934902 934901  0.71
 688.53  841030 841029  1.807
 738.77  890748 890747  0.686
 707.981  865179 865178  1.816
 727.632  877869 877868  0.726
 720.74  882843 882842  2.165
 720.003  871514 871513  0.653
 726.194  886280 886279  2.101
 740.423  897117 897116  0.699
 713.78  875229 875228  1.762
 786.027  948843 948842  0.697
 710.366  867752 867751  2.513
 803.161  967152 967151  0.725
 842.87  1023907 1023906  1.784
 759.233  914338 914337  0.708
 759.427  926188 926187  1.718
 780.217  940057 940056  0.712
 708.916  864462 864461  1.685
 797.201  960174 960173  0.78
 718.724  879108 879107  1.76
 817.395  981178 981177  0.735
 773.854  944485 944484  1.716
 797.234  961507 961506  0.687
 735.735  899249 899248  1.718
 782.796  942033 942032  0.725
 770.431  939060 939059  1.723
 875.289  1050461 1050460  0.728
 739.544  903649 903648  1.743
 807.42  973546 973545  0.682
 716.36  876392 876391  1.711
 873.395  1052092 1052091  0.676
 723.926  884938 884937  1.742
 798.604  966875 966874  0.683
 763.55  932363 932362  1.723
 746.964  905238 905237  0.687
 776.174  946471 946470  1.742
 832.246  1003009 1003008  0.688
 746.812  913883 913882  1.757
 894.452  1067593 1067592  0.778
 770.308  939818 939817  1.736
 725.047  875777 875776  0.699
 788.073  960845 960844  1.698
 877.938  1056840 1056839  0.692
 736.54  900148 900147  1.689
 824.74  992223 992222  0.684
 792.416  962972 962971  1.743
 883.283  1063317 1063316  0.671
 773.212  941696 941695  1.724
 867.258  1044485 1044484  0.688
 811.03  986139 986138  1.801
 843.483  1016738 1016737  0.674
 792.052  964917 964916  1.692
 843.729  1016451 1016450  0.684
 973.596  1174082 1174081  1.722
 792.848  958683 958682  0.68
 862.303  1046514 1046513  1.734
 855.529  1030036 1030035  0.673
 849.69  1030697 1030696  1.971
 850.911  1022076 1022075  0.715
 875.233  1058140 1058139  1.726
 947.069  1132069 1132068  0.769
 887.295  1074112 1074111  1.752
 802.069  966547 966546  0.668
 759.168  924581 924580  1.713
 839.801  1009104 1009103  0.717
 744.253  904359 904358  1.717
 999.259  1189833 1189832  0.733
 863.834  1046080 1046079  1.685
 963.745  1149092 1149091  0.728
 762.896  929319 929318  1.747
 922.323  1102300 1102299  0.691
 778.509  945910 945909  1.681
 880.273  1054583 1054582  0.741
 868.303  1049429 1049428  1.75
 972.863  1160752 1160751  0.69
 831.354  1009498 1009497  1.768
 935.733  1117358 1117357  0.702
 883.806  1071534 1071533  1.675
 1020.49  1214537 1214536  0.701
 898.136  1083857 1083856  1.728
 943.157  1126700 1126699  0.704
 879.256  1065441 1065440  1.747
 835.548  1004354 1004353  0.705
 924.249  1112933 1112932  1.737
 978.67  1167917 1167916  0.729
 968.124  1164289 1164288  1.708
 1002.27  1195999 1195998  0.746
 924.367  1114570 1114569  1.679
 983.069  1173329 1173328  0.699
 871.091  1055375 1055374  1.736
 1011.93  1204874 1204873  0.748
 945.809  1140984 1140983  1.658
 989.888  1181608 1181607  0.71
 835.226  1012281 1012280  1.753
 970.203  1158097 1158096  0.845
 1040.12  1247091 1247090  1.751
 1074.02  1273732 1273731  0.702
 984.905  1184131 1184130  1.752
 987.469  1177479 1177478  0.718
 978.544  1179710 1179709  1.788
 976.949  1164606 1164605  0.801
 953.608  1150302 1150301  1.759
 1001.31  1193425 1193424  0.697
 1073.81  1283818 1283817  1.718
 996.491  1184759 1184758  0.714
 965.413  1161050 1161049  1.736
 1002.69  1194107 1194106  0.684
 1005.75  1209543 1209542  1.712
 1044.2  1240811 1240810  0.703
 959.473  1155219 1155218  1.686
 987.32  1172439 1172438  0.836
 912.549  1103602 1103601  1.831
 1012.47  1204100 1204099  1.051
 933.571  1121554 1121553  1.721
 1015.27  1208916 1208915  0.747
 949.308  1142336 1142335  1.969
 957.111  1144145 1144144  0.692
 1002.04  1201792 1201791  1.73
 976.423  1165624 1165623  0.701
 900.621  1087050 1087049  1.761
 1131.35  1344068 1344067  0.681
 894.432  1081361 1081360  1.735
 1074.83  1276606 1276605  0.759
 902.654  1091601 1091600  1.739
 1003.65  1194321 1194320  0.7
 1069.84  1279863 1279862  1.792
 1142.31  1203863 1203862  0.71
 963.474  1163420 1163419  1.733
 1188.17  1405193 1405192  0.761
 967.44  1163052 1163051  1.903
 940.557  1123411 1123410  0.701
 966.904  1165856 1165855  1.734
 1097.25  1302098 1302097  0.728
 943.4  1136847 1136846  1.753
 1039.39  1236806 1236805  0.665
 1032.48  1240504 1240503  1.663
 1058.78  1258372 1258371  0.726
 1080.51  1290064 1290063  1.759
 1068.25  1266300 1266299  0.69
 1029.61  1233767 1233766  1.7
 1141.27  1351490 1351489  0.713
 1101.49  1284002 1284001  1.987
 1158.39  1371647 1371646  0.737
 1013.5  1204444 1204443  1.746
 1193.89  1412996 1412995  0.71
 975.809  1174004 1174003  1.701
 1152.26  1360211 1360210  0.772
 1123.25  1341672 1341671  1.71
 1075.53  1279107 1279106  0.682
 1080  1287529 1287528  1.743
 1115.8  1322998 1322997  0.691
 1126.89  1344636 1344635  1.833
 1095.04  1296109 1296108  0.781
 1048.07  1257077 1257076  1.778
 1175.61  1390420 1390419  0.752
 1121.43  1336566 1336565  1.688
 1098.65  1303673 1303672  0.688
 1068.45  1277966 1277965  1.696
 1148.51  1362061 1362060  0.679
 1191.65  1419777 1419776  1.752
 1199.78  1415834 1415833  0.732
 1101.37  1317286 1317285  1.775
 1232.64  1455255 1455254  0.689
 1348.73  1599397 1599396  1.796
 1113.72  1320402 1320401  0.679
 1128.73  1348883 1348882  1.831
 1242.79  1464157 1464156  0.832
 1158.78  1381272 1381271  1.82
 1186.59  1405201 1405200  0.693
 1132.88  1351849 1351848  1.743
 1242.37  1467834 1467833  0.697
 1213.72  1439082 1439081  1.79
 1239.38  1461918 1461917  0.702
 948.32  1142974 1142973  1.725
 1147.78  1356930 1356929  0.734
 1149.81  1370074 1370073  1.745
 1211.81  1428652 1428651  0.787
 1118.1  1335939 1335938  1.746
 1114.92  1317638 1317637  0.71
 1185.96  1378311 1378310  1.782
 1103.19  1304098 1304097  0.719
 1136.81  1355657 1355656  1.857
 1238.23  1457865 1457864  0.823
 1063.46  1273299 1273298  1.778
 1280.14  1506709 1506708  0.75
 1161.12  1383097 1383096  1.71
 1255  1473302 1473301  0.717
 1218.8  1454169 1454168  1.802
 1230.2  1450223 1450222  0.73
 1139.02  1360577 1360576  2.471
 1097.98  1300919 1300918  0.889
 1121.61  1342824 1342823  1.725
 1235.11  1458856 1458855  0.688
 1304.38  1550810 1550809  1.824
 1165.81  1377999 1377998  0.683
 1272.09  1512380 1512379  1.775
 1220.19  1444071 1444070  0.696
 1156.66  1378867 1378866  1.783
 1307.66  1541031 1541030  0.777
 1347.56  1600661 1600660  1.796
 1165.58  1377542 1377541  0.747
 1184.14  1411735 1411734  1.724
 1109.63  1315920 1315919  0.714
 1304.57  1513949 1513948  1.777
 1246.92  1466477 1466476  0.744
 1158.72  1378620 1378619  1.734
 1352.02  1592315 1592314  0.728
 1212.76  1441036 1441035  1.738
 1219.57  1443288 1443287  0.715
 1101.24  1318232 1318231  1.76
 1229.74  1453679 1453678  0.697
 1186.97  1414803 1414802  1.792
 1289.22  1520811 1520810  0.709
 1228.19  1460447 1460446  1.771
 1335.2  1570084 1570083  0.708
 1168.21  1391169 1391168  1.71
 1255.6  1482256 1482255  0.712
 1222.84  1459033 1459032  1.801
 1392.87  1636215 1636214  0.737
 1162.26  1389101 1389100  1.777
 1329.1  1567122 1567121  0.703
 1136.24  1355430 1355429  1.754
 1364.43  1604698 1604697  0.681
 1193.9  1426274 1426273  1.769
 1255.63  1481419 1481418  0.781
 1387.73  1640455 1640454  1.814
 1424.34  1670101 1670100  0.721
 1195.47  1423329 1423328  1.799
 1365.5  1608496 1608495  0.72
 1236.68  1470517 1470516  1.775
 1141.24  1352498 1352497  0.735
 1381.21  1634149 1634148  1.769
 1404.02  1649711 1649710  0.734
 1305.75  1551904 1551903  1.837
 1321.36  1552643 1552642  0.702
 1233.2  1467192 1467191  1.762
 1428.48  1678339 1678338  0.717
 1414.81  1674907 1674906  1.772
 1397.66  1643784 1643783  0.683
 1497.37  1764267 1764266  1.792
 1430.39  1676784 1676783  0.728
 1290.7  1532161 1532160  1.804
 1395.54  1638855 1638854  0.693
 1219.84  1451460 1451459  1.822
 1442.72  1691855 1691854  0.722
 1360.43  1611828 1611827  1.75
 1334.36  1567901 1567900  0.766
 1338.43  1587222 1587221  1.751
 1447.91  1698008 1698007  0.727
 1439.74  1665079 1665078  1.873
 1412.92  1655464 1655463  0.773
 1355.23  1604959 1604958  1.808
 1346.64  1586646 1586645  0.753
 1307  1550783 1550782  1.768
 1298.79  1535430 1535429  0.68
 1332.28  1582264 1582263  1.735
 1449.74  1697572 1697571  0.733
 1540.96  1812539 1812538  1.781
 1558.02  1821041 1821040  0.741
 1317.42  1563025 1563024  1.771
 1545  1806478 1806477  0.821
 1488.68  1755311 1755310  1.953
 1428.36  1673196 1673195  0.768
 1272.95  1510669 1510668  1.711
 1545.38  1804524 1804523  0.792
 1569.34  1832066 1832065  1.895
 1490.78  1743951 1743950  0.726
 1416.9  1673812 1673811  1.814
 1577.37  1842378 1842377  0.889
 1484.33  1751191 1751190  1.821
 1422.09  1673148 1673147  0.729
 1371.25  1625657 1625656  1.81
 1418.25  1669069 1669068  0.782
 1473.74  1739434 1739433  1.78
 1485.19  1739647 1739646  0.753
 1349.29  1600853 1600852  1.754
 1558.22  1816977 1816976  0.878
 1287.45  1530926 1530925  1.79
 1354.41  1598370 1598369  0.956
 1345.59  1596782 1596781  1.856
 1548.03  1810595 1810594  0.861
 1562.49  1841049 1841048  1.796
 1462.46  1716586 1716585  0.744
 1344.43  1597534 1597533  1.773
 1483.19  1736268 1736267  0.793
 1397.91  1657096 1657095  1.759
 1642.16  1913711 1913710  0.907
 1445.35  1707543 1707542  1.754
 1522.73  1782485 1782484  0.838
 1537.93  1811198 1811197  1.772
 1672.06  1948475 1948474  0.844
 1386.71  1641278 1641277  1.787
 1535.27  1789102 1789101  0.854
 1595.98  1874912 1874911  1.996
 1479.7  1727701 1727700  0.908
 1479.3  1752210 1752209  10.655
 1663.12  1925698 1925697  0.85
 1405.56  1658042 1658041  3.91
 1515.19  1764143 1764142  0.813
 1446.1  1713664 1713663  1.85
 1547.52  1811968 1811967  0.819
 1384.47  1643806 1643805  1.787
 1692.77  1974866 1974865  0.767
 1495.52  1767783 1767782  1.788
 1507.21  1763864 1763863  0.68
 1607.83  1892044 1892043  1.853
 1659.19  1939138 1939137  0.733
 1439  1705132 1705131  1.804
 1697.11  1981365 1981364  0.762
 1429.17  1690452 1690451  1.894
 1578.06  1842954 1842953  0.764
 1591.3  1855870 1855869  2.896
 1569.23  1810152 1810151  0.8
 1588.83  1867781 1867780  2.03
 1567.78  1826338 1826337  0.832
 1497.31  1769096 1769095  1.897
 1697.89  1972688 1972687  0.906
 1563.47  1842133 1842132  1.784
 1591.07  1843615 1843614  0.769
 1462.7  1722012 1722011  1.796
 1569.68  1832811 1832810  0.723
 1567.55  1849721 1849720  1.826
 1587.65  1853845 1853844  0.725
 1611.32  1896190 1896189  1.785
 1725.83  2001630 2001629  0.77
 1636.22  1913589 1913588  1.811
 1696.01  1972957 1972956  0.896
 1728.52  2022911 2022910  2.176
 1632.32  1902569 1902568  0.784
 1555.39  1822604 1822603  2.197
 1632.88  1904834 1904833  0.797
 1582.72  1862606 1862605  1.793
 1930.77  2236535 2236534  0.758
 1732.16  2029370 2029369  2.682
 1656.6  1931722 1931721  0.829
 1697.33  1989857 1989856  2.033
 1801.72  2095539 2095538  0.802
 1846.6  2153913 2153912  1.993
 1695.27  1973747 1973746  0.807
 1564.67  1840777 1840776  1.942
 1746.34  2031553 2031552  0.813
 1711.05  2004794 2004793  1.781
 1611.79  1885999 1885998  0.765
 1568.57  1850378 1850377  1.859
 1746.79  2030687 2030686  0.825
 1568.97  1845635 1845634  1.843
 1827.68  2113137 2113136  0.907
 1598.35  1879467 1879466  1.795
 1621.22  1885436 1885435  0.798
 1677.6  1971476 1971475  1.781
 1823.62  2114560 2114559  0.802
 1723.59  2019054 2019053  1.799
 1676.38  1956699 1956698  0.738
 1685.16  1978609 1978608  1.856
 1834.73  2132962 2132961  0.798
 1631.61  1919233 1919232  1.78
 1806.47  2096685 2096684  0.744
 1616.86  1901993 1901992  1.773
 1869.97  2164809 2164808  0.923
 1708.85  2002346 2002345  1.857
 1681.57  1947719 1947718  0.788
 1785.92  2092763 2092762  1.837
 1704.16  1983847 1983846  0.876
 1631.53  1919284 1919283  1.854
 1752.78  2039095 2039094  0.732
 1705.66  2004653 2004652  1.792
 1865.84  2156336 2156335  0.881
 1699.93  1995854 1995853  2.042
 1832.37  2123565 2123564  0.868
 1676.05  1967623 1967622  1.875
 1786.28  2072252 2072251  0.767
 1560.44  1836500 1836499  1.772
 1902.44  2203130 2203129  0.696
 1679.15  1971412 1971411  1.811
 1798.08  2089543 2089542  0.755
 1837.3  2143333 2143332  1.96
 1863.03  2159598 2159597  0.805
 1813.82  2122501 2122500  1.919
 1849.64  2145355 2145354  0.768
 1498.05  1766711 1766710  1.789
 1756.21  2037636 2037635  0.8
 1798.54  2103970 2103969  1.799
 1985.56  2293271 2293270  0.755
 1859.97  2176098 2176097  1.777
 1852.06  2143529 2143528  0.738
 2021.26  2350283 2350282  1.869
 1841.88  2133658 2133657  0.755
 1955.13  2274167 2274166  2.756
 1876.24  2168790 2168789  0.774
 2092.17  2422697 2422696  1.827
 1776.25  2060685 2060684  0.72
 2095.97  2428409 2428408  1.888
 1893.77  2194393 2194392  0.685
 2006.42  2327616 2327615  1.725
 1867.23  2163965 2163964  0.734
 1797.89  2102922 2102921  1.816
 1920.83  2213694 2213693  0.724
 2087.06  2421657 2421656  1.842
 1887.45  2184919 2184918  0.718
 2014.4  2338216 2338215  1.807
 1823.57  2065660 2065659  0.788
 1898.34  2211699 2211698  1.833
 1869.91  2168340 2168339  0.752
 1845.47  2159091 2159090  1.838
 1809.23  2099912 2099911  0.771
 1944.4  2259578 2259577  1.85
 1791.69  2077861 2077860  0.734
 1777.22  2074344 2074343  1.812
 1922.39  2224360 2224359  0.783
 1929.35  2246586 2246585  1.714
 1955.42  2217244 2217243  0.713
 1843.55  2152916 2152915  1.866
 1802.22  2089575 2089574  0.813
 2149.24  2486311 2486310  1.797
 1960.7  2262183 2262182  0.788
 2023.68  2352775 2352774  1.791
 1934.23  2243813 2243812  0.735
 1880.95  2192360 2192359  1.866
 1930.22  2234610 2234609  0.733
 1860.93  2168568 2168567  1.875
 2021.47  2330789 2330788  0.753
 1811.99  2115959 2115958  1.841
 2011.32  2322304 2322303  0.684
 1826.96  2130024 2130023  2.744
 2062.19  2375742 2375741  0.734
 1951.73  2269585 2269584  1.84
 1920.07  2224271 2224270  0.715
 1858.65  2171305 2171304  1.787
 2056.27  2370512 2370511  0.855
 1903.37  2215254 2215253  1.825
 1943.77  2246665 2246664  0.68
 2015.28  2341985 2341984  1.758
 1936.54  2183650 2183649  0.835
 2013.11  2341005 2341004  1.831
 2231.99  2561890 2561889  0.686
 1813.75  2119154 2119153  1.858
 1992.34  2297710 2297709  0.747
 1813.37  2118529 2118528  1.746
 2141.64  2461899 2461898  0.683
 2197.53  2538965 2538964  1.924
 2120.6  2442506 2442505  0.749
 2118.27  2454236 2454235  1.846
 2302.84  2635740 2635739  0.699
 1866.37  2176401 2176400  1.768
 1885.02  2176348 2176347  0.782
 1901.92  2213468 2213467  1.858
 2045.19  2356741 2356740  0.724
 2004.38  2329819 2329818  1.834
 2225.41  2547472 2547471  0.799
 1946.18  2265141 2265140  2.025
 2184.02  2502287 2502286  0.744
 2244.26  2592991 2592990  1.931
 2048.73  2361235 2361234  0.769
 1977.7  2300002 2300001  1.849
 2195.87  2518805 2518804  0.682
 2169.97  2505342 2505341  1.941
 2121.92  2439009 2439008  0.798
 2050.7  2378540 2378539  1.825
 1962.22  2260406 2260405  0.807
 2203.05  2546016 2546015  1.845
 2203.82  2529271 2529270  0.828
 2250.4  2595527 2595526  1.787
 2259.12  2592428 2592427  0.674
 2003.45  2333655 2333654  1.868
 2096.12  2414298 2414297  0.696
 1955.91  2274551 2274550  1.812
 2242.47  2574487 2574486  0.733
 2063.49  2392044 2392043  1.842
 2273.61  2611439 2611438  0.721
 2023.54  2346525 2346524  1.783
 2149.63  2472925 2472924  0.734
 1875.3  2190818 2190817  1.894
 2119.16  2440051 2440050  0.706
 2134.48  2469580 2469579  1.805
 2186.92  2515470 2515469  0.77
 2227.7  2562118 2562117  2.218
 2273.25  2599351 2599350  0.763
 2141.91  2485455 2485454  1.831
 2282.22  2617592 2617591  0.748
 2204.59  2550382 2550381  1.77
 2070.74  2386429 2386428  0.693
 2288.62  2640417 2640416  1.88
 2291.92  2625546 2625545  0.74
 1988.23  2312067 2312066  1.832
 2093.16  2347536 2347535  0.843
 1934.65  2253504 2253503  1.803
 1975.58  2284119 2284118  0.696
 2127.32  2463461 2463460  1.859
 2320.47  2657528 2657527  0.76
 2234.62  2528575 2528574  1.895
 2108.57  2429521 2429520  0.724
 2238.32  2585733 2585732  1.8
 2342.64  2631692 2631691  0.765
 2559.03  2937710 2937709  1.793
 2233.98  2568732 2568731  0.689
 2198.38  2544191 2544190  1.801
 2219.12  2549417 2549416  0.712
 2143.15  2480087 2480086  1.843
 2263.13  2598052 2598051  0.752
 2246.1  2590085 2590084  1.837
 2316.98  2655386 2655385  0.768
 2242.01  2590116 2590115  1.772
 2222.3  2549490 2549489  0.739
 2373.13  2733824 2733823  1.86
 2430.55  2783575 2783574  0.783
 2146.69  2482913 2482912  1.79
 2339.83  2678446 2678445  0.763
 2346.61  2703165 2703164  1.799
 2498.7  2854142 2854141  0.705
 2166.85  2506626 2506625  1.954
 2262.21  2586024 2586023  0.816
 2432.43  2794463 2794462  1.807
 2387.13  2730559 2730558  0.69
 2216.25  2564825 2564824  1.821
 2371.11  2714354 2714353  0.703
 2121.2  2453785 2453784  1.939
 2410.68  2758164 2758163  0.813
 2240.37  2583582 2583581  1.805
 2356.66  2700860 2700859  0.781
 2402.3  2759919 2759918  1.869
 2467.62  2819175 2819174  0.753
 2334.03  2686876 2686875  1.862
 2292.34  2630983 2630982  0.704
 2064.55  2393225 2393224  1.846
 2293.2  2625452 2625451  0.806
 2278.58  2625414 2625413  1.793
 2370.14  2717048 2717047  0.692
 2605.05  2982780 2982779  1.875
 2437.72  2787887 2787886  0.685
 2170.03  2509191 2509190  1.807
 2374.74  2718444 2718443  0.862
 2237.19  2580946 2580945  1.88
 2342.81  2681213 2681212  0.778
 2262.79  2610610 2610609  1.855
 2397.96  2736748 2736747  0.833
 2539.76  2918901 2918900  2.138
 2293.71  2633137 2633136  0.714
 2658.97  3038894 3038893  1.867
 2437.63  2782425 2782424  0.701
 2491.2  2858533 2858532  1.887
 2407.82  2751486 2751485  0.766
 2549.02  2929967 2929966  1.798
 2532.65  2887641 2887640  0.707
 2301.01  2651130 2651129  1.849
 2518.55  2882202 2882201  0.737
 2494.92  2862843 2862842  1.921
 2396.55  2739842 2739841  0.71
 2330.12  2684083 2684082  2.412
 2390.69  2731872 2731871  0.762
 2301.72  2653263 2653262  1.919
 2580.24  2943786 2943785  0.72
 2285.24  2639352 2639351  1.855
 2672.39  3038147 3038146  0.729
 2272.26  2618600 2618599  1.843
 2599.91  2964073 2964072  0.765
 2398.48  2767267 2767266  1.944
 2379.9  2719785 2719784  0.874
 2418.26  2784818 2784817  1.899
 2558.51  2920483 2920482  0.8
 2458.44  2823257 2823256  2.409
 2425.22  2774569 2774568  0.816
 2520.47  2891729 2891728  1.94
 2452.49  2801953 2801952  0.738
 2292.66  2642469 2642468  1.896
 2564.94  2922742 2922741  1.02
 2570.81  2950637 2950636  1.996
 2443.49  2792382 2792381  0.775
 2396.82  2759201 2759200  1.871
 2564.2  2916836 2916835  0.822
 2639.3  3033591 3033590  1.956
 2669.05  3041093 3041092  0.705
 2606.65  2994568 2994567  1.888
 2585.35  2946073 2946072  0.814
 2303.45  2662778 2662777  2.023
 2440.27  2793980 2793979  0.697
 2258.2  2608172 2608171  1.839
 2582.48  2949466 2949465  0.743
 2720.41  3120960 3120959  1.884
 2539.17  2892731 2892730  0.822
 2501.62  2865704 2865703  1.906
 2561.94  2914298 2914297  0.739
 2567.14  2952416 2952415  1.908
 2645.2  3004627 3004626  0.772
 2396.96  2769439 2769438  1.859
 2710.91  3089356 3089355  0.837
 2496.31  2827500 2827499  4.645
 2787.11  3172268 3172267  1.077
 2778.59  3187559 3187558  9.847
 2753.46  3116246 3116245  1.228
 2655.25  3026900 3026899  13.338
 2564.87  2909071 2909070  1.07
 2746.2  3139844 3139843  13.257
 2740.66  3095207 3095206  1.083
 2393.88  2757633 2757632  11.597
 2750.22  3119688 3119687  1.022
 2560.63  2947227 2947226  14.434
 2863.39  3166530 3166529  1.638
 2648.95  3049176 3049175  11.559
 2788.11  3191496 3191495  1.266
 2626.1  3042895 3042894  10.636
 2749.08  3112671 3112670  1.037
 2592.6  2994381 2994380  12.316
 2807.22  3177332 3177331  1.022
 2863.18  3273047 3273046  11.918
 2799.91  3178192 3178191  1.192
 2406.61  2771682 2771681  11.727
 2679.11  3042265 3042264  1.242
 2770.33  3178996 3178995  14.14
 2832.38  3209797 3209796  1.169
 2761.75  3168744 3168743  12.074
 2782.19  3118161 3118160  1.319
 2644.39  3056508 3056507  12.423
 2715.2  3100316 3100315  1.088
 2444.31  2830705 2830704  11.224
 2755.71  3109871 3109870  1.445
 2397.75  2775524 2775523  14.43
 2900.02  3298216 3298215  1.084
 2887.89  3327407 3327406  13.658
 2997.54  3384962 3384961  1.485
 2877.1  3284057 3284056  13.891
 2907.82  3273347 3273346  1.219
 2904.93  3328761 3328760  14.297
 2594.06  2917966 2917965  2.611
 2625.88  3009843 3009842  13.551
 2759.36  3117080 3117079  1.202
