1 2
1 3
1 4
1 5
2 4
2 4
2 5
2 5
2 6
2 6
2 7
2 7
2 8
2 8
3 10
3 11
3 12
3 13
3 14
3 15
3 16
3 17
3 18
3 19
3 20
3 21
4 18
4 19
4 20
4 21
4 22
4 23
4 32
4 33
4 34
4 35
4 36
4 37
5 36
5 39
5 42
5 45
5 48
5 51
5 54
5 57
5 66
5 69
5 72
5 75
5 78
5 81
5 84
5 87
6 68
6 71
6 74
6 77
6 80
6 83
6 86
6 89
6 130
6 133
6 136
6 139
6 142
6 145
6 148
6 151
7 134
7 139
7 144
7 149
7 154
7 159
7 164
7 169
7 174
7 179
7 184
7 189
7 194
7 199
7 204
7 209
7 214
7 219
7 224
7 229
7 234
7 239
7 244
7 249
7 254
7 260
7 265
7 270
7 275
7 280
7 285
7 290
7 295
7 300
7 305
7 310
7 315
7 320
7 325
7 330
7 335
7 340
7 345
7 350
7 355
7 360
7 365
7 370
7 375
7 380
8 262
8 267
8 272
8 277
8 282
8 287
8 292
8 297
8 302
8 307
8 312
8 317
8 322
8 327
8 332
8 337
8 342
8 347
8 352
8 357
8 362
8 367
8 372
8 377
8 382
8 516
8 521
8 526
8 531
8 536
8 541
8 546
8 551
8 556
8 561
8 566
8 571
8 576
8 581
8 586
8 591
8 596
8 601
8 606
8 611
8 616
8 621
8 626
8 631
8 636
9 518
9 523
9 528
9 533
9 538
9 543
9 548
9 553
9 558
9 563
9 568
9 573
9 578
9 583
9 588
9 593
9 598
9 603
9 608
9 613
9 618
9 623
9 628
9 633
9 638
9 1028
9 1033
9 1038
9 1043
9 1048
9 1053
9 1058
9 1063
9 1068
9 1073
9 1078
9 1083
9 1088
9 1093
9 1098
9 1103
9 1108
9 1113
9 1118
9 1123
9 1128
9 1133
9 1138
9 1143
9 1148
10 1030
10 1035
10 1040
10 1045
10 1050
10 1055
10 1060
10 1065
10 1070
10 1075
10 1080
10 1085
10 1090
10 1095
10 1100
10 1105
10 1110
10 1115
10 1120
10 1125
10 1130
10 1135
10 1140
10 1145
10 1150
10 2052
10 2057
10 2062
10 2067
10 2072
10 2077
10 2082
10 2087
10 2092
10 2097
10 2102
10 2107
10 2112
10 2117
10 2122
10 2127
10 2132
10 2137
10 2142
10 2147
10 2152
10 2157
10 2162
10 2167
10 2172
11 2054
11 2059
11 2064
11 2069
11 2074
11 2079
11 2084
11 2089
11 2094
11 2099
11 2104
11 2109
11 2114
11 2119
11 2124
11 2129
11 2134
11 2139
11 2144
11 2149
11 2154
11 2159
11 2164
11 2169
11 2174
11 4100
11 4105
11 4110
11 4115
11 4120
11 4125
11 4130
11 4135
11 4140
11 4145
11 4150
11 4155
11 4160
11 4165
11 4170
11 4175
11 4180
11 4185
11 4190
11 4195
11 4200
11 4205
11 4210
11 4215
11 4220
12 4102
12 4107
12 4112
12 4117
12 4122
12 4127
12 4132
12 4137
12 4142
12 4147
12 4152
12 4157
12 4162
12 4167
12 4172
12 4177
12 4182
12 4187
12 4192
12 4197
12 4202
12 4207
12 4212
12 4217
12 4222
12 8196
12 8201
12 8206
12 8211
12 8216
12 8221
12 8226
12 8231
12 8236
12 8241
12 8246
12 8251
12 8256
12 8261
12 8266
12 8271
12 8276
12 8281
12 8286
12 8291
12 8296
12 8301
12 8306
12 8311
12 8316
13 8198
13 8203
13 8208
13 8213
13 8218
13 8223
13 8228
13 8233
13 8238
13 8243
13 8248
13 8253
13 8258
13 8263
13 8268
13 8273
13 8278
13 8283
13 8288
13 8293
13 8298
13 8303
13 8308
13 8313
13 8318
13 16388
13 16393
13 16398
13 16403
13 16408
13 16413
13 16418
13 16423
13 16428
13 16433
13 16438
13 16443
13 16448
13 16453
13 16458
13 16463
13 16468
13 16473
13 16478
13 16483
13 16488
13 16493
13 16498
13 16503
13 16508
14 16390
14 16395
14 16400
14 16405
14 16410
14 16415
14 16420
14 16425
14 16430
14 16435
14 16440
14 16445
14 16450
14 16455
14 16460
14 16465
14 16470
14 16475
14 16480
14 16485
14 16490
14 16495
14 16500
14 16505
14 16510
14 32772
14 32777
14 32782
14 32787
14 32792
14 32797
14 32802
14 32807
14 32812
14 32817
14 32822
14 32827
14 32832
14 32837
14 32842
14 32847
14 32852
14 32857
14 32862
14 32867
14 32872
14 32877
14 32882
14 32887
14 32892
15 32955
15 32955
15 33018
15 33018
15 33081
15 33081
15 33144
15 33144
15 33207
15 33207
