 0.061  3 3  1.626
 0.038  4 4  0.763
 0.111  5 5  1.772
 0.186  6 6  2.202
 0.08  5 6  1.412
 0.109  5 6  1.833
 0.103  6 7  0.799
 0.174  6 7  2.016
 0.166  7 8  1.951
 0.116  7 8  1.538
 0.084  8 10  0.885
 0.206  8 10  1.718
 0.104  9 11  1.147
 0.238  9 10  1.896
 0.14  13 17  0.846
 0.336  12 16  2.076
 0.15  13 17  0.951
 0.473  14 16  2.068
 0.245  15 21  0.878
 0.491  16 20  2.097
 0.327  17 21  1.39
 0.27  18 24  0.907
 0.399  19 25  1.526
 0.899  20 26  2.679
 0.686  21 25  2.083
 0.705  22 27  1.776
 0.418  19 24  1.257
 0.28  20 26  0.978
 0.781  21 27  2.443
 0.777  22 27  2.394
 0.76  23 29  2.012
 1.013  24 31  1.52
 1.008  33 43  1.577
 0.571  34 42  1.583
 0.591  35 41  0.866
 0.975  36 45  1.622
 1.378  37 43  2.066
 0.675  38 45  0.948
 0.603  37 46  0.968
 1.331  40 48  1.781
 1.4  43 57  1.586
 1.496  50 61  1.873
 2.344  51 63  1.814
 2.492  52 67  2.433
 0.999  55 68  1.064
 2.009  58 71  1.842
 1.549  67 82  1.084
 2.64  71 87  1.96
 2.071  75 94  1.912
 4.017  76 93  2.338
 3.831  81 102  1.857
 1.724  82 98  1.248
 3.395  90 115  1.989
 4.422  88 105  2.484
 1.404  69 86  1.119
 1.614  75 91  1.081
 3.879  76 94  2.873
 1.692  79 96  1.137
 2.457  84 104  1.831
 1.857  84 107  1.156
 4.564  87 105  1.086
 4.457  90 109  1.288
 6.174  131 153  2.142
 7.875  136 164  1.23
 5.189  141 174  1.952
 8.911  141 170  2.44
 6.534  143 175  1.886
 4.356  146 173  1.327
 4.08  149 179  1.268
 6.53  152 181  1.78
 6.997  137 165  2.336
 8.093  140 171  2.415
 6.626  145 173  1.235
 7.069  150 181  2.433
 4.475  155 186  1.803
 4.354  165 204  1.255
 8.465  165 202  2.025
 7.408  173 212  2.261
 4.642  177 214  1.277
 4.637  180 220  1.305
 11.492  187 221  1.298
 6.199  193 233  1.273
 6.418  202 247  1.493
 6.555  200 238  1.353
 11.169  205 248  1.277
 9.071  212 249  1.36
 10.071  216 264  1.299
 12.113  220 261  1.974
 11.111  225 266  1.271
 11.007  231 272  1.42
 9.272  242 296  1.342
 12.53  242 283  1.256
 7.592  251 296  1.498
 13.418  254 305  1.975
 13.952  255 299  2.173
 13.459  269 323  1.394
 10.953  268 315  1.362
 9.456  274 323  1.629
 13.672  278 329  1.348
 13.8  284 329  1.326
 12.181  289 341  1.318
 12.483  291 346  1.402
 15.272  305 359  1.533
 15.774  311 374  1.403
 17.24  308 358  1.32
 14.338  311 364  1.39
 17.293  320 386  1.35
 11.539  325 380  1.414
 18.552  332 389  1.466
 17.182  333 393  1.409
 15.863  341 411  1.532
 16.781  343 400  1.427
 14.906  353 419  1.469
 15.379  352 410  1.374
 13.648  360 424  1.498
 18.786  366 422  1.392
 15.825  371 431  1.396
 19.186  372 428  1.407
 19.001  385 455  1.534
 21.079  381 445  1.465
 11.482  265 316  1.37
 12.998  268 314  1.288
 13.412  275 329  1.357
 12.201  281 330  1.385
 15.69  288 343  2.061
 13.03  288 347  1.496
 13.658  302 354  1.309
 12.896  301 359  1.469
 10.221  310 371  1.413
 11.344  311 367  1.343
 11.469  314 369  1.396
 10.477  324 389  1.415
 12.109  327 390  1.548
 12.225  330 393  1.433
 11.441  342 414  1.368
 11.366  345 413  1.432
 18.936  343 406  1.405
 12.408  348 405  1.383
 19.268  365 441  1.507
 12.954  365 437  1.489
 14.203  372 447  1.475
 13.145  370 429  1.33
 16.287  375 438  1.499
 20.096  381 440  1.538
 16.248  389 463  1.459
 21.938  528 634  1.623
 21.385  529 623  1.619
 24.151  540 623  1.576
 25.467  555 680  1.657
 22.941  547 653  1.723
 24.537  560 664  1.736
 24.892  554 648  1.773
 24.941  563 645  1.733
 24.721  567 665  1.727
 29.641  568 666  1.623
 26.232  576 670  1.699
 24.462  590 702  1.726
 30.76  598 709  1.642
 26.536  587 701  1.641
 25.182  593 696  1.743
 27.836  613 729  1.755
 28.595  603 707  1.709
 31.801  619 724  1.717
 25.55  618 725  1.674
 29.355  614 714  1.768
 36.67  624 721  1.809
 36.475  631 731  1.845
 29.752  638 740  1.806
 31.998  640 739  1.755
 30.488  658 764  1.74
 23.859  521 613  1.677
 22.783  537 638  1.603
 22.911  542 645  1.779
 23.14  549 657  1.596
 24.19  553 656  1.893
 27.202  553 656  1.76
 23.89  565 670  1.698
 22.784  566 668  1.649
 26.147  569 673  1.698
 23.083  567 666  1.656
 23.541  573 674  1.614
 25.578  589 695  1.7
 24.771  582 681  1.658
 23.967  596 698  1.729
 33.348  605 703  2.458
 26.655  596 687  1.666
 26.67  612 724  1.694
 26.391  625 731  1.714
 25.264  618 732  1.725
 26.671  632 740  1.668
 29.26  630 722  1.725
 26.274  632 750  1.738
 28.513  641 757  1.819
 29.76  639 745  2.379
 31.612  647 761  1.696
 58.358  1035 1198  1.72
 61.054  1043 1220  2.114
 64.898  1060 1233  1.642
 57.964  1077 1269  2.2
 83.698  1085 1272  1.7
 72.437  1072 1251  2.489
 66.038  1084 1263  2.61
 74.159  1096 1293  2.176
 60.691  1072 1234  2.112
 65.728  1096 1259  1.777
 66.009  1111 1309  2.547
 66.401  1125 1327  1.599
 66.961  1108 1290  2.354
 68.14  1139 1351  2.303
 70.842  1124 1307  2.198
 80.811  1123 1320  2.771
 75.697  1141 1340  2.647
 77.562  1143 1311  2.38
 76.797  1142 1343  2.489
 72.341  1129 1307  1.599
 67.176  1149 1323  2.237
 70.262  1158 1362  2.348
 75.017  1159 1337  1.742
 73.089  1199 1439  2.423
 75.662  1169 1364  2.01
 68.984  1054 1237  2.296
 64.257  1055 1238  1.724
 66.693  1060 1238  2.926
 68.245  1066 1233  2.352
 63.27  1064 1218  2.172
 62.663  1070 1245  2.841
 66.701  1092 1286  2.308
 66.361  1084 1254  2.144
 63.265  1108 1322  2.258
 70.297  1097 1268  2.173
 67.486  1108 1305  1.715
 74.268  1127 1325  2.359
 73.854  1103 1267  2.238
 73.812  1111 1284  1.629
 67.773  1119 1306  1.64
 69.086  1119 1283  2.131
 67.845  1134 1303  2.136
 65.738  1158 1358  2.199
 64.503  1142 1330  2.219
 68.779  1131 1316  1.724
 85.369  1148 1346  1.668
 76.766  1153 1342  2.425
 73.143  1155 1364  2.23
 80.446  1166 1342  2.287
 76.242  1184 1386  2.362
 184.851  2080 2391  1.891
 191.413  2119 2473  1.856
 182.052  2104 2431  3.476
 177.886  2126 2494  2.164
 190.308  2109 2424  1.984
 188.282  2136 2486  1.871
 188.897  2151 2520  3.952
 204.803  2184 2587  4.586
 181.727  2113 2400  1.895
 191.942  2125 2437  4.49
 190.066  2151 2481  1.9
 186.081  2167 2543  3.844
 193.999  2209 2597  1.991
 185.239  2183 2552  3.847
 187.104  2164 2490  1.848
 198.406  2156 2434  1.903
 204.733  2198 2578  4.045
 199.694  2217 2576  2.459
 209.802  2187 2492  3.967
 225.559  2195 2534  4.225
 198.816  2231 2629  4.434
 196.368  2241 2610  3.705
 211.033  2198 2531  3.957
 212.772  2228 2588  2.272
 224.558  2244 2603  4.383
 208.65  2108 2485  5.762
 192.712  2129 2503  3.894
 167.018  2111 2478  1.947
 193.352  2127 2465  3.682
 182.171  2132 2497  3.838
 185.47  2113 2448  3.964
 189.713  2108 2406  3.673
 200.62  2135 2476  2.701
 197.193  2138 2484  4.096
 202.66  2170 2548  3.974
 204.319  2147 2502  4.075
 204.877  2160 2533  4.073
 185.443  2191 2596  3.831
 189.295  2175 2547  2.001
 184.138  2156 2487  3.745
 200.279  2170 2530  2.462
 198.13  2208 2570  2.152
 196.221  2196 2530  4.339
 218.127  2176 2509  4.092
 215.433  2184 2518  4.726
 189.208  2229 2609  1.909
 222.76  2202 2539  2.052
 199.304  2218 2554  4.069
 216.014  2230 2626  4.118
 190.47  2255 2656  3.763
 650.866  4180 4764  11.024
 592.079  4195 4811  8.134
 583.386  4233 4895  9.558
 591.051  4193 4813  10.222
 625.802  4161 4745  9.716
 603.104  4233 4886  11.387
 613.954  4228 4841  10.276
 600.003  4237 4900  9.566
 585.166  4237 4850  12.431
 587.178  4189 4729  8.665
 575.767  4234 4836  9.492
 578.028  4266 4929  9.271
 565.002  4260 4953  9.99
 564.211  4243 4848  11.814
 595.716  4249 4853  8.537
 626.031  4318 5020  10.477
 608.708  4352 5140  10.628
 620.78  4274 4891  10.113
 591.424  4263 4874  7.964
 677.758  4254 4801  9.27
 612.98  4307 4982  8.922
 585.732  4313 5020  11.107
 639.564  4284 4909  9.546
 594.377  4283 4855  8.87
 642.09  4289 4933  10.564
 559.213  4240 4970  8.774
 609.8  4195 4785  9.49
 613.457  4243 4944  9.591
 599.474  4205 4856  9.977
 661.615  4249 4914  10.995
 585.375  4216 4871  8.851
 593.735  4235 4838  9.016
 584.091  4161 4723  9.971
 611.967  4242 4910  10.069
 632.794  4287 4964  13.053
 591.633  4316 5076  11.093
 607.684  4275 4973  10.828
 595.114  4286 4963  9.734
 628.477  4241 4840  11.174
 630.562  4246 4855  10.729
 615.257  4257 4892  10.08
 628.518  4276 4945  10.976
 632.699  4297 4994  10.838
 573.986  4315 5046  9.494
 670.236  4341 5040  11.254
 625.581  4342 5107  10.637
 623.52  4340 5038  10.239
 631.213  4278 4889  11.395
 626.458  4299 4851  11.57
 673.32  4289 4897  10.299
 1903.23  8531 10010  25.438
 2215  8461 9770  26.497
 2149.1  8387 9621  22.984
 2198.84  8360 9530  25.852
 2263.55  8502 9841  29.048
 2214.35  8483 9741  25.674
 1983.5  8480 9817  25.263
 2279.44  8455 9660  24.516
 2323.24  8513 9964  29.72
 2008.56  8405 9570  23.088
 2118  8526 9884  27.415
 2129.26  8440 9614  24.403
 1972.41  8517 9867  27.171
 2034.43  8499 9869  27.022
 2130.63  8404 9549  23.057
 2165.02  8576 9979  25.637
 2143.05  8463 9682  28.385
 2208.12  8557 9852  24.564
 2120.8  8529 9870  25.782
 2231.59  8514 9800  28.414
 2248.79  8457 9670  26.189
 2199.32  8510 9759  32.652
 2178.96  8439 9609  23.223
 2190.86  8517 9774  27.031
 2217.53  8512 9775  24.765
 2098.13  8303 9367  24.447
 1918.14  8438 9726  22.956
 2111.73  8465 9858  24.045
 2100.37  8522 9999  28.9
 2188.28  8476 9909  27.376
 2195.78  8429 9637  25.187
 1896.35  8433 9650  26.431
 2134.46  8428 9612  29.289
 2215.72  8536 10016  29.224
 2149.31  8532 9925  27.02
 2139.5  8466 9703  25.238
 2187.12  8552 9921  27.308
 2159.56  8475 9752  28.379
 2204.69  8517 9861  23.569
 2213  8521 9865  26.438
 2215.68  8496 9765  27.767
 2243.51  8407 9514  27.539
 2258.39  8583 10008  30.884
 1966.39  8422 9534  23.463
 2122.38  8474 9725  32.025
 2274.47  8510 9777  30.964
 2258  8517 9729  26.701
 2191.95  8555 9877  26.247
 2257.75  8635 10084  28.561
 2203.69  8563 9819  25.752
 8981.9  16898 19349  67.448
 10387.2  16881 19447  65.204
 9992.36  16825 19202  73.081
 9809.66  16938 19589  74.015
 9762  16670 18781  73.599
 8661.61  16805 19149  66.493
 8107.07  16908 19419  68.384
 7659.93  16916 19329  68.083
 9470.34  16956 19588  73.949
 8507.06  16811 19172  67.997
 7931.44  16921 19345  59.906
 8544.2  16847 19046  73.151
 8219.83  16944 19465  70.765
 7502.35  16947 19464  69.821
 9011.42  16765 18918  62.551
 9524.34  16865 19243  75.147
 8938.84  16869 19246  62.031
 9256.04  16949 19336  65.743
 8667.71  16853 19134  66.118
 8752.92  16857 19234  69.396
 9004.73  16959 19433  69.302
 9442.81  16962 19409  73.133
 8693.26  16961 19473  71.776
 8933.91  17036 19449  72.25
 9012.62  16933 19419  70.702
 9903.75  16946 19741  77.912
 8861.71  16865 19320  71.437
 8812.32  17049 19816  83.087
 7651.29  16994 19601  72.803
 8036.36  16848 19104  76.835
 9951.82  16945 19565  71.983
 10764.2  16972 19597  69.954
 9734.13  16834 19293  66.146
 9300.17  16928 19484  72.951
 8977.25  16776 18996  80.26
 9267.7  17020 19730  74.838
 8133.89  16890 19295  68.224
 8723.55  16906 19450  73.764
 8967.99  16822 19061  67.601
 8838.8  16933 19412  67.848
 8924.87  16991 19741  71.349
 7994.24  16929 19416  71.856
 8802.32  16897 19203  76.765
 8929.48  16895 19236  78.145
 10185.7  17051 19688  64.938
 8412.17  16995 19636  71.352
 7908.34  17042 19745  66.415
 9068.87  16889 19287  70.596
 8752.36  17091 19846  78.771
 8159.95  16977 19647  72.11
 59755.5  33759 38463  200.312
 62184.6  33729 38523  177.613
 57572.3  33815 38790  181.067
 60185.8  33653 38380  176.589
 60043.5  33621 38114  176.743
 64323.5  33672 38355  177.28
 67161.2  33413 37688  172.88
 59817.4  33672 38326  170.489
 59749.5  33788 38399  180.183
 56162.1  33759 38523  174.316
 63445.5  33795 38729  188.931
 63511.5  33636 38033  156.142
 68751.7  33770 38547  19.797
 62871  34077 39497  181.054
 64683.3  33902 39091  177.931
 65378.7  33681 38332  196.18
 63827.7  34050 39230  165.204
 66307.3  34077 39527  187.615
 60446.7  33510 37818  197.99
 64216.5  33998 39171  190.538
 64775.4  33970 39021  173.034
 67737.4  33868 38755  151.519
 61318.4  33946 38986  174.411
 62602  33705 37978  167.726
 67976.7  33963 38958  178.824
 67324.4  33639 38290  180.86
 58739.5  33467 37718  174.658
 61028.8  33526 38067  187.616
 65355.7  33781 38793  176.366
 65229.1  33751 38613  170.93
 62211.4  33554 38078  166.471
 64962.3  33522 38092  202.146
 71103.4  33772 38521  21.192
 61154.3  33907 38811  176.848
 62566.9  33553 37937  174.686
 60525.8  33616 38140  167.627
 68247.9  33915 39024  173.104
 63960.9  33649 38247  186.976
 58883.8  34103 39396  170.118
 61050.5  33598 38210  174.03
 60644.3  33587 37937  19.955
 60132.6  33805 38387  165.27
 56778.5  33716 38330  186.581
 60165.9  33707 38478  197.053
 60789.6  33886 38891  166.611
 60649.8  34026 39089  169.796
 60707.3  33804 38509  170.877
 58723.9  34003 39266  178.5
 59090.9  33549 37847  185.054
 62023.3  33726 38369  28.172
 318134  67347 76317  429.488
 325612  67720 77264  422.422
 321004  66833 74930  411.525
 328924  66995 74945  459.776
 347654  67521 76803  466.367
 345538  67289 75985  459.37
 338563  67550 76960  465.581
 336487  67612 77451  469.738
 316164  67165 75526  430.276
 330792  68068 78333  449.466
 335147  67699 77256  488.914
 336878  67253 75719  449.063
 333464  67490 76549  497.103
 329424  67535 77219  459.88
 341102  67360 76248  40.315
 327250  67717 77495  452.234
 346177  68019 77905  441.19
 333998  67555 76730  438.558
 378883  67332 75920  129.783
 342763  68019 78151  510.119
 328037  67659 76926  441.551
 356507  67721 77224  440.262
 352896  67409 76503  490.764
 334998  67557 76984  521.09
 332345  68220 78665  463.957
