96408
96408
96408
96408
97039
97039
97039
97039
97057
97057
97060
97060
97450
97330
99370
100384
103075
99142
102292
102748
103423
104773
106573
106915
107131
107590
108619
112891
111559
111778
113914
117064
126187
123373
129409
123268
126721
127522
128095
138379
143248
144151
148987
149452
150685
158542
160816
173143
165568
168268
174205
184174
180055
199864
199924
183925
174862
196258
193147
201022
200773
199342
282259
292587
256483
272140
276206
303166
285604
292912
312206
323092
333643
301786
325969
335197
352444
382822
379474
358702
388027
348639
403782
429424
395524
431267
404526
428165
396595
431627
422089
459838
485777
448243
508020
466956
538719
527098
466745
534009
559258
504239
572413
555720
605196
650415
581441
569116
583039
636466
629601
639549
643975
654506
678505
682073
689739
747252
687129
688052
562481
539178
557349
558864
541238
558937
596036
651623
591446
629930
596473
560075
618162
682186
663308
638163
696418
724069
668484
680227
770007
801049
760428
777324
805492
964528
984316
1108148
983429
1088812
1023503
983206
1039278
1048220
1166312
1060303
1147273
1066821
1041756
1121554
1089253
1140269
1166809
1202194
1189814
1273352
1167552
1189626
1252987
1258485
1042078
1043915
1136120
1105357
1196738
1026186
1144150
1223883
1167612
1229813
1243212
1309371
1141119
1102537
1313336
1300893
1264130
1317701
1273268
1375772
1464565
1287173
1374828
1466559
1286706
2059260
2249233
2210927
2114409
2080267
2125766
2202578
2387758
2186076
2269836
2230663
2286530
2201136
2376595
2408887
2271253
2302579
2390415
2034398
2157335
2297730
2335911
2545861
2311957
2530361
2293385
2207012
2312175
2307157
2589573
2463994
2414225
2422601
2256215
2601638
2546692
2454502
2529256
2491398
2661541
2579835
2755991
2469018
2797564
2491111
2548233
2505784
2637197
2704686
2694651
4410591
4971931
4686385
4496127
4668133
4972599
4951325
4658989
4876331
4910690
4953807
4784716
4640514
4825255
4996741
5084945
4733790
5444450
5379905
5096903
4859655
5246508
4901718
4984060
4562658
4754115
4895568
4704782
5285816
4984409
4858099
5911903
4944549
5073973
5239007
5176340
5336236
5186280
5028766
5368306
5182914
5180819
5586886
5034638
5298198
5059588
5580491
5609290
5164768
4996679
9924170
10135340
10605675
9937024
9339751
9798622
10771552
9778314
10531967
10318645
10237858
10384941
9190383
10556555
9776779
10019122
9905176
10664495
10782068
11673729
10113089
9956155
10346829
11460422
9511278
10570510
12107514
10317717
10812564
10518217
11112282
11761258
11215907
11178936
11022008
10374884
10587805
11626144
10481034
11929636
11366428
10483538
10797558
10905152
11413352
11403534
11127274
11530921
12875020
11111680
21423597
21863360
22871592
22777730
22552058
22471492
21999241
23310359
19069987
22449623
21283678
23722774
21577807
21070679
22477771
22271119
22065875
24513596
21786966
21981600
21275751
22697259
22477660
22736651
22682853
23327014
23397408
22704414
22185477
20498896
23264020
24867548
22851339
21409437
23985445
25378677
24177441
23916057
23398664
25296032
24484701
25176022
25954182
23354840
23088793
22911674
24665063
25730178
21179846
26552213
51636819
47872172
46973586
46654199
51273593
48400837
47584492
52596166
41979614
42706807
50828105
50788946
50114448
49463337
50403584
47308256
48731372
51513647
50756903
46319759
47586655
49681894
46090030
51899252
44099199
46195482
49152741
51210301
52754665
55715893
50788587
48555348
53165574
50179481
53433890
50722124
54537912
48989555
55143441
52701397
47175845
51220644
56124727
48869412
52124278
51226258
48262683
54015182
48939829
47515071
110986859
107059766
100933183
104289962
107952006
105024759
103387202
106284117
108623337
106534644
108314596
113594158
112736697
92514250
101220393
103904100
101677650
97341797
100361971
103667739
107259687
102100889
107919940
112836202
105464374
107423609
117345945
107778276
101914000
111133443
107551223
105114286
113540037
117383062
118471006
112535375
106959673
117823240
112086159
109562680
116019474
121093137
107882108
102260677
112785239
113986643
108566006
105122567
110900647
117063199
228422198
234115541
224225337
245146364
236122425
222271772
227774904
213929110
235715282
225137992
229763070
233973048
227900435
202689801
236597232
213049035
235804930
236937872
240454363
221067261
242347582
234155336
221416808
212980903
225500468
