96408
96408
96408
96320
97039
97039
95777
96065
98901
99149
100323
100723
102969
104233
107229
109587
109961
113951
117285
119979
121385
126055
125333
128691
132673
135135
126460
129490
135400
135590
137980
141898
161360
168054
169660
176690
176056
179958
173480
185226
189092
198198
205472
216450
222996
230878
256036
266246
278808
283378
294260
299406
307992
326874
264560
273730
280012
293406
293888
302562
309572
324478
454260
471074
459328
471514
488542
517446
515960
514082
478414
487986
509504
509302
534300
537866
567600
588342
584356
594482
626568
648166
662964
680066
691952
712558
713996
745058
757800
776350
796740
849444
810042
838982
898504
875664
901054
929444
941858
967962
983158
960558
1002474
999912
1065248
1102334
1051658
1084360
1119678
1112668
1173114
1161450
1187534
1232500
1236474
1269986
1256366
1320704
1265610
1312768
881200
910400
923462
950972
952488
969070
1032876
1030066
1045664
1060440
1072982
1064874
1077296
1128440
1129820
1136490
1188328
1194534
1160612
1213218
1276186
1280398
1272660
1359988
1365604
1774068
1788916
1855796
1799902
1872356
1919898
1923664
1948680
1960236
1992484
1986618
1991006
2073862
2012308
2076064
2067262
2121518
2172734
2143968
2194344
2186380
2204572
2219216
2285874
2245446
1822048
1831738
1875180
1889318
1933616
1886200
1958592
1951290
1993092
1995438
2013412
2008450
2017930
2012190
2054468
2136078
2133448
2121686
2133452
2153732
2280606
2166870
2283700
2307298
2264232
3806348
3746734
3986538
3806142
3924490
3908200
3906072
4020320
3895972
4025844
3931938
3921672
4102332
4033202
4114602
4114414
4135754
4179098
4086040
4128754
4210664
4202130
4409118
4196534
4290022
3774870
3827364
3945562
3924478
4050110
3891680
3936774
3949742
3985946
4004312
4055892
4091960
4061012
4125584
4109414
4177066
4256610
4109648
4148516
4104426
4243750
4295940
4291966
4420016
4262898
8135266
8196170
8172174
8276266
8166694
8497426
9087997
8444925
8441546
8891534
8381346
8146708
8290088
8345458
8334582
8783406
8442912
8727736
8692326
8652210
9304903
8581772
8719264
8649220
9162834
8041167
8141492
8012008
8259500
8562485
8758971
8669115
8408310
9047577
8918207
9080136
8553948
8321116
8307184
8579952
8483912
8497458
9752274
9121950
9255486
8428308
8739074
9182522
8857584
8706763
20786030
17687516
21509471
21720108
21658515
22961870
21543732
19988854
22972163
18907621
21124390
20405065
23302015
18999151
19336443
24914590
23404616
23895227
18167872
18524982
19679105
21032635
20945025
18164104
20219306
19716910
18367590
20841789
20568120
24641221
20059506
19481886
19211327
22018856
22316396
22324204
22102753
21732664
22380754
21415964
21946824
22881862
21362566
21672392
23755268
22534754
22238646
18911877
23282100
24450368
54730761
63558648
51564916
57917422
64748150
58478608
51695329
52149027
63066551
53378575
56790122
47265354
59015575
65131079
53259955
48661863
67716255
53704272
61215094
65479624
61201047
58581303
47576876
59216711
56783025
55389662
45264600
54507426
66091193
65949484
57838976
49676700
46830851
62904581
57454365
51483985
53801025
60780757
54493288
61958732
54089169
56163590
63231822
52835252
68649169
69692302
60986435
56081566
68052794
52923053
155827423
147003868
181110994
178480651
159870725
160999609
161571620
162021494
170887762
161404155
135255149
165134782
135942408
156410629
137980520
188324060
132880200
146804035
154252331
168689771
162675523
157448822
165485658
157207644
168429535
191374026
167170541
177098181
171909757
166913285
164643683
159739212
150641550
165664985
187074034
157360844
150167764
153486947
157776637
149885853
161740517
179473720
163834319
180566788
135001806
166010642
158782551
160111090
190528929
168291731
168291731
464893334
496937115
440813566
474723246
464813403
449817794
427451945
465273829
466844336
494511396
387861218
445706009
467613350
429385725
502987452
428279506
456412953
456412953
468542439
460871411
381124821
441250348
403531278
470957530
497782377
456319389
468988004
444507784
463618895
423231367
518801566
461911909
459739418
465323738
399812803
427172977
493695712
406956183
448441924
443480398
389503321
470380244
498946809
433706495
432193175
453472510
473466335
476300275
424493391
424493391
424493391
424493391
424493391
424493391
424493391
424493391
424493391
424493391
424493391
424493391
424493391
424493391
424493391
424493391
424493391
424493391
424493391
424493391
424493391
424493391
424493391
424493391
424493391
424493391
