 0.019  3 3  1.134
 0.028  5 4  0.966
 0.028  6 5  0.835
 0.032  7 6  0.754
 0.024  6 6  0.806
 0.019  6 6  0.73
 0.023  8 8  0.616
 0.029  7 7  0.603
 0.028  8 8  0.497
 0.026  8 8  0.526
 0.029  9 9  0.514
 0.032  9 10  0.555
 0.034  13 13  0.53
 0.038  10 11  0.561
 0.05  14 15  0.632
 0.054  13 14  0.532
 0.075  16 17  0.678
 0.088  16 19  0.588
 0.077  18 19  0.6
 0.08  21 23  0.648
 0.087  22 26  0.712
 0.111  20 24  0.661
 0.164  20 23  0.573
 0.125  26 27  0.711
 0.125  30 33  0.679
 0.133  26 28  0.693
 0.181  24 29  1.179
 0.162  23 24  0.913
 0.165  24 28  0.744
 0.159  28 32  0.742
 0.158  27 31  0.669
 0.155  31 37  0.825
 0.238  41 48  0.84
 0.278  40 48  0.846
 0.269  45 51  0.728
 0.328  43 48  0.852
 0.291  47 53  0.87
 0.294  47 53  0.883
 0.308  43 50  0.855
 0.315  49 57  0.928
 0.345  53 62  0.764
 0.383  60 69  1.071
 0.44  61 69  0.992
 0.416  65 73  1.091
 0.521  69 78  0.961
 0.526  71 81  1.232
 0.726  87 97  1.015
 0.888  84 92  1.149
 0.733  92 106  1.523
 0.876  96 109  1.371
 0.935  95 106  1.396
 1.019  99 113  1.31
 0.865  105 116  1.353
 0.939  115 130  1.277
 0.651  84 98  1.281
 0.75  92 100  1.263
 0.78  90 105  1.474
 0.877  92 108  1.384
 0.886  94 111  1.411
 0.899  102 118  1.523
 0.878  103 118  1.318
 0.979  111 124  1.491
 1.552  159 185  2.189
 1.718  170 191  1.769
 1.956  157 173  2.092
 1.873  170 195  1.958
 2.143  163 185  1.99
 2.231  175 198  1.81
 1.984  177 200  2.539
 1.984  179 202  2.186
 1.76  156 178  1.843
 1.74  167 193  1.932
 1.857  176 199  1.881
 2.004  178 198  2.121
 1.969  180 211  2.261
 2.304  187 217  2.232
 2.153  195 223  2.23
 2.351  204 233  2.218
 2.419  207 238  2.438
 2.649  208 239  2.359
 2.616  221 256  2.472
 2.567  229 266  2.731
 2.896  231 265  2.739
 2.819  241 277  2.625
 2.925  245 279  3.081
 3.07  244 278  3.059
 3.425  255 288  2.824
 3.225  264 295  2.67
 3.498  262 299  3.088
 3.554  272 302  2.673
 3.675  277 313  3.131
 3.429  285 326  3.36
 3.942  283 322  3.251
 4.052  299 334  2.808
 3.858  305 353  3.422
 3.892  318 361  3.215
 4.013  308 347  3.72
 4.31  320 367  3.3
 4.717  319 359  3.306
 4.457  325 368  3.38
 4.694  338 386  3.826
 4.727  346 398  3.697
 4.924  340 385  3.584
 5.373  346 390  3.401
 5.098  360 406  3.94
 5.467  362 412  4.03
 4.933  365 410  3.57
 5.492  365 410  3.744
 5.799  380 420  3.683
 5.738  384 438  4.234
 5.606  389 439  4.322
 6.166  400 443  3.923
 5.94  411 468  4.443
 6.118  421 472  4.433
 6.466  423 476  4.401
 6.17  429 483  4.498
 6.833  426 476  4.338
 7.102  429 483  4.357
 6.61  436 490  4.517
 7.254  447 509  4.341
 5.812  317 356  4.339
 4.46  313 356  3.498
 4.262  323 372  3.634
 4.216  325 376  3.453
 4.555  329 377  3.456
 4.745  340 380  3.133
 4.918  339 386  3.714
 4.623  345 393  3.773
 5.249  354 411  3.578
 5.297  349 394  3.536
 5.595  358 407  3.54
 5.294  378 432  4.064
 5.637  376 424  3.682
 5.56  387 442  3.895
 5.713  385 443  4.274
 5.77  397 454  3.798
 6.327  409 453  3.672
 6.285  404 459  4.086
 5.848  416 472  4.01
 6.738  418 478  3.877
 6.298  426 481  3.754
 6.917  430 479  3.897
 6.564  438 497  4.334
 6.688  452 506  4.001
 6.638  451 517  4.487
 10.119  602 683  6.481
 9.846  622 697  5.571
 10.613  621 697  6.115
 10.451  628 712  6.153
 10.698  635 709  5.769
 10.124  629 708  6.019
 10.667  624 688  5.807
 11.059  640 720  6.2
 11.167  633 713  6.019
 11.738  647 727  6.048
 11.283  678 758  6.503
 10.983  664 757  6.248
 12.079  662 750  6.084
 13.141  676 754  6.115
 12.531  682 766  6.64
 12.133  688 773  6.313
 13.411  682 764  6.011
 12.846  695 774  6.552
 12.873  702 789  6.385
 12.456  706 792  6.95
 13.086  702 781  6.206
 13.769  724 810  6.895
 13.455  715 796  6.309
 14.099  724 810  7.013
 12.363  738 836  6.983
 9.797  596 661  5.686
 11.073  611 696  5.933
 10.449  625 709  6.063
 10.363  611 684  5.632
 10.81  622 705  6.125
 9.793  628 708  5.845
 10.868  651 744  6.294
 10.547  641 734  6.423
 11.216  649 736  6.804
 11.94  648 731  6.609
 12.826  664 745  6.004
 11.458  663 740  6.552
 12.924  669 752  6.107
 11.645  682 777  6.346
 12.684  689 767  5.897
 12.28  698 784  6.754
 11.412  705 793  7.101
 11.005  705 796  6.782
 12.842  705 793  6.986
 12.155  712 797  6.652
 13.186  709 806  7.199
 13.573  705 792  6.986
 12.63  721 810  6.788
 12.864  740 825  6.661
 14.125  747 838  7.265
 24.848  1202 1358  12.276
 24.281  1181 1323  10.795
 24.762  1193 1332  11.174
 26.742  1207 1350  11.64
 25.605  1206 1345  11.057
 23.321  1201 1353  11.397
 24.576  1239 1377  11.643
 24.657  1225 1370  12.188
 27.553  1253 1387  12.093
 26.699  1214 1358  12.068
 26.179  1247 1393  13.082
 27.145  1248 1386  11.907
 26.788  1239 1382  12.459
 27.284  1255 1408  12.152
 27.326  1263 1415  12.594
 28.867  1273 1422  11.906
 27.711  1289 1447  12.207
 27.808  1280 1430  13.379
 28.306  1314 1461  11.976
 29.616  1295 1435  11.858
 27.78  1307 1450  12.356
 29.762  1297 1433  11.895
 28.079  1312 1464  13.922
 30.322  1312 1465  13.416
 29.398  1304 1451  11.272
 27.286  1184 1327  13.061
 24.679  1186 1341  11.766
 25.248  1198 1347  11.782
 24.154  1212 1348  11.921
 26.592  1209 1334  10.249
 27.628  1211 1341  11.392
 26.042  1220 1362  11.951
 24.966  1219 1356  11.721
 27.463  1239 1392  12.658
 26.548  1226 1376  12.755
 25.111  1232 1382  13.134
 26.993  1253 1405  12.362
 27.702  1237 1384  12.494
 25.553  1254 1422  13.055
 26.677  1256 1413  12.526
 27.192  1286 1446  13.618
 23.516  1279 1451  13.248
 29.904  1277 1424  13.505
 26.637  1280 1437  12.366
 31.387  1310 1454  12.334
 30.449  1306 1459  13.434
 27.995  1299 1469  13.724
 27.851  1319 1480  13.753
 27.177  1346 1519  13.494
 27.109  1334 1490  13.607
 63.375  2321 2581  23.924
 66.81  2316 2578  24.818
 59.486  2351 2615  23.783
 63.305  2331 2581  23.592
 62.206  2361 2629  23.191
 64.382  2357 2603  23.054
 61.483  2349 2639  24.227
 63.596  2392 2657  23.072
 63.455  2366 2622  24.294
 59.144  2379 2641  23.34
 65.785  2399 2647  22.923
 68.11  2400 2667  23.864
 65.578  2402 2683  25.94
 70.388  2415 2672  22.234
 73.257  2402 2659  23.506
 64.649  2438 2712  24.729
 70.516  2442 2701  24.05
 59.758  2414 2694  26.235
 73.996  2426 2698  23.9
 68.431  2457 2728  22.582
 68.188  2428 2679  23.617
 60.703  2475 2746  25.591
 69.98  2470 2765  25.681
 67.75  2447 2713  26.578
 69.394  2481 2769  26.463
 62.158  2327 2604  26.248
 56.943  2361 2634  26.134
 63.425  2344 2614  22.863
 63.117  2357 2610  24.928
 57.425  2357 2639  26.193
 63.577  2368 2646  24.652
 64.506  2386 2653  23.947
 69.279  2393 2687  26.143
 61.417  2412 2700  25.581
 66.705  2396 2647  23.962
 65.183  2386 2659  24.73
 66.051  2407 2675  24.639
 68.05  2421 2704  24.824
 65.501  2409 2673  25.605
 65.158  2407 2690  25.93
 64.598  2418 2704  26.824
 65.182  2419 2706  25.665
 66.722  2449 2724  23.99
 66.37  2459 2724  27.558
 69.805  2469 2758  25.628
 72.393  2426 2687  29.73
 69.242  2467 2748  25.368
 66.348  2466 2750  25.895
 70.728  2519 2795  26.85
 65.311  2471 2747  27.364
 181.956  4607 5082  50.189
 182.092  4609 5078  48.35
 175.061  4644 5119  51.54
 168.789  4666 5159  50.114
 160.655  4715 5255  54.48
 169.025  4657 5156  54.697
 182.966  4663 5112  45.71
 167.086  4690 5193  53.859
 165.736  4683 5198  54.746
 160.806  4692 5205  54.393
 162.524  4662 5128  51.435
 174.25  4660 5126  49.75
 196.146  4661 5132  50.357
 161.71  4716 5220  53.017
 182.533  4726 5230  54.938
 172.502  4704 5213  50.699
 179.088  4748 5285  58.302
 166.131  4726 5227  53.592
 165.661  4754 5280  53.36
 169.555  4726 5250  57.541
 181.994  4751 5237  53.058
 187.133  4747 5205  49.408
 176.333  4777 5275  53.279
 173.35  4739 5243  53.859
 169.13  4790 5308  53.792
 164.028  4659 5162  29.667
 164.578  4629 5129  28.742
 172.479  4627 5125  27.939
 152.376  4669 5191  28.574
 158.651  4667 5165  28.485
 163.112  4652 5166  28.178
 171.597  4681 5177  28.67
 179.476  4619 5063  28.092
 169.378  4683 5180  29.339
 166.002  4711 5257  29.176
 166.11  4673 5194  28.582
 160.706  4684 5186  28.426
 177.341  4694 5204  29.975
 177.385  4726 5235  28.571
 169.943  4721 5224  29.129
 163.584  4718 5212  28.838
 179.316  4738 5239  31.43
 154.535  4759 5262  30.68
 171.336  4738 5253  30.828
 172.992  4706 5185  28.511
 171.904  4740 5224  28.426
 155.189  4764 5299  29.796
 164.459  4736 5238  28.28
 182.514  4756 5262  29.521
 172.712  4782 5293  29.311
 413.596  9180 10100  59.638
 415.076  9115 9985  56.486
 405.522  9202 10075  58.873
 419.808  9255 10156  59.083
 418.827  9201 10041  56.981
 403.317  9240 10141  58.885
 409.674  9224 10158  59.913
 424.682  9179 10029  58.161
 402.327  9204 10112  59.465
 406.75  9194 10073  57.735
 397.362  9259 10233  62.061
 398.151  9251 10189  60.139
 408.726  9251 10165  59.771
 408.958  9248 10178  60.424
 397.522  9246 10144  58.782
 381.363  9240 10186  62.101
 417.441  9290 10172  60.155
 427.884  9308 10246  61.027
 407.642  9299 10195  60.779
 391.479  9276 10238  62.845
 431.639  9295 10246  60.021
 391.704  9340 10314  60.795
 428.058  9249 10155  59.066
 419.796  9338 10277  59.139
 406.077  9317 10216  59.117
 413.38  9212 10168  61.787
 390.514  9187 10128  58.103
 416.946  9192 10143  60.429
 395.223  9176 10106  60.459
 416.583  9206 10144  61.235
 410.491  9199 10129  59.724
 382.063  9240 10224  61.453
 399.385  9245 10185  63.248
 398.952  9280 10203  60.143
 409.374  9212 10149  60.146
 366.899  9308 10308  60.295
 427.038  9224 10110  60.024
 405.168  9236 10159  61.24
 400.013  9288 10266  60.522
 406.643  9298 10244  61.938
 400.206  9278 10247  59.688
 366.273  9290 10187  58.17
 409.989  9282 10160  59.896
 403.613  9302 10278  63.74
 391.887  9328 10275  61.307
 381.354  9276 10279  63.6
 406.843  9262 10221  60.945
 396.937  9330 10304  60.198
 397.101  9328 10313  60.7
 406.105  9365 10346  61.687
 961.996  18199 19911  127.504
 933.52  18288 20007  124.743
 925.655  18165 19786  122.939
 977.459  18224 19914  128.557
 958.492  18263 20061  131.102
 923.032  18307 20138  128.568
 977.353  18197 19864  120.462
 934.646  18296 19968  126.397
 934.967  18279 19976  128.173
 992.819  18337 20048  129.171
 946.156  18265 19989  127.275
 928.743  18297 19956  124.684
 939.605  18272 19983  124.2
 897.747  18380 20173  127.462
 900.739  18322 20089  127.385
 953.071  18282 20005  124.578
 1093.54  18328 19962  155.84
 997.744  18349 20020  124.241
 895.486  18412 20137  126.482
 913.109  18310 19999  128.546
 933.902  18265 19923  124.921
 933.854  18314 19999  125.798
 941.608  18416 20154  130.823
 962.541  18381 20156  126.989
 861.32  18366 20045  126.192
 947.865  18230 19942  127.189
 964.805  18244 19992  125.004
 962.914  18341 20195  128.036
 928.957  18267 19963  124.986
 910.314  18270 19996  125.168
 857.116  18292 20107  128.457
 924.288  18321 20078  130.224
 899.758  18256 19959  124.856
 909.373  18261 19902  126.093
 929.324  18322 20124  127.707
 916.754  18296 20022  132.466
 973.999  18344 20067  127.098
 940.929  18316 20144  131.967
 910.207  18323 20142  131.531
 988.679  18336 20053  126.18
 909.841  18385 20184  131.84
 928.533  18401 20239  130.013
 934.647  18297 20075  129.546
 978.44  18309 20089  130.718
 973.751  18396 20060  126.098
 935.254  18384 20109  125.959
 961.164  18381 20079  130.687
 978.443  18343 20094  128.383
 964.73  18353 20048  128.205
 886.043  18379 20130  127.624
 2259.8  36197 39380  265.223
 2328.46  36206 39211  262.955
 2267.48  36169 39410  277.337
 2276.69  36236 39488  280.533
 2211.38  36249 39522  272.14
 2268.71  36357 39729  277.069
 2386.85  36402 39739  287.701
 2306.07  36315 39517  271.56
 2199.99  36314 39671  281.832
 2226.03  36350 39408  268.462
 2261.93  36323 39526  267.552
 2295.16  36255 39415  272.559
 2220.07  36316 39561  275.585
 2131.83  36257 39507  274.686
 0.024  3 3  1.03
 0.026  5 4  0.968
 0.03  6 5  0.773
 0.033  7 6  0.75
 0.017  6 6  0.612
 0.018  6 6  0.568
 0.02  8 8  0.536
 0.022  7 7  0.53
 0.029  8 8  0.471
 0.025  8 8  0.522
 0.029  9 9  0.506
 0.031  9 10  0.569
 0.034  13 13  0.543
 0.04  10 11  0.565
 0.05  14 15  0.607
 0.055  13 14  0.543
 0.069  16 17  0.647
 0.082  16 19  0.562
 0.085  18 19  0.626
 0.084  21 23  0.659
 0.091  22 26  0.72
 0.114  20 24  0.691
 0.165  20 23  0.582
 0.126  26 27  0.694
 0.132  30 33  0.689
 0.134  26 28  0.692
 0.111  24 29  0.744
 0.12  23 24  0.646
 0.143  24 28  0.641
 0.148  28 32  0.708
 0.145  27 31  0.638
 0.152  31 37  0.811
 0.235  41 48  0.859
 0.279  40 48  0.814
 0.271  45 51  0.73
 0.32  43 48  0.835
 0.304  47 53  0.903
 0.294  47 53  0.891
 0.297  43 50  0.839
 0.316  49 57  0.932
 0.347  53 62  0.77
 0.357  60 69  1.056
 0.44  61 69  0.987
 0.42  65 73  1.096
 0.521  69 78  1.106
 0.509  71 81  1.189
 0.723  87 97  1.026
 0.834  84 92  1.053
 0.752  92 106  1.489
 0.853  96 109  1.286
 0.9  95 106  1.312
 0.936  99 113  1.283
 0.872  105 116  1.305
 0.948  115 130  1.3
 0.656  84 98  1.29
 0.755  92 100  1.203
 0.738  90 105  1.353
 0.841  92 108  1.391
 0.876  94 111  1.42
 0.895  102 118  1.391
 0.884  103 118  1.288
 0.984  111 124  1.478
 1.547  159 185  2.055
 1.67  170 191  1.8
 1.974  157 173  1.946
 1.865  170 195  2.029
 2.158  163 185  1.994
 2.23  175 198  1.755
 2.019  177 200  1.992
 2.068  179 202  2.162
 1.811  156 178  1.976
 1.813  167 193  1.93
 1.942  176 199  1.912
 2.132  178 198  2.204
 1.986  180 211  2.327
 2.338  187 217  2.254
 2.211  195 223  2.331
 2.388  204 233  2.218
 2.455  207 238  2.599
 2.75  208 239  2.159
 2.592  221 256  2.488
 2.491  229 266  2.498
 2.854  231 265  2.678
 2.802  241 277  2.67
 3.018  245 279  3.075
 3.032  244 278  2.932
 3.349  255 288  2.756
 3.231  264 295  2.72
 3.575  262 299  3.079
 3.575  272 302  2.647
 3.679  277 313  3.153
 3.559  285 326  3.238
 3.938  283 322  3.252
 4.046  299 334  2.928
 3.797  305 353  3.38
 3.894  318 361  3.216
 4.13  308 347  3.64
 4.362  320 367  3.357
 4.856  319 359  3.469
 4.719  325 368  3.576
 4.706  338 386  3.687
 4.712  346 398  3.703
 4.858  340 385  3.536
 5.448  346 390  3.401
 5.019  360 406  3.968
 5.464  362 412  3.836
 4.962  365 410  3.674
 5.356  365 410  3.708
 5.878  380 420  3.714
 5.791  384 438  4.261
 5.52  389 439  4.388
 5.87  400 443  3.849
 5.914  411 468  4.263
 6.202  421 472  4.37
 6.497  423 476  4.31
 6.173  429 483  4.548
 6.829  426 476  4.242
 7.162  429 483  4.468
 6.586  436 490  4.415
 7.204  447 509  4.377
 4.288  317 356  3.204
 4.143  313 356  3.245
 4.274  323 372  3.641
 4.239  325 376  3.409
 4.596  329 377  3.455
 4.714  340 380  3.158
 4.893  339 386  3.939
 5.176  345 393  4.35
 5.35  354 411  3.676
 5.285  349 394  3.567
 5.321  358 407  3.545
 5.278  378 432  4.043
 5.605  376 424  3.791
 5.482  387 442  3.903
 5.757  385 443  4.231
 5.786  397 454  3.802
 6.24  409 453  3.55
 6.279  404 459  4.053
 5.896  416 472  4.067
 6.647  418 478  4.015
 6.49  426 481  3.939
 7.249  430 479  4.022
 7.055  438 497  5.054
 7.174  452 506  4.431
 7.575  451 517  4.719
 10.226  602 683  6.519
 10.162  622 697  5.715
 10.909  621 697  6.339
 10.789  628 712  6.397
 11.058  635 709  6.018
 10.356  629 708  6.194
 10.697  624 688  5.888
 11.305  640 720  6.334
 11.843  633 713  6.502
 11.394  647 727  6.194
 11.428  678 758  6.615
 10.994  664 757  6.369
 12.569  662 750  6.248
 13.328  676 754  6.222
 12.683  682 766  7.065
 12.161  688 773  6.468
 13.546  682 764  6.132
 13.031  695 774  6.791
 13.053  702 789  6.54
 12.69  706 792  7.102
 13.685  702 781  6.662
 13.788  724 810  6.99
 13.54  715 796  6.38
 14.279  724 810  7.122
 12.517  738 836  7.044
 9.646  596 661  5.783
 11.059  611 696  6.018
 11.054  625 709  6.454
 10.433  611 684  5.764
 10.802  622 705  6.152
 9.795  628 708  5.841
 10.891  651 744  6.259
 10.584  641 734  6.452
 11.107  649 736  6.497
 12.177  648 731  6.623
 12.815  664 745  6.155
 11.446  663 740  6.606
 12.909  669 752  6.119
 11.644  682 777  6.353
 12.689  689 767  5.906
 12.294  698 784  6.804
 11.434  705 793  7.113
 11.055  705 796  6.847
 12.867  705 793  7.019
 12.446  712 797  7.208
 13.366  709 806  7.529
 13.563  705 792  7.07
 12.87  721 810  6.777
 12.921  740 825  6.651
 14.297  747 838  7.242
 24.811  1202 1358  12.354
 24.334  1181 1323  10.761
 27.318  1193 1332  12.16
 25.51  1207 1350  11.893
 26.584  1206 1345  11.141
 24.08  1201 1353  11.504
 24.704  1239 1377  11.637
 24.736  1225 1370  12.125
 27.565  1253 1387  12.005
 26.757  1214 1358  12.071
 26.507  1247 1393  12.99
 27.047  1248 1386  11.809
 26.833  1239 1382  12.475
 27.311  1255 1408  12.163
 27.289  1263 1415  12.586
 29.296  1273 1422  12.07
 27.77  1289 1447  12.242
 27.971  1280 1430  13.32
 28.418  1314 1461  11.963
 29.639  1295 1435  11.882
 27.238  1307 1450  12.263
 29.998  1297 1433  11.973
 28.089  1312 1464  14.023
 30.47  1312 1465  13.467
 29.422  1304 1451  11.121
 24.727  1184 1327  11.981
 24.472  1186 1341  11.686
 25.254  1198 1347  11.815
 24.145  1212 1348  11.946
 26.626  1209 1334  10.34
 27.594  1211 1341  11.433
 26.126  1220 1362  11.945
 24.899  1219 1356  11.696
 27.597  1239 1392  12.778
 26.52  1226 1376  12.73
 25.216  1232 1382  13.197
 26.912  1253 1405  12.286
 27.755  1237 1384  12.652
 25.436  1254 1422  13.064
 26.713  1256 1413  12.561
 29.052  1286 1446  13.556
 23.304  1279 1451  13.258
 29.94  1277 1424  13.515
 26.874  1280 1437  12.855
 31.351  1310 1454  12.332
 30.583  1306 1459  13.469
 27.995  1299 1469  13.639
 27.784  1319 1480  13.662
 27.298  1346 1519  13.529
 27.642  1334 1490  13.651
 63.335  2321 2581  23.89
 66.29  2316 2578  25.004
 59.367  2351 2615  23.769
 63.885  2331 2581  23.53
 62.952  2361 2629  23.837
 64.334  2357 2603  22.988
 63.627  2349 2639  24.269
 66.766  2392 2657  23.349
 63.639  2366 2622  24.44
 59.447  2379 2641  23.468
 65.694  2399 2647  22.904
 67.999  2400 2667  23.852
 66.234  2402 2683  26.617
 74.737  2415 2672  23.107
 70.709  2402 2659  23.651
 64.909  2438 2712  25.281
 70.262  2442 2701  24.039
 59.381  2414 2694  26.304
 75.738  2426 2698  24.304
 68.232  2457 2728  22.425
 68.749  2428 2679  23.965
 61.107  2475 2746  25.841
 70.021  2470 2765  25.76
 67.161  2447 2713  26.542
 71.758  2481 2769  28.431
 62.261  2327 2604  25.083
 56.863  2361 2634  27.124
 64.272  2344 2614  22.834
 63.097  2357 2610  25.153
 58.262  2357 2639  27.682
 63.786  2368 2646  25.022
 64.616  2386 2653  23.991
 69.927  2393 2687  27.425
 61.694  2412 2700  25.602
 66.711  2396 2647  24.096
 65.265  2386 2659  24.819
 66.04  2407 2675  24.718
 67.799  2421 2704  25.045
 65.477  2409 2673  25.66
 64.962  2407 2690  25.823
 64.3  2418 2704  26.019
 65.177  2419 2706  25.644
 67.078  2449 2724  24.011
 62.536  2459 2724  26.884
 69.427  2469 2758  25.511
 67.144  2426 2687  26.218
 67.149  2467 2748  25.208
 66.579  2466 2750  26.092
 70.617  2519 2795  26.833
 65.118  2471 2747  27.166
 180.904  4607 5082  50.579
 177.443  4609 5078  48.867
 175.029  4644 5119  51.925
 168.615  4666 5159  50.126
 160.351  4715 5255  53.621
 168.308  4657 5156  50.567
 182.473  4663 5112  45.569
 166.557  4690 5193  53.225
 165.31  4683 5198  54.538
 160.368  4692 5205  54.087
 162.422  4662 5128  51.4
 173.424  4660 5126  49.678
 191.794  4661 5132  49.747
 160.513  4716 5220  53.037
 175.967  4726 5230  53.384
 169.897  4704 5213  52.018
 176.191  4748 5285  55.596
 165.722  4726 5227  53.048
 162.478  4754 5280  53.37
 169.29  4726 5250  55.629
 174.415  4751 5237  52.928
 178.277  4747 5205  49.552
 176.624  4777 5275  52.829
 172.228  4739 5243  54.325
 168.675  4790 5308  53.336
 164.303  4659 5162  29.876
 164.983  4629 5129  28.682
 177.172  4627 5125  28.95
 157.608  4669 5191  29.81
 158.802  4667 5165  28.57
 163.546  4652 5166  28.364
 171.895  4681 5177  28.816
 179.633  4619 5063  27.649
 169.609  4683 5180  28.576
 166.529  4711 5257  29.245
 166.04  4673 5194  27.991
 160.858  4684 5186  28.11
 177.522  4694 5204  30.169
 180.052  4726 5235  28.598
 176.656  4721 5224  28.839
 164.451  4718 5212  29.445
 179.12  4738 5239  29.316
 156.612  4759 5262  29.906
 172.215  4738 5253  31.385
 173.998  4706 5185  29.192
 171.904  4740 5224  28.292
 155.756  4764 5299  29.668
 164.785  4736 5238  28.232
 172.018  4756 5262  29.306
 172.224  4782 5293  29.144
 409.254  9180 10100  59.534
 418.529  9115 9985  58.155
 405.013  9202 10075  59.484
 408.236  9255 10156  58.515
 419.397  9201 10041  56.85
 399.711  9240 10141  58.747
 396.308  9224 10158  60.83
 401.03  9179 10029  57.779
 398.021  9204 10112  60.26
 405.554  9194 10073  57.431
 402.671  9259 10233  63.227
 408.318  9251 10189  59.777
 406.838  9251 10165  59.701
 405.411  9248 10178  59.796
 404.463  9246 10144  59.93
 379.239  9240 10186  61.596
 423.353  9290 10172  60.623
 421.402  9308 10246  59.863
 409.961  9299 10195  60.5
 384.678  9276 10238  61.239
 429.57  9295 10246  59.283
 397.696  9340 10314  62.816
 438.046  9249 10155  60.527
 429.648  9338 10277  62.731
 410.814  9317 10216  62.343
 413.588  9212 10168  61.963
 392.42  9187 10128  58.468
 418.523  9192 10143  65.728
 403.413  9176 10106  60.781
 419.32  9206 10144  61.456
 426.06  9199 10129  61.15
 379.215  9240 10224  61.708
 404.003  9245 10185  64.229
 399.804  9280 10203  60.977
 418.363  9212 10149  60.573
 374.7  9308 10308  61.817
 420.735  9224 10110  59.005
 404.64  9236 10159  61.644
 396.691  9288 10266  60.708
 408.915  9298 10244  62.022
 410.455  9278 10247  61.318
 366.041  9290 10187  58.21
 411.894  9282 10160  59.955
 405.101  9302 10278  64.083
 394.521  9328 10275  61.978
 379.795  9276 10279  63.825
 399.037  9262 10221  59.424
 413.077  9330 10304  61.948
 397.281  9328 10313  61.075
 398.545  9365 10346  60.421
 945.37  18199 19911  128.01
 931.488  18288 20007  122.455
 935.094  18165 19786  129.251
 975.745  18224 19914  126.393
 946.925  18263 20061  132.742
 921.242  18307 20138  132.429
 983.761  18197 19864  122.338
 936.641  18296 19968  125.81
 921.749  18279 19976  128.186
 997.723  18337 20048  130.723
 947.846  18265 19989  127.496
 929.761  18297 19956  124.713
 937.952  18272 19983  126.609
 897.724  18380 20173  127.41
 897.451  18322 20089  128.076
 969.203  18282 20005  126.74
 939.186  18328 19962  127.08
 996.554  18349 20020  124.527
 915.391  18412 20137  129.074
 916.048  18310 19999  128.82
 939.015  18265 19923  127.929
 949.439  18314 19999  126.249
 942.96  18416 20154  130.587
 978.019  18381 20156  128.062
 862.53  18366 20045  127.274
 958.893  18230 19942  127.881
 969.335  18244 19992  125.366
 961.632  18341 20195  128.371
 929.782  18267 19963  123.698
 907.953  18270 19996  125.573
 863.287  18292 20107  130.931
 926.28  18321 20078  131.828
 932.436  18256 19959  127.733
 925.73  18261 19902  125.958
 937.811  18322 20124  129.072
 906.399  18296 20022  126.46
 975.099  18344 20067  126.76
 942.384  18316 20144  131.941
 919.777  18323 20142  131.836
 996.105  18336 20053  126.831
 908.766  18385 20184  131.149
 945.57  18401 20239  129.697
 934.791  18297 20075  130.661
 988.348  18309 20089  130.413
 975.19  18396 20060  131.142
 937.824  18384 20109  127.269
 964.181  18381 20079  132.939
 979.641  18343 20094  128.654
 974.053  18353 20048  133.822
 876.652  18379 20130  128.135
 2250.53  36197 39380  264.379
 2334.33  36206 39211  263.125
 2267.01  36169 39410  276.867
 2267.79  36236 39488  280.763
 2208.36  36249 39522  270.303
 2263.01  36357 39729  277.263
 2244.26  36402 39739  280.376
 2272.49  36315 39517  270.43
 2193.05  36314 39671  279.983
 2230.85  36350 39408  271.036
 2250.9  36323 39526  269.82
 2287.68  36255 39415  269.326
 2249.5  36316 39561  278.512
 2147.53  36257 39507  275.359
 2206.6  36305 39535  275.559
 2158.92  36312 39465  266.327
 2150.65  36297 39495  269.734
 2337.1  36352 39710  288.698
 2163.38  36390 39690  274.302
 2226.38  36402 39663  271.564
 2247.32  36366 39580  276.81
 2233.47  36318 39461  277.69
 2148.45  36445 39752  276.324
 2180.26  36373 39742  277.766
 2298.83  36409 39619  270.919
 2233.19  36511 39869  282.366
 1732.1  38497 40791  436.005
 2223.4  36669 40058  274.273
 1869.32  38770 40953  441.24
 2260.83  36699 39961  283.647
 1706.76  38550 40923  437.305
 2330.28  36630 39908  272.593
 1720.83  38854 41168  437.671
 2261.71  36657 40096  293.199
 2055.4  39054 41063  452.288
 0.048  3 3  1.963
 0.031  5 4  1.109
 0.032  6 5  0.869
 0.036  7 6  0.843
 0.021  6 6  0.67
 0.02  6 6  0.594
 0.022  8 8  0.54
 0.021  7 7  0.532
 0.032  8 8  0.496
 0.025  8 8  0.504
 0.029  9 9  0.505
 0.031  9 10  0.549
 0.034  13 13  0.535
 0.039  10 11  0.575
 0.05  14 15  0.613
 0.056  13 14  0.548
 0.068  16 17  0.619
 0.085  16 19  0.559
 0.077  18 19  0.591
 0.079  21 23  0.631
 0.087  22 26  0.741
 0.106  20 24  0.622
 0.171  20 23  0.611
 0.123  26 27  0.689
 0.123  30 33  0.678
 0.133  26 28  0.687
 0.112  24 29  0.732
 0.125  23 24  0.642
 0.149  24 28  0.663
 0.142  28 32  0.679
 0.148  27 31  0.633
 0.148  31 37  0.804
 0.234  41 48  0.841
 0.293  40 48  0.835
 0.269  45 51  0.726
 0.323  43 48  0.836
 0.292  47 53  0.874
 0.291  47 53  0.888
 0.301  43 50  0.834
 0.32  49 57  0.923
 0.348  53 62  0.773
 0.37  60 69  1.087
 0.441  61 69  0.976
 0.445  65 73  1.121
 0.541  69 78  0.964
 0.506  71 81  1.187
 0.726  87 97  1.034
 0.823  84 92  1.039
 0.749  92 106  1.472
 0.84  96 109  1.272
 0.911  95 106  1.341
 0.933  99 113  1.311
 0.86  105 116  1.348
 0.942  115 130  1.251
 0.65  84 98  1.285
 0.751  92 100  1.205
 0.747  90 105  1.403
 0.814  92 108  1.348
 0.868  94 111  1.435
 0.899  102 118  1.426
 0.926  103 118  1.368
 1.082  111 124  1.599
 1.539  159 185  2.083
 1.694  170 191  1.823
 1.977  157 173  1.94
 1.903  170 195  1.969
 2.193  163 185  1.991
 2.184  175 198  1.755
 2.034  177 200  2.089
 2.075  179 202  2.316
 1.79  156 178  1.955
 1.798  167 193  1.986
 1.866  176 199  1.965
 2.01  178 198  2.132
 1.924  180 211  2.329
 2.401  187 217  2.239
 2.225  195 223  2.285
 2.499  204 233  2.303
 2.428  207 238  2.433
 2.819  208 239  2.258
 2.729  221 256  2.684
 2.684  229 266  2.568
 2.894  231 265  2.742
 2.959  241 277  2.677
 2.904  245 279  3.132
 3.004  244 278  2.972
 3.389  255 288  2.714
 3.287  264 295  2.673
 3.492  262 299  3.041
 3.658  272 302  2.696
 3.725  277 313  3.357
 3.493  285 326  3.249
 3.911  283 322  3.245
 4.149  299 334  2.888
 3.782  305 353  3.426
 4.001  318 361  3.542
 3.994  308 347  3.641
 4.378  320 367  3.561
 4.732  319 359  3.222
 4.484  325 368  3.46
 4.694  338 386  3.673
 4.81  346 398  3.642
 4.839  340 385  3.545
 5.488  346 390  3.461
 5.027  360 406  4.051
 5.43  362 412  3.886
 5.021  365 410  3.655
 5.371  365 410  3.776
 5.786  380 420  3.701
 5.865  384 438  4.274
 5.54  389 439  4.399
 5.857  400 443  3.912
 5.877  411 468  4.304
 6.244  421 472  4.4
 6.683  423 476  4.356
 6.245  429 483  4.543
 6.848  426 476  4.336
 7.227  429 483  4.512
 6.609  436 490  4.492
 7.343  447 509  4.415
 4.212  317 356  3.211
 4.258  313 356  3.298
 4.196  323 372  3.655
 4.38  325 376  3.369
 4.535  329 377  3.517
 4.818  340 380  3.087
 4.889  339 386  3.726
 4.474  345 393  3.755
 5.343  354 411  3.647
 5.381  349 394  3.508
 5.16  358 407  3.52
 5.397  378 432  4.069
 5.6  376 424  3.704
 5.486  387 442  3.971
 5.714  385 443  4.244
 5.873  397 454  3.838
 6.246  409 453  3.682
 6.484  404 459  4.327
 5.842  416 472  4.074
 6.445  418 478  3.943
 6.178  426 481  3.793
 6.875  430 479  3.84
 6.668  438 497  4.359
 6.95  452 506  4.143
 6.741  451 517  4.364
 10.069  602 683  6.605
 9.884  622 697  5.571
 10.618  621 697  6.074
 10.525  628 712  6.265
 10.828  635 709  5.853
 10.12  629 708  5.988
 10.688  624 688  5.792
 11.021  640 720  6.202
 11.146  633 713  5.867
 11.467  647 727  6.153
 11.276  678 758  6.488
 10.865  664 757  6.18
 12.084  662 750  6.086
 13.291  676 754  6.239
 12.539  682 766  6.639
 12.198  688 773  6.43
 13.423  682 764  6.157
 13.006  695 774  6.692
 12.938  702 789  6.41
 12.914  706 792  7.445
 13.077  702 781  6.2
 13.84  724 810  6.987
 13.387  715 796  6.275
 14.234  724 810  7.049
 12.434  738 836  6.942
 9.731  596 661  5.808
 11.114  611 696  6.017
 10.432  625 709  6.04
 10.435  611 684  5.64
 10.805  622 705  6.115
 9.859  628 708  5.852
 10.941  651 744  6.448
 10.521  641 734  6.358
 11.187  649 736  6.624
 11.95  648 731  6.583
 12.81  664 745  6.046
 11.605  663 740  6.695
 12.929  669 752  6.102
 11.693  682 777  6.373
 12.842  689 767  6.031
 12.254  698 784  6.758
 11.559  705 793  7.239
 11.013  705 796  6.842
 12.934  705 793  7.077
 12.213  712 797  6.648
 13.276  709 806  7.221
 13.704  705 792  7.141
 12.604  721 810  6.718
 13.084  740 825  6.757
 14.139  747 838  7.231
 24.88  1202 1358  12.345
 24.838  1181 1323  11.289
 24.507  1193 1332  11.16
 25.704  1207 1350  11.791
 25.655  1206 1345  11.113
 23.659  1201 1353  11.594
 24.816  1239 1377  11.842
 24.725  1225 1370  12.157
 28.042  1253 1387  12.044
 27.063  1214 1358  12.28
 26.134  1247 1393  13.067
 26.861  1248 1386  11.796
 26.753  1239 1382  12.904
 27.797  1255 1408  12.403
 27.481  1263 1415  12.821
 29.339  1273 1422  12.138
 28.022  1289 1447  12.351
 28.062  1280 1430  13.543
 29.479  1314 1461  12.412
 29.532  1295 1435  11.834
 27.229  1307 1450  12.323
 30.177  1297 1433  12.163
 28.065  1312 1464  13.893
 30.664  1312 1465  13.787
 29.853  1304 1451  11.297
 25.124  1184 1327  12.406
 24.874  1186 1341  12.059
 25.413  1198 1347  11.982
 24.25  1212 1348  11.858
 26.907  1209 1334  10.604
 27.572  1211 1341  11.322
 26.31  1220 1362  12.228
 24.996  1219 1356  11.714
 27.677  1239 1392  12.979
 26.554  1226 1376  12.692
 25.737  1232 1382  13.157
 27.019  1253 1405  12.375
 28.191  1237 1384  12.711
 25.33  1254 1422  13.057
 26.74  1256 1413  12.558
 27.365  1286 1446  13.528
 23.327  1279 1451  13.265
 30.397  1277 1424  13.752
 26.7  1280 1437  12.571
 31.844  1310 1454  12.573
 30.544  1306 1459  13.443
 27.991  1299 1469  13.668
 28.209  1319 1480  14.19
 27.276  1346 1519  13.492
 27.652  1334 1490  13.893
 63.058  2321 2581  23.872
 66.976  2316 2578  25.523
 59.71  2351 2615  24.255
 65.174  2331 2581  23.863
 61.735  2361 2629  22.909
 65.757  2357 2603  23.648
 62.73  2349 2639  24.76
 64.737  2392 2657  23.548
 64.753  2366 2622  24.951
 60.243  2379 2641  23.84
 66.793  2399 2647  23.362
 67.848  2400 2667  23.778
 66.804  2402 2683  26.573
 69.791  2415 2672  22.327
 70.425  2402 2659  23.666
 64.705  2438 2712  24.58
 70.053  2442 2701  23.919
 60.549  2414 2694  26.675
 73.89  2426 2698  23.918
 68.41  2457 2728  22.4
 68.333  2428 2679  23.627
 62.181  2475 2746  25.711
 70.094  2470 2765  25.764
 67.148  2447 2713  26.631
 70.69  2481 2769  26.923
 62.804  2327 2604  25.295
 57.731  2361 2634  26.52
 63.109  2344 2614  22.673
 64.045  2357 2610  25.474
 56.779  2357 2639  26.226
 63.462  2368 2646  24.721
 66.073  2386 2653  24.5
 69.697  2393 2687  27.484
 62.704  2412 2700  26.138
 66.429  2396 2647  24.104
 65.365  2386 2659  24.962
 66.586  2407 2675  24.952
 68.944  2421 2704  25.217
 65.581  2409 2673  25.649
 65.028  2407 2690  26.041
 65.347  2418 2704  26.443
 66.255  2419 2706  26.212
 66.619  2449 2724  24.154
 62.602  2459 2724  27.667
 70.358  2469 2758  25.951
 67.113  2426 2687  26.188
 67.003  2467 2748  24.966
 67.38  2466 2750  26.247
 71.913  2519 2795  27.223
 65.594  2471 2747  27.205
 179.655  4607 5082  50.805
 179.945  4609 5078  50.102
 177.341  4644 5119  52.392
 171.688  4666 5159  50.826
 161.685  4715 5255  54.833
 171.6  4657 5156  51.604
 183.294  4663 5112  45.59
 169.726  4690 5193  54.358
 168.493  4683 5198  55.663
 159.497  4692 5205  54.297
 164.768  4662 5128  52.03
 174.106  4660 5126  50.446
 196.672  4661 5132  52.115
 164.366  4716 5220  54.478
 179.4  4726 5230  53.907
 172.185  4704 5213  51.841
 179.091  4748 5285  56.483
 167.928  4726 5227  53.544
 165.653  4754 5280  54.073
 169.08  4726 5250  56.451
 177.24  4751 5237  53.247
 181.638  4747 5205  50.401
 179.139  4777 5275  53.973
 176.192  4739 5243  55.186
 170.506  4790 5308  54.833
 167.336  4659 5162  29.834
 165.337  4629 5129  28.959
 176.182  4627 5125  28.237
 156.549  4669 5191  29.116
 161.749  4667 5165  28.411
 165.972  4652 5166  28.341
 175.467  4681 5177  29.407
 179.933  4619 5063  28.134
 170.09  4683 5180  28.972
 171.203  4711 5257  29.834
 168.783  4673 5194  28.439
 164.187  4684 5186  28.532
 179.86  4694 5204  30.171
 180.758  4726 5235  29.073
 172.687  4721 5224  29.212
 164.839  4718 5212  29.142
 180.557  4738 5239  29.539
 157.296  4759 5262  30.085
 173.181  4738 5253  31.209
 176.298  4706 5185  29.086
 174.531  4740 5224  28.897
 157.143  4764 5299  30.307
 167.2  4736 5238  28.727
 174.549  4756 5262  29.837
 178.432  4782 5293  30.458
 426.428  9180 10100  59.332
 424.312  9115 9985  57.941
 411.406  9202 10075  59.867
 413.868  9255 10156  59.454
 426.995  9201 10041  57.953
 405.327  9240 10141  59.644
 405.45  9224 10158  61.438
 409.063  9179 10029  59.887
 401.766  9204 10112  60.216
 408.432  9194 10073  58.74
 408.247  9259 10233  67.375
 418.251  9251 10189  60.261
 409.87  9251 10165  59.809
 411.55  9248 10178  60.546
 407.055  9246 10144  60.168
 387.999  9240 10186  62.928
 427.708  9290 10172  60.216
 429.915  9308 10246  60.93
 413.31  9299 10195  60.994
 394.073  9276 10238  63.172
 435.099  9295 10246  60.176
 398.973  9340 10314  61.808
 436.456  9249 10155  60.138
 429.194  9338 10277  60.455
 411.22  9317 10216  60.237
 414.894  9212 10168  61.493
 397.479  9187 10128  58.868
 418.169  9192 10143  61.28
 407.303  9176 10106  63.205
 423.259  9206 10144  62.03
 424.37  9199 10129  60.583
 384.788  9240 10224  61.334
 399.58  9245 10185  63.315
 399.211  9280 10203  60.582
 420.545  9212 10149  61.762
 376.156  9308 10308  61.67
 426.655  9224 10110  59.817
 405.336  9236 10159  61.138
 403.327  9288 10266  61.848
 407.125  9298 10244  62.201
 408.58  9278 10247  61.893
 394.361  9290 10187  62.382
 414.24  9282 10160  63.453
 403.271  9302 10278  63.601
 410.821  9328 10275  61.62
 388.418  9276 10279  64.905
 407.015  9262 10221  62.095
 409.444  9330 10304  62.382
 407.302  9328 10313  62.277
 406.525  9365 10346  62.364
 973.585  18199 19911  131.646
 954.378  18288 20007  125.26
 944.87  18165 19786  124.806
 980.595  18224 19914  128.651
 972.64  18263 20061  129.982
 929.232  18307 20138  131.566
 996.631  18197 19864  122.857
 936.561  18296 19968  128.613
 930.162  18279 19976  128.412
 1001.25  18337 20048  129.85
 945.307  18265 19989  126.927
 936.819  18297 19956  124.332
 940.614  18272 19983  126.523
 897.492  18380 20173  127.941
 901.001  18322 20089  127.899
 962.366  18282 20005  126.48
 949.108  18328 19962  130.716
 1009.51  18349 20020  124.788
 904.788  18412 20137  130.26
 933.869  18310 19999  128.172
 949.334  18265 19923  127.836
 952.389  18314 19999  127.847
 941.221  18416 20154  131.376
 972.146  18381 20156  126.817
 874.768  18366 20045  126.861
 978.173  18230 19942  129.599
 1011.84  18244 19992  143.216
 963.988  18341 20195  128.427
 932.084  18267 19963  124.214
 909.646  18270 19996  126.587
 863.692  18292 20107  129.809
 923.166  18321 20078  131.33
 908.505  18256 19959  127.541
 929.766  18261 19902  125.964
 962.618  18322 20124  127.92
 921.492  18296 20022  128.502
 969.905  18344 20067  126.7
 931.511  18316 20144  131.91
 924.997  18323 20142  134.416
 998.749  18336 20053  126.761
 911.185  18385 20184  130.859
 938.572  18401 20239  129.417
 929.606  18297 20075  130.786
 986.076  18309 20089  130.996
 979.836  18396 20060  130.239
 935.8  18384 20109  127.32
 961.95  18381 20079  129.83
 999.789  18343 20094  130.404
 1012.24  18353 20048  126.679
 881.235  18379 20130  127.731
 2483.71  36197 39380  262.597
 2318.82  36206 39211  267.778
 2279.76  36169 39410  277.836
 2333.62  36236 39488  282.193
 2226.34  36249 39522  271.748
 2270.02  36357 39729  277.915
 2250.05  36402 39739  280.743
 2279.51  36315 39517  270.359
 2194.83  36314 39671  281.303
 2240.14  36350 39408  267.846
 2244.82  36323 39526  267.793
 2282.88  36255 39415  270.281
 2231.43  36316 39561  273.174
 2141.87  36257 39507  274.533
 2224.35  36305 39535  278.457
 2158.14  36312 39465  271.657
 2156.34  36297 39495  276.57
 2292.42  36352 39710  278.81
 2160.25  36390 39690  274.776
 2236.64  36402 39663  271.156
 2443.33  36366 39580  276.707
 2239.11  36318 39461  270.717
 2174.84  36445 39752  275.597
 2204.55  36373 39742  276.6
 2303.53  36409 39619  270.91
 2218.55  36511 39869  281.767
 1775.69  38497 40791  441.276
 2194.86  36669 40058  274.525
 1793.58  38770 40953  439.009
 2238.53  36699 39961  274.873
 1683.88  38550 40923  498.308
 2321.94  36630 39908  277.01
 1777.28  38854 41168  441.043
 2260.46  36657 40096  286.107
 2047.88  39054 41063  513.423
