 27.4  3 3  12.173
 29.427  3 3  11.856
 13.258  4 3  12.979
 31.058  5 4  12.602
 37.892  4 4  12.289
 13.04  5 4  13.415
 33.921  6 5  12.894
 39.487  5 5  13.641
 13.567  6 5  13.74
 37.962  7 6  14.277
 40.823  6 6  12.908
 13.5  7 6  13.546
 31.923  6 6  19.534
 38.169  5 6  12.936
 14.28  9 8  13.942
 39.278  6 6  13.035
 37.224  5 6  13.41
 14.355  8 7  14.115
 34.195  7 7  13.633
 44.218  6 7  12.436
 14.152  8 7  13.629
 32.768  8 8  14.058
 41.928  6 7  12.944
 14.273  9 8  13.849
 35.785  8 8  13.425
 42.105  7 8  13.315
 14.426  11 10  13.956
 36.846  8 8  13.457
 44.687  7 8  13.011
 14.367  13 12  14.185
 36.155  9 10  13.643
 43.255  8 10  14.843
 14.596  14 13  14.349
 35.217  11 12  13.505
 43.439  8 10  12.566
 17.014  11 10  13.705
 37.265  10 11  13.913
 43.321  9 11  13.477
 14.593  17 16  14.534
 37.088  10 10  12.627
 43.121  9 10  15.06
 14.482  17 16  14.327
 38.344  14 16  15.507
 50.031  13 17  13.292
 18.628  22 21  19.322
 39.261  16 18  16.198
 55.899  12 16  14.262
 17.453  25 24  16.009
 38.448  14 17  15.748
 47.897  13 17  13.961
 15.168  33 32  15.706
 38.922  22 22  16.162
 47.906  14 16  13.712
 14.943  22 21  15.868
 41.364  18 21  15.411
 50.8  15 21  13.514
 15.036  31 30  14.676
 40.646  20 22  15.85
 49.948  16 20  14.008
 17.004  32 31  15.308
 40.471  21 23  16.101
 53.715  17 21  13.958
 15.862  34 33  17.343
 40.672  23 25  16.336
 52.441  18 24  13.292
 15.382  38 37  14.698
 40.934  25 29  17.126
 52.219  19 25  14.571
 16.654  43 42  15.866
 42.201  28 32  16.736
 51.346  20 26  14.15
 15.575  44 43  15.358
 42.363  25 27  16.105
 59.078  21 25  13.529
 16.551  45 44  15.644
 45.224  28 31  16.262
 59.082  22 27  13.339
 15.769  46 45  14.494
 42.557  23 27  16.155
 52.683  19 24  13.336
 18.685  46 45  15.472
 42.377  24 28  17.627
 59.242  20 26  15.877
 16.7  58 57  17.004
 46.073  27 30  19.544
 59.543  21 27  15.847
 16.271  54 53  17.007
 44.542  27 30  17.102
 53.957  22 27  14.053
 15.698  55 54  15.136
 44.741  27 31  16.744
 54.61  23 29  14.536
 16.267  61 60  16.437
 45.146  30 34  17.995
 55.04  24 31  14.179
 16.486  70 69  15.725
 48.268  40 47  20.933
 59.808  33 43  15.948
 16.823  96 95  16.179
 48.283  43 49  22.364
 67.881  34 42  15.104
 16.559  88 87  17.157
 58.605  39 43  17.151
 62.202  35 41  13.272
 18.522  107 106  14.693
 48.87  50 56  21.239
 62.45  36 45  15.279
 16.29  88 87  16.249
 48.702  44 47  18.942
 61.495  37 43  14.465
 16.873  99 98  15.083
 51.856  44 48  20.118
 60.973  38 45  14.675
 16.557  101 100  15.459
 51.488  47 53  21.976
 62.322  37 46  14.524
 16.422  102 101  15.518
 49.534  46 51  18.837
 67.519  40 48  14.86
 16.839  133 132  15.695
 47.761  52 62  23.75
 62.844  43 57  14.766
 22.229  146 145  16.26
 50.031  57 64  22.356
 69.813  50 61  15.991
 17.986  149 148  16.224
 50.751  61 70  24.656
 67.825  51 63  15.772
 17.489  163 162  16.469
 53.622  64 76  24.634
 66.504  52 67  14.722
 18.099  164 163  16.083
 59.444  67 77  24.901
 66.085  55 68  15.118
 17.153  168 167  16.332
 55.244  68 79  23.343
 74.078  58 71  16.103
 18.171  191 190  16.239
 57.068  80 91  26.603
 70.676  67 82  15.022
 17.94  197 196  16.273
 58.543  83 93  25.955
 80.364  71 87  15.733
 19.182  234 233  17.376
 59.467  91 105  31.088
 78.935  75 94  16.428
 18.593  210 209  16.733
 61.94  92 106  29.42
 81.373  76 93  15.154
 18.181  218 217  16.965
 66.46  98 110  33.739
 78.399  81 102  16.469
 18.93  236 235  16.551
 62.992  98 109  26.801
 78.843  82 98  14.704
 18.961  266 265  16.519
 63.369  106 122  30.407
 79.115  90 115  15.232
 20.516  253 252  16.371
 72.251  110 124  29.006
 85.122  88 105  15.432
 18.847  313 312  16.102
 58.562  84 98  25.792
 72.905  69 86  14.941
 18.816  313 312  16.321
 59.669  88 101  27.935
 76.36  75 91  15.109
 18.354  265 264  16.356
 58.486  89 103  27.289
 88.692  76 94  17.089
 18.846  238 237  16.543
 62.585  95 108  28.535
 78.773  79 96  15.346
 22.449  302 301  16.22
 61.362  98 113  29.25
 79.527  84 104  16.065
 18.894  292 291  17.114
 61.62  100 120  31.397
 76.864  84 107  15.493
 19.37  314 313  20.421
 65.126  104 118  32.206
 84.045  87 105  14.871
 20.026  315 314  17.178
 65.292  112 126  33.694
 82.018  90 109  15.791
 19.212  310 309  16.327
 88.925  153 170  37.773
 106.705  131 153  16.494
 21.926  555 554  16.808
 85.239  156 180  36.08
 109.419  136 164  15.571
 21.896  585 584  17.256
 81.634  169 195  50.146
 104.768  141 174  16.231
 21.116  475 474  17.418
 79.955  170 193  41.919
 110.846  141 170  16.171
 21.803  523 522  18.764
 82.337  166 194  43.514
 107.788  143 175  16.334
 21.389  534 533  17.028
 93.747  176 197  37.808
 109.782  146 173  15.227
 22.885  616 615  17.209
 87.522  180 203  43.923
 110.177  149 179  16.358
 21.827  563 562  17.342
 85.338  179 201  46.477
 109.982  152 181  16.082
 21.931  584 583  17.142
 86.849  160 182  45.736
 115.308  137 165  15.569
 22.372  643 642  16.752
 84.864  167 193  41.029
 111.383  140 171  15.746
 22.925  675 674  16.937
 97.932  167 188  41.157
 115.784  145 173  15.438
 24.803  706 705  17.766
 84.097  177 204  45.121
 109.578  150 181  16.161
 22.989  609 608  18.123
 95.672  183 209  46.372
 113.857  155 186  15.811
 23.116  682 681  17.565
 88.13  193 224  49.867
 114.555  165 204  15.93
 23.689  708 707  17.803
 101.848  196 227  46.167
 127.731  165 202  17.036
 27.083  755 754  17.619
 91.561  199 231  45.051
 126.496  173 212  16.101
 24.751  850 849  17.488
 97.491  210 237  52.975
 121.498  177 214  15.953
 25.138  840 839  16.986
 88.397  219 252  52.377
 121.862  180 220  16.427
 24.356  776 775  17.729
 99.093  215 244  54.854
 130.702  187 221  16.559
 28.947  865 864  18.584
 105.269  227 259  53.602
 136.119  193 233  16.191
 23.891  744 743  17.193
 105.158  235 264  66.274
 136.308  202 247  16.617
 25.85  907 906  17.692
 112.785  238 267  46.427
 142.883  200 238  15.962
 28.103  987 986  17.548
 109.072  251 284  56.985
 141.599  205 248  16.346
 28.684  885 884  18.874
 109.592  248 277  55.314
 145.986  212 249  16.274
 27.122  991 990  18.339
 120.639  252 291  69.17
 153.897  216 264  16.14
 28.325  906 905  19.156
 116.882  267 301  58.193
 155.71  220 261  17.136
 27.249  979 978  18.001
 114.814  271 305  60.895
 152.549  225 266  16.334
 25.553  888 887  17.262
 116.332  270 304  60.328
 160.462  231 272  16.277
 26.461  987 986  19.491
 123.711  272 309  64.762
 156.505  242 296  16.391
 28.299  962 961  17.456
 154.517  282 314  65.412
 186.307  242 283  21.27
 27.334  1071 1070  17.483
 117.35  297 335  64.847
 165.721  251 296  16.96
 32.302  1146 1145  17.913
 126.141  298 340  66.236
 172.413  254 305  19.713
 27.509  1039 1038  17.727
 140.282  307 343  58.225
 196.415  255 299  17.303
 28.636  1219 1218  18.046
 123.883  310 355  75.599
 163.196  269 323  16.741
 33.071  1092 1091  22.294
 149.86  313 354  65.671
 181.367  268 315  16.497
 31.087  1303 1302  18.015
 139.37  315 359  67.88
 184.129  274 323  16.244
 29.64  1267 1266  17.203
 140.436  325 366  73.486
 183.554  278 329  17.251
 27.726  1088 1087  17.952
 153.556  328 366  71.434
 205.785  284 329  20.728
 30.78  1291 1290  18.201
 148.54  335 379  67.353
 188.883  289 341  16.45
 30.685  1368 1367  17.727
 147.092  344 391  74.359
 184.464  291 346  17.436
 28.92  1200 1199  18.735
 144.646  347 394  73.38
 194.192  305 359  17.373
 31.533  1399 1398  18.313
 139.448  353 403  81.747
 193.573  311 374  18.679
 31.536  1350 1349  18.511
 161.277  356 397  68.693
 237.595  308 358  17.073
 31.303  1499 1498  17.386
 168.799  373 416  65.92
 213.166  311 364  16.1
 34.09  1636 1635  18.085
 181.281  375 426  74.884
 210.281  320 386  17.39
 31.014  1422 1421  18.037
 158.877  383 430  87.319
 219.266  325 380  17.553
 30.52  1380 1379  18.191
 169.797  380 426  87.256
 236.627  332 389  18.166
 30.747  1429 1428  18.138
 157.587  381 432  78.699
 218.46  333 393  16.663
 32.363  1591 1590  18.855
 165.589  401 454  79.85
 218.878  341 411  17.429
 32.378  1567 1566  18.136
 160.986  392 439  80.528
 210.558  343 400  17.172
 33.03  1588 1587  18.386
 161.587  401 456  95.001
 221.11  353 419  16.948
 32.815  1604 1603  18.174
 178.993  419 467  74.126
 230.189  352 410  16.381
 43.712  1637 1636  18.346
 188.684  414 472  85.42
 252.142  360 424  17.785
 34.996  1716 1715  18.752
 197.117  418 463  81.377
 257.536  366 422  17.366
 34.932  1719 1718  18.293
 181.136  426 477  85.047
 245.465  371 431  17.735
 34.412  1736 1735  17.691
 198.126  440 488  76.802
 265.255  372 428  17.174
 35.877  1925 1924  17.817
 182.763  446 509  88.545
 223.85  385 455  17.072
 34.858  1732 1731  18.43
 195.581  434 488  101.1
 246.769  381 445  16.399
 35.356  1731 1730  18.526
 127.695  325 364  70.923
 173.669  265 316  16.374
 30.01  1374 1373  17.506
 146.079  304 341  66.526
 196.124  268 314  16.159
 29.424  1305 1304  17.419
 138.149  325 371  71.547
 183.281  275 329  16.077
 30.058  1355 1354  17.68
 137.514  316 357  62.388
 182.835  281 330  16.961
 30.484  1353 1352  18.293
 143.405  329 375  70.593
 184.888  288 343  16.753
 29.906  1299 1298  18.723
 148.483  335 385  71.104
 183.82  288 347  17.002
 30.686  1356 1355  18.124
 161.168  341 380  65.9
 204.582  302 354  16.137
 31.08  1475 1474  17.035
 152.022  350 399  76.787
 198.278  301 359  17.023
 33.065  1637 1636  17.995
 142.322  365 414  74.607
 195.043  310 371  17.552
 31.638  1457 1456  18.574
 159.028  365 413  69.176
 201.219  311 367  16.683
 35.338  1572 1571  17.974
 162.611  368 411  74.339
 206.841  314 369  16.654
 31.25  1473 1472  17.743
 156.315  379 431  80.918
 193.753  324 389  17.175
 30.353  1354 1353  18.084
 163.589  371 424  85.672
 217.052  327 390  18.427
 32.608  1533 1532  19.525
 162.752  382 435  75.414
 219.102  330 393  16.777
 34.07  1722 1721  18.282
 162.953  391 448  83.718
 212.751  342 414  16.627
 33.287  1651 1650  18.322
 153.386  396 457  88.217
 212.282  345 413  17.604
 32.797  1574 1573  19.876
 187.113  395 449  91.319
 222.979  343 406  17.075
 34.562  1756 1755  19.758
 175.804  404 452  84.05
 225.221  348 405  16.308
 35.751  1847 1846  17.654
 167.315  425 485  88.142
 227.614  365 441  17.581
 34.539  1676 1675  21.071
 166.703  423 479  85.889
 228.336  365 437  17.133
 33.701  1706 1705  18.359
 183.327  432 490  81.329
 241.328  372 447  17.559
 38.803  1980 1979  18.731
 172.086  435 485  70.169
 258.402  370 429  21.722
 38.886  2075 2074  18.212
 181.423  427 480  86.989
 239.366  375 438  16.968
 36.56  1942 1941  18.686
 199.551  447 493  79.002
 275.677  381 440  17.111
 37.073  2001 2000  18.631
 206.618  444 497  87.265
 281.308  389 463  16.806
 37.495  2069 2068  18.669
 245.209  605 690  126.111
 352.447  528 634  17.88
 45.316  2529 2528  18.773
 258.699  600 679  120.326
 363.795  529 623  17.329
 43.435  2602 2601  19.621
 293.521  607 671  107.698
 385.946  540 623  17.666
 47.239  2952 2951  18.26
 232.495  628 712  125.988
 318.588  555 680  18.162
 43.518  2583 2582  18.856
 258.074  632 717  118.558
 355.872  547 653  18.521
 47.221  2903 2902  19.186
 267.893  637 720  125.573
 367.667  560 664  17.874
 43.976  2705 2704  18.988
 286.604  629 706  129.624
 403.513  554 648  18.121
 43.174  2584 2583  18.862
 273.573  634 703  107.247
 368.319  563 645  17.663
 44.684  2747 2746  18.78
 279.097  650 731  117.264
 369.13  567 665  17.361
 46.337  2790 2789  18.835
 282.387  636 718  117.38
 392.224  568 666  18.159
 62.7  3144 3143  19.426
 288.51  648 723  128.518
 394.543  576 670  19.065
 47.587  2832 2831  19.973
 264.044  672 751  126.79
 367.137  590 702  17.889
 47.757  3078 3077  18.634
 285.484  659 743  126.471
 406.744  598 709  18.171
 45.335  2836 2835  18.346
 277.261  694 794  138.897
 407.75  587 701  17.561
 53.955  2749 2748  18.856
 266.891  692 776  136.941
 381.483  593 696  18.142
 52.768  2994 2993  19.179
 314.664  695 782  133.229
 391.691  613 729  17.865
 50.484  2890 2889  19.198
 311.989  701 784  122.271
 430.623  603 707  17.373
 52.195  3063 3062  20.525
 336.318  700 783  138.077
 441.761  619 724  18.718
 48.597  3126 3125  19.371
 299.697  700 787  154.886
 379.646  618 725  18.818
 53.507  3242 3241  29.024
 309.426  708 793  122.196
 435.41  614 714  17.252
 49.638  3203 3202  20.084
 304.771  712 791  137.58
 424.094  624 721  23.475
 51.143  3450 3449  19
 325.128  718 797  139.214
 442.881  631 731  17.313
 53.023  3115 3114  19.776
 300.345  723 810  131.462
 412.042  638 740  18.344
 50.014  3208 3207  19.162
 328.763  725 803  134.194
 468.551  640 739  17.476
 51.026  3372 3371  29.207
 298.947  740 826  139.574
 412.019  658 764  17.619
 51.388  3402 3401  18.578
 256.258  612 692  128.417
 349.698  521 613  17.034
 45.43  2757 2756  18.452
 268.025  602 685  120.884
 370.501  537 638  17.467
 45.031  2778 2777  20.778
 256.024  621 705  124.858
 353.863  542 645  18.395
 52.464  3049 3048  22.191
 272.381  615 700  123.888
 370.821  549 657  18.243
 53.83  2956 2955  19.253
 266.41  631 713  112.569
 360.876  553 656  17.493
 53.735  3220 3219  18.961
 271.334  625 706  135.098
 372.87  553 656  19.783
 45.714  2696 2695  19.307
 281.379  634 719  138.414
 360.661  565 670  18.028
 52.091  3066 3065  18.892
 252.166  634 715  115.234
 344.362  566 668  18.653
 49.895  3312 3311  18.99
 286.527  656 739  114.202
 385.713  569 673  17.449
 47.554  3129 3128  18.77
 263.464  661 747  123.02
 344.194  567 666  17.513
 49.529  3326 3325  18.837
 260.595  657 744  116.706
 352.421  573 674  17.919
 49.709  3358 3357  18.489
 293.967  658 748  130.134
 398.234  589 695  18.294
 52.147  3543 3542  19.861
 300.593  674 762  132.39
 388.244  582 681  17.827
 50.148  3039 3038  19.59
 265.202  670 758  136.1
 374.08  596 698  18.232
 46.986  2939 2938  18.753
 276.662  682 759  119.711
 381.471  605 703  17.483
 61.821  3552 3551  20.79
 290.313  683 759  117.536
 398.854  596 687  17.245
 54.97  3544 3543  19.468
 305.026  699 791  130.789
 394.035  612 724  17.699
 51.156  3410 3409  21.379
 295.586  713 799  139.572
 394  625 731  18.524
 53.828  3577 3576  18.984
 272.663  718 813  134.174
 366.893  618 732  17.582
 51.361  3431 3430  19.148
 304.598  712 796  133.658
 398.606  632 740  17.645
 54.102  3759 3758  18.41
 330.611  718 792  110.652
 433.48  630 722  17.511
 57.211  4007 4006  18.411
 292.542  720 813  149.302
 392.622  632 750  18.01
 52.274  3483 3482  18.943
 320.926  726 821  136.973
 403.538  641 757  17.842
 54.592  3735 3734  19.255
 309.348  732 821  123.796
 422.593  639 745  17.183
 56.733  4000 3999  18.696
 306.469  763 856  137.682
 432.684  647 761  18.377
 54.458  3467 3466  19.218
 517.473  1198 1348  221.29
 752.058  1035 1198  18.472
 79.296  5697 5696  19.751
 532.454  1190 1339  229.037
 742.07  1043 1220  18.16
 84.939  6296 6295  20.07
 591.825  1200 1338  215.595
 756.85  1060 1233  18.737
 80.586  6167 6166  19.343
 503.139  1190 1334  221.037
 746.196  1077 1269  18.83
 77.6  5857 5856  19.434
 576.244  1206 1348  236.161
 803.698  1085 1272  19.164
 76.913  5759 5758  19.874
 600.646  1228 1372  227.068
 841.853  1072 1251  18.061
 79.008  5917 5916  19.34
 518.446  1226 1371  227.92
 800.681  1084 1263  19.326
 85.65  6119 6118  21.855
 560.66  1212 1352  217.587
 771.12  1096 1293  19.266
 85.099  6713 6712  19.796
 487.996  1226 1370  228.252
 741.904  1072 1234  17.993
 79.451  6104 6103  19.713
 564.27  1237 1359  232.696
 784.71  1096 1259  18.582
 81.945  6339 6338  20.77
 541.269  1261 1414  240.769
 795.721  1111 1309  18.844
 80.844  6212 6211  19.917
 548.891  1270 1423  224.668
 762.296  1125 1327  19.092
 82.942  6387 6386  19.042
 617.647  1245 1389  243.726
 853.4  1108 1290  19.62
 80.613  6124 6123  20.242
 525.238  1255 1403  233.35
 778.51  1139 1351  20.407
 85.376  6671 6670  19.814
 595.995  1271 1412  232.178
 819.294  1124 1307  18.633
 90.335  6770 6769  20.128
 590.817  1269 1419  256.354
 832.458  1123 1320  18.844
 83.187  6326 6325  19.72
 591.604  1296 1451  240.234
 860.508  1141 1340  18.236
 84.187  6454 6453  19.25
 553.341  1262 1396  245.688
 830.515  1143 1311  18.612
 86.007  6702 6701  19.317
 535.906  1285 1457  243.631
 819.841  1142 1343  19.743
 78.185  5635 5634  19.626
 573.55  1288 1444  254.58
 808.72  1129 1307  18.386
 78.126  5991 5990  19.597
 588.387  1300 1446  281.855
 926.873  1149 1323  18.848
 86.481  6456 6455  19.393
 600.74  1310 1464  230.105
 808.5  1158 1362  19.012
 86.706  6528 6527  22.431
 630.485  1319 1461  211.848
 931.386  1159 1337  18.56
 91.813  7161 7160  25.539
 602.126  1333 1490  262.433
 845.189  1199 1439  23.644
 85.49  6472 6471  19.682
 600.339  1328 1482  240.737
 854.238  1169 1364  18.886
 93.306  7111 7110  20.006
 528.517  1204 1346  220.288
 756.63  1054 1237  18.631
 83.952  6410 6409  19.82
 559.762  1195 1338  234.389
 798.991  1055 1238  19.448
 84.48  6148 6147  20.509
 558.249  1196 1338  234.483
 778.874  1060 1238  18.936
 83.053  6439 6438  20.117
 588.446  1204 1336  231.977
 816.92  1066 1233  17.591
 83.735  6432 6431  19.553
 586.721  1212 1339  212.793
 856.54  1064 1218  18.512
 93.932  7307 7306  20.19
 554.048  1206 1342  238.658
 814.609  1070 1245  19.994
 98.963  6953 6952  20.367
 540.875  1226 1367  220.341
 801.844  1092 1286  18.541
 87  6751 6750  19.248
 543.902  1224 1371  239.738
 808.015  1084 1254  18.302
 92.878  6788 6787  20.335
 546.172  1235 1388  227.35
 779.956  1108 1322  19.45
 83.117  6307 6306  19.925
 550.187  1233 1376  235.694
 770.577  1097 1268  18.615
 91.707  7299 7298  21.949
 522.951  1240 1393  237.394
 776.675  1108 1305  19.037
 91.403  7167 7166  19.816
 555.83  1257 1411  225.654
 842.883  1127 1325  19.026
 86.753  6855 6854  19.19
 608.612  1247 1395  233.393
 868.586  1103 1267  17.874
 91.647  7112 7111  20.602
 583.919  1264 1416  252.633
 823.305  1111 1284  18.138
 96.159  7002 7001  20.812
 579.501  1256 1412  232.568
 792.265  1119 1306  19.106
 97.905  7517 7516  21.766
 584.712  1276 1411  239.775
 833.968  1119 1283  18.831
 106.675  7269 7268  19.176
 602.393  1260 1396  240.155
 862.647  1134 1303  18.841
 95.342  7817 7816  19.085
 547.848  1272 1425  248.106
 799.623  1158 1358  18.777
 88.993  6927 6926  21.984
 548.179  1284 1440  217.078
 763.143  1142 1330  18.555
 98.598  7918 7917  19.331
 557.042  1286 1458  246.224
 781.368  1131 1316  18.679
 92.008  7011 7010  20.136
 607.258  1305 1471  263.92
 865.515  1148 1346  19.442
 94.288  7172 7171  19.532
 626.123  1316 1464  260.967
 911.482  1153 1342  19.192
 89.409  7062 7061  19.699
 586.162  1306 1479  241.263
 866.411  1155 1364  18.34
 91.822  7381 7380  19.634
 655.775  1318 1467  225.462
 934.068  1166 1342  18.919
 98.392  7609 7608  19.556
 600.22  1313 1462  290.505
 841.865  1184 1386  19.125
 95.823  7597 7596  20.123
 1204.34  2360 2622  450.996
 1861.17  2080 2391  19.293
 156.064  12596 12595  20.243
 1213.56  2359 2620  429.442
 1830.1  2119 2473  20.409
 170.568  14212 14211  20.607
 1213.09  2346 2615  455.866
 1828.56  2104 2431  19.843
 160.671  13378 13377  21.623
 1219.35  2372 2652  451.812
 1888.17  2126 2494  20.302
 154.696  12848 12847  20.518
 1165.92  2370 2634  436.192
 1705.01  2109 2424  19.637
 170.669  13359 13358  20.493
 1303.65  2353 2617  434.539
 1894.58  2136 2486  19.993
 170.8  14213 14212  22.947
 1219.3  2361 2614  422.308
 1875.62  2151 2520  20.915
 166.118  14136 14135  20.881
 1265.01  2375 2654  432.99
 1959.8  2184 2587  20.594
 163.527  13292 13291  20.336
 1288.19  2364 2614  430.792
 1854.97  2113 2400  18.436
 168.488  13966 13965  20.674
 1251.38  2350 2617  436.301
 1890.16  2125 2437  18.631
 164.981  14060 14059  20.359
 1145.84  2400 2663  444.257
 1808.43  2151 2481  20.021
 163.063  14149 14148  20.903
 1175  2412 2690  454.297
 1794.71  2167 2543  20.726
 167.384  13762 13761  20.645
 1275.8  2389 2663  446.798
 1893.52  2209 2597  22.266
 161.9  13272 13271  21.473
 1258.41  2437 2706  474.272
 1901.26  2183 2552  20.485
 159.782  13757 13756  20.235
 1168.18  2414 2682  471.366
 1801.45  2164 2490  18.856
 166.482  14279 14278  20.075
 1329.09  2432 2651  416.527
 2024.75  2156 2434  19.29
 172.756  14670 14669  21.461
 1241.02  2440 2706  484.2
 1930.12  2198 2578  19.584
 157.856  13497 13496  20.119
 1246.21  2437 2692  431.801
 1891.55  2217 2576  20.485
 193.482  15653 15652  22.321
 1310.53  2453 2713  449.775
 2030.12  2187 2492  19.158
 176.418  15488 15487  20.119
 1330.28  2444 2721  446.493
 1995.61  2195 2534  21.391
 172.395  14557 14556  24.15
 1265.29  2443 2714  471.499
 2023.49  2231 2629  24.435
 163.224  13945 13944  20.507
 1297.87  2458 2712  475.007
 1940.51  2241 2610  21.607
 176.912  15120 15119  20.861
 1322.14  2459 2737  468.911
 2035.13  2198 2531  20.292
 186.987  14050 14049  20.666
 1277.21  2469 2746  447.095
 1955.82  2228 2588  19.801
 180.375  14293 14292  23.463
 1303.8  2462 2755  480.294
 1980.74  2244 2603  20.42
 153.198  13031 13030  20.424
 1124.21  2348 2643  451.655
 1750.81  2108 2485  19.638
 168.262  13562 13561  22.583
 1209.36  2339 2611  454.193
 1814.78  2129 2503  20.345
 181.798  13998 13997  20.742
 1137.99  2341 2625  471.867
 1717.77  2111 2478  19.437
 158.845  13404 13403  20.755
 1294.46  2339 2601  431.702
 1884.74  2127 2465  20.08
 185.634  15160 15159  20.646
 1231.63  2352 2637  467.655
 1842.48  2132 2497  19.766
 168.329  14223 14222  20.642
 1146.59  2376 2651  460.434
 1780.77  2113 2448  20.723
 163.321  13840 13839  21.18
 1320.28  2394 2653  401.971
 1976.88  2108 2406  18.644
 205.607  16967 16966  20.518
 1331.42  2369 2633  463.643
 1936.36  2135 2476  20.001
 164.202  14128 14127  21.049
 1224.42  2404 2678  447.217
 1908.68  2138 2484  19.692
 176.839  14580 14579  21.566
 1218.99  2385 2653  450.948
 1904.53  2170 2548  20.532
 193.185  15025 15024  22.061
 1297.13  2402 2682  455.524
 1974.9  2147 2502  19.408
 181.772  14774 14773  20.374
 1125.91  2399 2671  458.869
 1845.52  2160 2533  20.542
 180.017  15302 15301  20.473
 1198.66  2401 2696  475.392
 1829.35  2191 2596  21.691
 179.475  14913 14912  20.576
 1218.09  2449 2739  496.957
 1816.44  2175 2547  19.428
 175.021  14452 14451  21.377
 1282.84  2404 2677  459.939
 1902.78  2156 2487  19.947
 181.675  15404 15403  21.013
 1308.79  2414 2696  469.015
 2027.06  2170 2530  20.276
 178.25  14810 14809  20.718
 1276.91  2437 2717  498.363
 1948.89  2208 2570  20.321
 174.811  14871 14870  20.811
 1276.58  2419 2678  468.207
 2064.76  2196 2530  20.423
 182.658  16114 16113  20.675
 1263.71  2467 2742  514.253
 1996.63  2176 2509  20.053
 174.791  14443 14442  23.186
 1323.35  2461 2738  485.439
 2063.7  2184 2518  19.092
 187.777  15217 15216  20.653
 1196.82  2465 2745  496.892
 1928.75  2229 2609  21.786
 171.851  14435 14434  20.582
 1286.57  2475 2747  471.472
 1971.5  2202 2539  19.11
 186.193  16051 16050  20.684
 1219.22  2485 2755  454.125
 1946.62  2218 2554  19.883
 186.527  16146 16145  20.256
 1228.73  2496 2811  494.416
 1918.91  2230 2626  20.449
 184.648  14747 14746  20.44
 1293.11  2480 2776  505.666
 1985.19  2255 2656  20.465
 172.332  14242 14241  20.752
 2956.91  4638 5119  904.853
 5028.49  4180 4764  20.636
 325.413  28683 28682  21.475
 2710.05  4604 5079  876.185
 4465.59  4195 4811  21.232
 345.058  29448 29447  21.984
 2915.67  4678 5168  894.65
 4940.59  4233 4895  21.303
 353.707  30654 30653  22.003
 2822.54  4633 5130  919.064
 4924.79  4193 4813  21.115
 342.447  28808 28807  23.803
 2830.17  4677 5175  947.106
 4796.04  4161 4745  19.721
 307.186  27067 27066  20.993
 2689.55  4662 5159  960.446
 4582.45  4233 4886  20.877
 339.54  28449 28448  21.18
 2817.71  4681 5160  878.508
 4815.26  4228 4841  20.292
 348.48  31149 31148  20.991
 2696.87  4701 5218  950.563
 4881  4237 4900  20.894
 360.674  28347 28346  23.35
 3141.83  4624 5096  895.758
 5120.68  4237 4850  21.366
 353.715  30494 30493  22.208
 2782.84  4670 5141  855.14
 4705.47  4189 4729  20.465
 349.48  30009 30008  21.998
 2756.37  4667 5149  895.293
 4713.82  4234 4836  20.519
 344.005  29741 29740  21.295
 2686.38  4658 5167  920.178
 4543.65  4266 4929  20.917
 349.776  30128 30127  21.279
 2601.81  4710 5247  969.855
 4751.77  4260 4953  21.435
 321.693  26673 26672  23.394
 2861.58  4701 5182  950.442
 4543.75  4243 4848  20.572
 362.698  30757 30756  21.289
 2949  4686 5189  970.91
 4804.11  4249 4853  20.418
 322.824  28191 28190  24.878
 2960.53  4706 5215  889.433
 5123.88  4318 5020  31.801
 348.61  29089 29088  23.053
 2730.14  4732 5239  964.257
 4904.28  4352 5140  21.837
 330.454  28756 28755  21.845
 3053.92  4680 5165  869.469
 5216.38  4274 4891  21.013
 363.762  31062 31061  21.683
 2936.2  4750 5259  915.371
 4879.6  4263 4874  20.823
 371.011  31391 31390  21.199
 3022.69  4726 5185  873.309
 4867.09  4254 4801  20.743
 406.624  33836 33835  25.681
 2807.36  4740 5241  988.039
 4805.65  4307 4982  21.048
 344.363  29200 29199  27.402
 2788.19  4726 5253  950.42
 4824.94  4313 5020  21.043
 339.449  28801 28800  21.538
 2925.18  4754 5255  937.115
 4965.32  4284 4909  20.803
 342.794  29930 29929  21.198
 2810.35  4743 5213  876.178
 4726.79  4283 4855  20.226
 383.314  33234 33233  21.674
 2655.21  4770 5295  963.911
 4573.01  4289 4933  20.734
 326.113  27559 27558  21.687
 2705.97  4643 5173  514.026
 4640.61  4240 4970  20.413
 352.485  30626 30625  21.425
 2894.24  4636 5115  542.527
 4662.73  4195 4785  23.715
 414.539  35135 35134  22.848
 2785.72  4683 5196  512.472
 4747.77  4243 4944  20.428
 353.373  29750 29749  21.817
 2607.54  4647 5150  516.5
 4548.79  4205 4856  20.655
 360.593  31209 31208  21.26
 3001.17  4647 5127  530.601
 5078.82  4249 4914  20.12
 352.571  30597 30596  20.842
 2839.92  4650 5160  517.628
 4771  4216 4871  19.923
 362.765  32193 32192  20.677
 2671.09  4682 5173  495.154
 4673.89  4235 4838  19.728
 406.695  34162 34161  21.126
 2815.12  4647 5134  534.67
 4639.43  4161 4723  20.291
 384.46  32591 32590  20.542
 2855.66  4670 5178  529.214
 4862.17  4242 4910  19.452
 358.859  32339 32338  20.491
 2768.52  4682 5160  502.602
 4757.29  4287 4964  21.059
 359.694  32107 32106  20.716
 2770.46  4705 5228  499.906
 4904.33  4316 5076  20.793
 336.993  30120 30119  20.334
 2478.28  4698 5213  565.156
 4508.88  4275 4973  20.237
 366.208  30738 30737  21.364
 2671.83  4689 5174  532.516
 4870  4286 4963  20.47
 393.163  33740 33739  21.642
 2763.49  4690 5186  526.741
 4741.91  4241 4840  20.233
 363.155  30384 30383  29.898
 2891.04  4711 5197  510.736
 4979.42  4246 4855  19.846
 397.764  34697 34696  20.751
 2868.83  4697 5200  514.479
 4860.46  4257 4892  20.491
 390.25  33007 33006  23.205
 2624.22  4761 5271  546.028
 4639.37  4276 4945  19.588
 343.384  30375 30374  20.423
 2889.3  4778 5299  534.96
 5019.69  4297 4994  19.911
 376.149  31271 31270  20.875
 2716.72  4736 5263  600.029
 4613.98  4315 5046  21.301
 371.774  31710 31709  21.402
 2974.55  4762 5266  531.763
 5186.37  4341 5040  22.519
 381.493  33098 33097  20.598
 2848.39  4760 5290  546.96
 4929.47  4342 5107  21.525
 381.261  33095 33094  21.321
 2966.63  4754 5255  529.898
 5051  4340 5038  21.427
 366.253  32366 32365  20.911
 2709.63  4758 5269  544.722
 4566.98  4278 4889  19.921
 381.574  33353 33352  21.349
 3041.65  4773 5218  508.119
 5107.64  4299 4851  19.815
 427.062  37304 37303  25.079
 2779.77  4785 5293  512.289
 4907.66  4289 4897  20.257
 365.37  32339 32338  20.749
 6054  9179 10145  1090.27
 12072.5  8531 10010  23.559
 702.285  62090 62089  21.586
 6614.5  9175 10061  997.13
 13311.2  8461 9770  22.714
 723.209  63754 63753  22.373
 6270.35  9209 10125  1015.91
 12611.5  8387 9621  21.171
 770.456  66793 66792  21.966
 6355  9175 10090  1073.39
 12736.9  8360 9530  20.599
 778.372  66543 66542  23.901
 6420.7  9230 10131  1046.79
 13183.1  8502 9841  22.42
 778.435  65719 65718  21.472
 6522.2  9166 10043  1045.91
 12655.9  8483 9741  21.648
 788.232  65756 65755  21.609
 6436.39  9259 10213  1115.52
 12848.7  8480 9817  24.51
 750.234  64273 64272  22.054
 6832.3  9183 10076  1024.54
 12958.2  8455 9660  21.211
 817.744  67729 67728  30.398
 6010.61  9263 10220  1063.12
 12539  8513 9964  22.745
 687.515  55466 55465  22.752
 6406.41  9222 10127  1023.64
 12850.3  8405 9570  21.247
 777.932  65438 65437  22.041
 5981.55  9230 10172  1059.58
 12604.7  8526 9884  21.836
 722.438  62045 62044  21.536
 6457.96  9272 10157  1057.3
 12499.7  8440 9614  21.539
 793.977  69267 69266  22.872
 5990.48  9277 10247  1103.35
 12539.1  8517 9867  23.25
 735.619  62774 62773  22.971
 6828.22  9274 10242  1072.33
 13593.4  8499 9869  22.262
 691.503  61246 61245  22.901
 6134.85  9296 10191  1048.63
 12512.2  8404 9549  21.296
 741.102  65592 65591  21.618
 6128.48  9311 10229  1060.36
 12913.3  8576 9979  23.196
 769.716  65018 65017  23.297
 6383.16  9295 10230  1084.71
 13298.5  8463 9682  21.88
 776.036  64017 64016  21.993
 6877.99  9287 10174  1033.58
 13288.3  8557 9852  23.73
 831.02  71275 71274  21.779
 6189.35  9262 10218  1075.32
 12469.9  8529 9870  26.779
 716.028  63426 63425  22.575
 6782.49  9287 10223  1075.98
 13308.3  8514 9800  22.509
 748.617  64280 64279  22.547
 6496.93  9292 10247  1078.38
 13131.3  8457 9670  22.918
 756.327  61746 61745  23.377
 7024.29  9282 10201  1031.02
 13495.5  8510 9759  21.341
 753.692  66131 66130  22.563
 6405.25  9285 10231  1060.67
 12516.9  8439 9609  20.371
 769.747  65310 65309  24.23
 6151.92  9381 10338  1049.62
 13483.4  8517 9774  20.98
 754.646  66049 66048  22.31
 6526.76  9326 10248  1025.48
 13134.1  8512 9775  21.949
 744.329  66031 66030  21.731
 6338.39  9180 10090  1051.48
 12780.7  8303 9367  22.259
 765.032  67928 67927  21.758
 6315.82  9216 10190  1099.11
 11665.4  8438 9726  21.317
 768.311  68499 68498  23.93
 6225.9  9165 10135  1065.49
 12533.9  8465 9858  22.382
 779.411  65901 65900  23.256
 6140.62  9194 10182  1101.7
 12973.3  8522 9999  23.815
 798.36  64532 64531  21.253
 6652.84  9256 10249  1046.93
 13817.8  8476 9909  22.722
 726.962  59659 59658  23.397
 6560.43  9252 10157  1062.11
 13371.6  8429 9637  21.385
 783.757  67721 67720  21.45
 6248.73  9242 10154  1053.41
 12257.6  8433 9650  22.296
 844.166  72472 72471  21.94
 6521.41  9233 10163  1015.55
 12672.2  8428 9612  21.589
 802.288  66568 66567  21.784
 5965.08  9231 10210  1094.4
 13004.9  8536 10016  30.131
 736.469  62048 62047  21.772
 6339.43  9268 10234  1134.39
 12605  8532 9925  23.153
 790.223  69791 69790  23.443
 6624.24  9224 10117  1045.73
 12573.6  8466 9703  21.872
 863.712  74461 74460  23.418
 6417.19  9297 10232  1100.62
 12994.6  8552 9921  22.47
 810.621  70287 70286  22.767
 6205.76  9257 10213  1110.35
 13096.7  8475 9752  22.627
 807.952  70088 70087  21.911
 6543.15  9319 10288  1102.45
 13167.7  8517 9861  21.102
 816.975  68180 68179  21.738
 6129.03  9300 10230  1089.89
 12724.1  8521 9865  22.314
 848.267  73800 73799  22.025
 6560.55  9272 10197  1077.98
 13356  8496 9765  22.355
 851.079  71724 71723  22.899
 7068.47  9268 10160  1033.64
 13595.5  8407 9514  22.126
 915.568  73444 73443  22.232
 6693.87  9287 10219  1109.73
 13593  8583 10008  23.281
 858.845  75486 75485  22.855
 6814.04  9245 10169  1069.72
 12986.3  8422 9534  20.758
 800.879  67819 67818  21.895
 6355.92  9296 10238  1092.35
 13300.4  8474 9725  21.031
 822.28  67177 67176  22.704
 6178.65  9267 10208  1042.64
 13202.1  8510 9777  21.452
 773.361  66445 66444  21.905
 6454.9  9317 10249  1028.46
 13180.4  8517 9729  21.959
 857.747  72281 72280  22.91
 6600.16  9284 10216  1124.11
 12967.8  8555 9877  21.194
 880.883  74844 74843  21.719
 6680.59  9339 10306  1064.75
 13811.3  8635 10084  23.454
 710.1  61579 61578  22.127
 6448.37  9334 10215  1038.04
 12937.7  8563 9819  23.601
 958.172  77907 77906  21.649
 15810.8  18209 19867  2245.31
 42866.7  16898 19349  23.103
 1769.66  151416 151415  22.387
 15400.3  18228 19944  2214.76
 44427.5  16881 19447  29.216
 1667.81  140447 140446  22.777
 15537  18192 19895  2267.72
 42422.5  16825 19202  23.395
 1643.7  136757 136756  22.811
 14532.6  18258 20033  2219.64
 40548  16938 19589  23.85
 1640.07  136632 136631  22.701
 15418.5  18232 19916  2275.39
 44540.7  16670 18781  30.949
 1860.98  150563 150562  30.958
 15039.4  18305 19995  2247.55
 43403.5  16805 19149  23.658
 1688.04  141115 141114  25.479
 14037.2  18242 19997  2366.68
 43855.5  16908 19419  22.667
 1631.85  138804 138803  26.284
 15802.9  18187 19806  2062.84
 41545.9  16916 19329  23.755
 1792.21  153935 153934  22.795
 15508.1  18344 20163  2309.7
 43134.6  16956 19588  23.623
 1455.93  122252 122251  23.213
 14587.3  18357 20223  2416.55
 43851.5  16811 19172  22.725
 1525.13  124479 124478  22.562
 14819.2  18267 19918  2153.62
 40478  16921 19345  23.439
 1779.17  148604 148603  23.004
 15221.8  18278 19892  2222.03
 44702.1  16847 19046  22.59
 1743.96  148914 148913  22.19
 14790  18290 19969  2161.96
 38558.6  16944 19465  23.431
 1715.56  146906 146905  22.515
 14899.5  18299 20038  2162.94
 40661.2  16947 19464  24.578
 1751.62  145103 145102  24.771
 15322.8  18288 19945  2248.62
 41498  16765 18918  25.405
 1770.23  147123 147122  22.86
 15287.2  18423 20189  2202.51
 43745.6  16865 19243  22.199
 1610.97  138030 138029  22.556
 15818.9  18288 19978  2123.26
 38702.9  16869 19246  22.904
 1682.93  142220 142219  22.405
 14219.9  18283 19947  2204.58
 39810.5  16949 19336  26.455
 1830.07  151073 151072  23.076
 16337.8  18363 20058  2441.92
 49947.8  16853 19134  30.238
 1817.12  147869 147868  23.601
 14572.1  18337 20149  2358.22
 46885.5  16857 19234  22.083
 1664.8  135271 135270  23.149
 15166.8  18410 20157  2184.53
 41664.9  16959 19433  25.673
 1668.95  139621 139620  23.262
 14021.5  18339 20076  2254.25
 42272.8  16962 19409  22.933
 1721.59  145354 145353  24.706
 14704.9  18395 20200  2202.23
 42672.4  16961 19473  23.343
 1572.89  134562 134561  23.671
 14498.1  18315 19958  2157.84
 43796.2  17036 19449  27.89
 1802.57  152539 152538  25.521
 13742.5  18414 20209  2162.76
 40640.2  16933 19419  22.331
 1528.83  129311 129310  22.668
 14075.8  18267 20108  2273.59
 41804.4  16946 19741  24.214
 1611.3  134347 134346  23.274
 15077  18195 19940  2250.8
 42798.2  16865 19320  23.323
 1723.55  143578 143577  22.367
 15156.5  18294 20034  2326.23
 42250.1  17049 19816  24.907
 1772.28  149338 149337  22.707
 14849  18258 20036  2371.22
 41782.8  16994 19601  23.868
 1847.82  153867 153866  23.395
 15107.7  18271 19915  2112.84
 41146.4  16848 19104  22.713
 1947.19  162813 162812  23.274
 14677.4  18277 20023  2195.4
 40655  16945 19565  23.405
 1802.01  148614 148613  23.11
 15445.1  18303 20054  2166.64
 41394.7  16972 19597  24.286
 1686.81  142358 142357  22.771
 14737.5  18317 20080  2220.93
 41032.6  16834 19293  23.546
 1856.37  155511 155510  23.3
 15337.9  18270 20002  2334.88
 42092.3  16928 19484  24.051
 1744.36  146571 146570  22.466
 15608.1  18249 19942  2118.97
 44036.5  16776 18996  22.297
 1955.28  157170 157169  23.15
 14682.8  18345 20166  2269.22
 41299.2  17020 19730  22.677
 1798.74  148139 148138  23.247
 14744.1  18225 19894  2174.52
 39389.5  16890 19295  23.978
 1921.78  159152 159151  23.76
 13867  18334 20153  2288.78
 43640  16906 19450  23.303
 1723.2  142556 142555  23.986
 15571.1  18281 19979  2158.64
 41167.8  16822 19061  22.571
 1980.48  160856 160855  22.723
 14237.5  18273 20031  2210.97
 40378.2  16933 19412  23.968
 1840.28  154701 154700  23.331
 15221.8  18356 20216  2315.92
 42875.2  16991 19741  24.146
 1691.51  137658 137657  23.174
 14915.6  18297 20050  2277.54
 41219.8  16929 19416  23.493
 1775.6  149785 149784  22.945
 15706.1  18268 19847  2055.05
 44853.3  16897 19203  23.576
 2028.86  164685 164684  22.506
 14098.7  18371 20134  2176.08
 42306.1  16895 19236  22.16
 1698.38  143314 143313  23.632
 14283.5  18351 20109  2196.59
 39932.2  17051 19688  23.702
 1799.13  152827 152826  23.688
 15031.3  18390 20199  2286.65
 42587.4  16995 19636  29.265
 1771.88  149425 149424  26.771
 14055.3  18420 20266  2225.1
 42431.2  17042 19745  24.085
 1728.88  140586 140585  24.031
 15500.6  18355 20119  2306.43
 43595.6  16889 19287  22.721
 1889.18  157414 157413  23.256
 15452.4  18405 20203  2199.53
 42108.5  17091 19846  23.242
 1685.93  142775 142774  23.63
 13612.4  18420 20275  2370.61
 40076.1  16977 19647  23.655
 1615.88  138900 138899  22.826
 34263.6  36155 39263  4601.24
 3993.19  324871 324870  24.052
 33199.5  36229 39530  5437.34
 169571  33729 38523  26.416
 3880.32  312428 312427  23.774
 35179.3  36324 39644  4878.17
 181394  33815 38790  24.661
 3582.54  295960 295959  24.665
 35088.2  36254 39515  4976.6
 176508  33653 38380  25.865
 3808.33  305875 305874  24.125
 33767.6  36374 39552  4624.1
 177586  33621 38114  24.086
 3940.79  316911 316910  23.978
 33890.7  36346 39644  4847.9
 179526  33672 38355  25.157
 3782.07  309012 309011  24.359
 33667  36347 39641  5189.87
 182139  33413 37688  25.275
 3714.37  302185 302184  24.015
 36524.7  36351 39592  5392.07
 181674  33672 38326  25.572
 3809.58  310405 310404  24.615
 35510.6  36264 39363  4778.2
 178301  33788 38399  26.806
 3939.81  319186 319185  23.623
 34373.3  36246 39465  4943.29
 172010  33759 38523  24.217
 3839.46  313166 313165  23.2
 34047.1  36301 39518  5101.52
 174153  33795 38729  26.131
 3914.04  316119 316118  23.572
 34510.1  36404 39562  4646.85
 175790  33636 38033  23.647
 4100.2  332608 332607  24.56
 35308.2  36335 39507  4603.44
 176382  33770 38547  24.683
 4120.95  331545 331544  24.562
 34813.4  36412 39796  4896.23
 176888  34077 39497  26.205
 3333.61  271513 271512  24.64
 33251.8  36395 39778  5326.42
 176742  33902 39091  26.454
 3619.95  297565 297564  24.061
 35650.1  36227 39470  5255.83
 180174  33681 38332  24.051
 3674.6  303751 303750  23.653
 33967.2  36353 39682  4855.94
 175586  34050 39230  25.904
 3573.85  298378 298377  30.849
 33283.2  36442 39829  4902.82
 176846  34077 39527  25.502
 3413.21  285265 285264  28.15
 33631.4  36326 39642  5151.71
 3644.2  294784 294783  24.159
 33898.2  36331 39587  4871.6
 174632  33998 39171  26.739
 3715.26  303991 303990  24.525
 32968.2  36456 39794  5242.49
 173026  33970 39021  25.33
 3925.07  313283 313282  23.753
 35506.1  36368 39577  4789.74
 172908  33868 38755  25.378
 3621.06  299628 299627  24.483
 32508.6  36317 39572  5350.73
 168428  33946 38986  25.245
 3892.85  316261 316260  25.806
 36259  36317 39331  4450.52
 172781  33705 37978  24.177
 4139.85  331017 331016  24.69
 35749.5  36428 39670  5092.84
 179866  33963 38958  27.248
 3764.36  310073 310072  24.071
 36289.8  36310 39662  5042.04
 182713  33639 38290  24.386
 3942.93  315526 315525  24.323
 34134.1  36242 39374  4802
 174484  33467 37718  23.809
 4264.44  342647 342646  24.519
 35773.6  36327 39660  5115.59
 178722  33526 38067  24.145
 3947.05  317370 317369  26.176
 33981.3  36345 39810  5064.53
 174707  33781 38793  24.843
 3724.91  298247 298246  25.574
 35294  36285 39602  5298.65
 177357  33751 38613  25.991
 4127.62  324290 324289  23.884
 33721.6  36345 39734  5150.83
 168801  33554 38078  23.8
 3987.27  314989 314988  23.661
 32334.2  36392 39837  5156.06
 181876  33522 38092  28.269
 3750.76  308828 308827  23.867
 33734.6  36194 39432  4957.53
 170132  33772 38521  25.442
 4128.32  333098 333097  24.218
 34601.6  36279 39417  4934.1
 176071  33907 38811  26.567
 4225.24  343979 343978  23.701
 33581.9  36216 39335  4732.69
 174201  33553 37937  24.117
 4347.25  348897 348896  24.269
 33840.7  36327 39619  4812.64
 170149  33616 38140  24.452
 4070.16  330340 330339  26.841
 29394.1  36478 39955  4730.85
 172317  33915 39024  24.657
 3847.42  311974 311973  23.893
 34880.8  36325 39534  4988.51
 176295  33649 38247  25.045
 4318.78  346125 346124  24.898
 33003.3  36414 39735  5143.14
 172372  34103 39396  27.495
 4065.53  327748 327747  27.081
 34019.3  36382 39777  4988.01
 176400  33598 38210  25.059
 4029.2  319974 319973  24.004
 37590.6  36356 39550  5257.21
 175410  33587 37937  24.489
 4298.76  338833 338832  23.851
 35305.8  36305 39405  4601.97
 172875  33805 38387  25.46
 4385.82  356985 356984  24.103
 32256  36231 39484  4957.32
 169770  33716 38330  24.314
 3956.71  315066 315065  23.589
 29040.9  36463 39861  5027.82
 168426  33707 38478  24.26
 3639.47  300410 300409  31.323
 32411.6  36444 39778  5058.65
 171638  33886 38891  26.079
 4087.82  330178 330177  23.967
 35548  36355 39545  4955.08
 179851  34026 39089  25.165
 4088.2  333112 333111  23.628
 34083.3  36390 39711  5090.7
 173301  33804 38509  23.698
 3962.34  319534 319533  23.659
 33651  36409 39900  5081.88
 175934  34003 39266  25.464
 3712.88  307083 307082  24.375
 34141.3  36448 39694  4915.35
 175324  33549 37847  23.583
 4034.57  324503 324502  24.884
 34480.6  36361 39559  4743.46
 172092  33726 38369  25.631
 4282.36  342692 342691  25.406
 80157.5  72113 78329  12298.7
 8468.16  667604 667603  25.253
 74793.8  72116 78160  12093.5
 8654.04  688055 688054  25.576
 76945.8  72038 78150  11849.8
 8214.1  656801 656800  25.267
 79323.2  72161 77932  11810.4
 9095.99  719868 719867  24.92
 79497.8  72145 78207  11845.7
 8744.15  692275 692274  28.075
 77452.5  72168 78282  11701.7
 8295.37  654152 654151  26.135
 77511.7  72097 78168  11877.2
 8400.93  668942 668941  25.475
 75631.4  72331 78698  12435.1
 7905.91  626880 626879  25.125
 82123.5  72039 77948  11323.3
 9035.4  692198 692197  25.941
 78148.6  72190 78503  14836.4
 8406.78  661751 661750  27.48
 77839.3  72213 78334  12119.8
 8602.17  671269 671268  28.58
 78734.1  72019 77996  12410.9
 8573.16  689622 689621  25.287
 80072.6  72103 78189  11567
 8425.49  666611 666610  25.655
 76280.5  72184 78628  11674.7
 7424.9  595272 595271  27.047
 80548.9  72310 78305  11439.2
 9200.42  695154 695153  27.13
 76622.6  72158 78498  12565.1
 7916.8  625027 625026  30.313
 77418.8  71989 78054  12031.2
 8810.78  689703 689702  25.466
 79405.1  72188 78249  12146.9
 8770.69  693837 693836  26.068
 88301  72094 77931  11821.3
 9172.62  707334 707333  25.391
 82381.2  72308 78615  12459.6
 8362.63  650263 650262  27.82
 79512.9  72127 78036  12486
 9047.72  713144 713143  25.68
 75129.3  72228 78270  12462.6
 8611.62  687807 687806  25.623
 76820.9  72177 78415  12179.9
 8260.12  652145 652144  25.462
 74821.8  72236 78462  12349.2
 7903.3  625176 625175  25.584
 80419.4  72212 78528  12131.9
 8469.26  658557 658556  26.179
