 0.017  4 3  1.136
 0.019  5 4  1.147
 0.013  6 5  0.785
 0.024  7 6  1.443
 0.023  9 8  1.367
 0.013  8 7  0.81
 0.016  8 7  0.796
 0.024  9 8  1.257
 0.029  11 10  1.439
 0.019  13 12  0.798
 0.021  14 13  0.965
 0.026  11 10  1.21
 0.037  17 16  1.574
 0.036  17 16  1.279
 0.054  22 21  1.272
 0.047  25 24  1.649
 0.032  33 32  0.916
 0.044  22 21  1.508
 0.046  31 30  1.349
 0.045  32 31  1.455
 0.047  34 33  1.503
 0.037  38 37  0.87
 0.059  43 42  1.49
 0.081  44 43  1.369
 0.059  45 44  1.36
 0.074  46 45  1.467
 0.063  46 45  1.3
 0.077  58 57  1.545
 0.049  54 53  0.952
 0.047  55 54  0.954
 0.092  61 60  1.371
 0.11  70 69  1.525
 0.12  96 95  1.596
 0.111  88 87  1.597
 0.186  107 106  1.896
 0.074  88 87  1
 0.076  99 98  0.921
 0.079  101 100  0.983
 0.127  102 101  1.034
 0.155  133 132  1.522
 0.115  146 145  1.024
 0.116  149 148  1.08
 0.231  163 162  1.497
 0.228  164 163  1.815
 0.129  168 167  1.128
 0.255  191 190  1.653
 0.155  197 196  1.475
 0.194  234 233  1.067
 0.167  210 209  1.124
 0.17  218 217  1.114
 0.184  236 235  1.139
 0.203  266 265  1.064
 0.202  253 252  1.106
 0.231  313 312  1.035
 0.236  313 312  1.074
 0.223  265 264  1.136
 0.189  238 237  1.133
 0.223  302 301  1.069
 0.241  292 291  1.185
 0.247  314 313  1.214
 0.233  315 314  1.062
 0.238  310 309  1.096
 0.419  555 554  1.223
 0.473  585 584  1.147
 0.363  475 474  1.23
 0.392  523 522  1.225
 0.426  534 533  1.186
 0.609  616 615  1.539
 0.422  563 562  1.188
 0.492  584 583  1.177
 0.491  643 642  1.129
 0.494  675 674  1.204
 0.523  706 705  1.184
 0.473  609 608  1.249
 0.515  682 681  1.217
 0.565  708 707  1.216
 0.562  755 754  1.212
 0.665  850 849  1.282
 0.637  840 839  1.182
 0.587  776 775  1.223
 0.687  865 864  1.248
 0.576  744 743  1.223
 1.007  907 906  1.23
 0.739  987 986  1.219
 0.68  885 884  1.259
 0.777  991 990  1.264
 0.692  906 905  1.249
 0.91  979 978  1.321
 0.701  888 887  1.208
 0.753  987 986  1.225
 0.734  962 961  1.255
 0.842  1071 1070  1.187
 0.873  1146 1145  1.214
 1.774  1039 1038  2.75
 0.931  1219 1218  1.245
 0.843  1092 1091  1.296
 0.991  1303 1302  1.283
 0.965  1267 1266  1.222
 0.88  1088 1087  1.233
 1.072  1291 1290  1.216
 1.103  1368 1367  1.216
 0.927  1200 1199  1.337
 1.121  1399 1398  1.368
 1.07  1350 1349  1.321
 1.155  1499 1498  1.227
 1.319  1636 1635  1.254
 1.1  1422 1421  1.3
 1.064  1380 1379  1.346
 1.1  1429 1428  1.285
 1.242  1591 1590  1.268
 1.263  1567 1566  1.387
 1.223  1588 1587  1.319
 1.247  1604 1603  1.296
 1.329  1637 1636  1.237
 1.331  1716 1715  1.329
 1.326  1719 1718  1.284
 1.481  1736 1735  1.267
 1.535  1925 1924  1.281
 1.508  1732 1731  1.381
 1.429  1731 1730  1.314
 1.077  1374 1373  1.247
 0.995  1305 1304  1.181
 1.07  1355 1354  1.236
 1.063  1353 1352  1.255
 1.063  1299 1298  1.233
 1.093  1356 1355  1.333
 1.159  1475 1474  1.195
 1.271  1637 1636  1.286
 1.124  1457 1456  1.305
 1.246  1572 1571  1.218
 1.135  1473 1472  1.344
 1.076  1354 1353  1.284
 1.193  1533 1532  1.328
 1.349  1722 1721  1.299
 1.319  1651 1650  1.302
 1.287  1574 1573  1.368
 1.468  1756 1755  1.302
 1.53  1847 1846  1.243
 1.358  1676 1675  1.337
 1.368  1706 1705  1.314
 1.541  1980 1979  1.33
 1.671  2075 2074  1.236
 1.577  1942 1941  1.348
 1.619  2001 2000  1.237
 1.629  2069 2068  1.34
 2.143  2529 2528  1.416
 2.143  2602 2601  1.366
 2.391  2952 2951  1.394
 2.099  2583 2582  1.399
 2.408  2903 2902  1.44
 2.23  2705 2704  1.404
 2.158  2584 2583  1.349
 2.734  2747 2746  1.379
 2.393  2790 2789  1.377
 2.53  3144 3143  1.41
 2.384  2832 2831  1.374
 2.489  3078 3077  1.395
 2.308  2836 2835  1.396
 2.692  2749 2748  1.697
 2.531  2994 2993  1.479
 2.468  2890 2889  1.384
 2.604  3063 3062  1.367
 2.712  3126 3125  1.339
 2.73  3242 3241  1.381
 2.658  3203 3202  1.362
 2.893  3450 3449  1.385
 2.77  3115 3114  1.386
 2.719  3208 3207  1.304
 2.88  3372 3371  1.449
 3.157  3402 3401  1.445
 2.327  2757 2756  1.401
 2.352  2778 2777  1.332
 2.534  3049 3048  1.391
 2.432  2956 2955  1.371
 2.77  3220 3219  1.328
 2.214  2696 2695  1.449
 2.588  3066 3065  1.355
 2.748  3312 3311  1.376
 2.856  3129 3128  1.663
 2.864  3326 3325  1.399
 2.797  3358 3357  1.375
 2.936  3543 3542  1.39
 2.647  3039 3038  1.578
 2.554  2939 2938  1.392
 2.989  3552 3551  1.39
 3.073  3544 3543  1.348
 2.837  3410 3409  1.424
 2.975  3577 3576  1.355
 2.916  3431 3430  1.453
 3.234  3759 3758  1.329
 3.512  4007 4006  1.339
 2.92  3483 3482  1.408
 3.208  3735 3734  1.398
 3.596  4000 3999  1.391
 3.229  3467 3466  1.416
 5.122  5697 5696  1.498
 5.68  6296 6295  1.506
 5.482  6167 6166  1.463
 5.116  5857 5856  1.484
 5.064  5759 5758  1.563
 5.239  5917 5916  1.467
 5.247  6119 6118  1.429
 5.852  6713 6712  1.514
 5.744  6104 6103  1.617
 5.634  6339 6338  1.436
 5.371  6212 6211  1.511
 5.774  6387 6386  1.544
 5.561  6124 6123  1.618
 5.702  6671 6670  1.475
 6.08  6770 6769  1.475
 5.598  6326 6325  1.475
 5.877  6454 6453  1.471
 10.507  6702 6701  2.311
 5.133  5635 5634  1.57
 5.148  5991 5990  1.553
 5.777  6456 6455  1.476
 5.649  6528 6527  1.5
 6.281  7161 7160  1.445
 6.299  6472 6471  1.592
 6.45  7111 7110  2.009
 5.782  6410 6409  1.5
 5.436  6148 6147  1.535
 5.597  6439 6438  1.582
 5.644  6432 6431  1.454
 6.81  7307 7306  1.663
 5.996  6953 6952  1.488
 5.899  6751 6750  1.484
 6.029  6788 6787  1.528
 5.893  6307 6306  1.529
 6.843  7299 7298  1.466
 6.28  7167 7166  1.565
 6.082  6855 6854  1.537
 6.237  7112 7111  1.515
 6.166  7002 7001  1.541
 6.748  7517 7516  1.476
 6.516  7269 7268  1.404
 6.906  7817 7816  1.429
 6.226  6927 6926  1.536
 7.1  7918 7917  1.863
 6.515  7011 7010  1.641
 6.344  7172 7171  1.49
 6.796  7062 7061  1.725
 6.378  7381 7380  1.511
 6.785  7609 7608  1.501
 7.085  7597 7596  1.591
 11.563  12596 12595  1.608
 13.017  14212 14211  1.636
 18.168  13378 13377  2.191
 11.939  12848 12847  1.579
 12.493  13359 13358  1.654
 13.438  14213 14212  1.623
 13.495  14136 14135  1.636
 12.806  13292 13291  1.636
 13.16  13966 13965  1.633
 13.167  14060 14059  1.589
 13.529  14149 14148  1.79
 12.866  13762 13761  1.729
 12.719  13272 13271  1.658
 14.317  13757 13756  1.706
 18.935  14279 14278  1.621
 13.72  14670 14669  1.57
 12.772  13497 13496  1.681
 14.892  15653 15652  1.632
 14.72  15488 15487  1.664
 14.002  14557 14556  1.64
 13.229  13945 13944  1.656
 14.206  15120 15119  1.612
 13.128  14050 14049  1.689
 13.114  14293 14292  1.573
 12.197  13031 13030  1.618
 12.675  13562 13561  1.722
 12.817  13998 13997  1.605
 12.391  13404 13403  1.636
 14.718  15160 15159  1.727
 13.239  14223 14222  1.661
 13.096  13840 13839  1.714
 16.075  16967 16966  1.547
 13.129  14128 14127  1.593
 13.683  14580 14579  1.634
 15.016  15025 15024  1.666
 14.239  14774 14773  1.657
 14.437  15302 15301  1.615
 14.16  14913 14912  1.627
 13.388  14452 14451  1.664
 14.259  15404 15403  1.628
 14.205  14810 14809  1.618
 13.834  14871 14870  1.617
 15.43  16114 16113  1.669
 13.707  14443 14442  1.769
 14.203  15217 15216  1.679
 13.306  14435 14434  1.661
 15.52  16051 16050  1.692
 15.304  16146 16145  1.629
 14.06  14747 14746  1.695
 13.104  14242 14241  1.593
 28.477  28683 28682  1.823
 30.948  29448 29447  1.903
 32.113  30654 30653  1.866
 29.874  28808 28807  2.737
 26.703  27067 27066  1.85
 27.837  28449 28448  1.779
 32.803  31149 31148  1.858
 28.91  28347 28346  1.804
 29.788  30494 30493  1.802
 35.344  30009 30008  1.828
 29.526  29741 29740  1.845
 30.021  30128 30127  1.848
 25.998  26673 26672  1.786
 30.226  30757 30756  1.839
 27.515  28191 28190  1.843
 29.031  29089 29088  1.942
 29.833  28756 28755  1.898
 30.544  31062 31061  1.848
 31.568  31391 31390  1.759
 35.393  33836 33835  1.845
 28.792  29200 29199  1.876
 28.728  28801 28800  1.863
 29.208  29930 29929  1.788
 33.587  33234 33233  1.837
 27.249  27559 27558  1.853
 30.876  30626 30625  1.796
 34.951  35135 35134  1.845
 30.883  29750 29749  1.779
 30.58  31209 31208  1.72
 30.02  30597 30596  1.751
 31.89  32193 32192  1.802
 33.607  34162 34161  1.656
 32.255  32591 32590  1.749
 31.734  32339 32338  1.701
 32.476  32107 32106  1.785
 30.397  30120 30119  1.702
 30.742  30738 30737  1.801
 33.003  33740 33739  1.769
 30.064  30384 30383  1.774
 35.445  34697 34696  1.805
 33.005  33007 33006  1.818
 30.922  30375 30374  2.268
 30.954  31271 31270  1.746
 32.329  31710 31709  1.818
 32.372  33098 33097  1.715
 33.952  33095 33094  1.913
 32.644  32366 32365  1.833
 33.983  33353 33352  1.756
 37.403  37304 37303  1.74
 33.818  32339 32338  1.88
 64.037  62090 62089  2.084
 66.51  63754 63753  2.022
 75.306  66793 66792  1.904
 68.805  66543 66542  1.957
 68.4  65719 65718  1.947
 69.11  65756 65755  1.969
 69.155  64273 64272  1.969
 75.997  67729 67728  2.016
 56.554  55466 55465  1.975
 66.862  65438 65437  1.996
 64.264  62045 62044  1.967
 70.973  69267 69266  1.965
 66.803  62774 62773  2.012
 64.01  61246 61245  1.951
 70.518  65592 65591  2.03
 67.276  65018 65017  2.254
 65.181  64017 64016  1.96
 74.748  71275 71274  1.98
 65.663  63426 63425  2.051
 67.279  64280 64279  2.484
 63.01  61746 61745  1.962
 68.862  66131 66130  1.955
 76.395  65310 65309  2.025
 69.806  66049 66048  2.129
 68.58  66031 66030  1.972
 71.491  67928 67927  1.966
 71.058  68499 68498  2.028
 67.25  65901 65900  2.05
 65.633  64532 64531  1.932
 62.907  59659 59658  2.042
 70.914  67721 67720  1.934
 77.39  72472 72471  1.967
 69.378  66568 66567  1.926
 67.98  62048 62047  2.008
 73.942  69791 69790  2.017
 80.989  74461 74460  2.017
 73.604  70287 70286  2.034
 73.224  70088 70087  1.938
 73.821  68180 68179  1.946
 78.769  73800 73799  1.936
 75.644  71724 71723  1.88
 80.927  73444 73443  2.024
 79.644  75486 75485  2.021
 70.993  67819 67818  2.011
 74.533  67177 67176  2.078
 67.973  66445 66444  2.024
 77.161  72281 72280  1.998
 78.269  74844 74843  1.938
 63.118  61579 61578  2.014
 81.428  77907 77906  1.945
 179.76  151416 151415  2.208
 153.539  140447 140446  2.206
 150.712  136757 136756  2.22
 152.036  136632 136631  2.27
 169.347  150563 150562  2.271
 158.089  141115 141114  2.223
 151.198  138804 138803  2.147
 169.21  153935 153934  2.133
 133.75  122252 122251  2.254
 137.087  124479 124478  2.231
 164.084  148604 148603  2.252
 160.426  148914 148913  2.219
 168.834  146906 146905  2.293
 160.153  145103 145102  2.149
 160.953  147123 147122  2.16
 152.186  138030 138029  2.209
 165.169  142220 142219  2.139
 172.161  151073 151072  2.259
 165.87  147869 147868  2.329
 148.2  135271 135270  2.258
 155.407  139621 139620  2.255
 162.286  145354 145353  2.234
 150.109  134562 134561  2.22
 182.082  152539 152538  2.233
 144.239  129311 129310  2.236
 148.142  134347 134346  2.207
 160.817  143578 143577  2.153
 171.185  149338 149337  2.254
 175.402  153867 153866  2.311
 184.623  162813 162812  2.151
 167.065  148614 148613  2.231
 158.968  142358 142357  2.215
 178.891  155511 155510  2.201
 163.208  146571 146570  2.299
 175.902  157170 157169  2.869
 162.978  148139 148138  2.388
 180.334  159152 159151  2.995
 155.407  142556 142555  2.341
 179.628  160856 160855  2.225
 174.523  154701 154700  2.295
 149.637  137658 137657  2.759
 177.862  149785 149784  2.239
 190.588  164685 164684  2.14
 158.946  143314 143313  2.272
 170.986  152827 152826  2.256
 180.614  149425 149424  2.31
 155.769  140586 140585  2.284
 177.233  157414 157413  2.226
 166.167  142775 142774  2.36
 152.088  138900 138899  2.167
 397.631  324871 324870  2.349
 411.532  312428 312427  3.024
 368.434  295960 295959  2.534
 358.643  305875 305874  2.461
 385.842  316911 316910  2.492
 370.078  309012 309011  2.452
 357.105  302185 302184  2.492
 374.662  310405 310404  2.55
 390.367  319186 319185  2.495
 403.328  313166 313165  2.751
 377.728  316119 316118  2.387
 400.427  332608 332607  2.512
 416.742  331545 331544  2.439
 325.207  271513 271512  2.703
 400.608  297565 297564  2.453
 363.267  303751 303750  2.454
 348.75  298378 298377  2.38
 338.597  285265 285264  2.355
 357.893  294784 294783  2.493
 372.222  303991 303990  2.645
 371.847  313283 313282  2.388
 360.258  299628 299627  2.528
 397.945  316261 316260  2.435
 410.057  331017 331016  2.629
 375.95  310073 310072  2.604
 384.523  315526 315525  2.51
 421.571  342647 342646  2.421
 398.058  317370 317369  2.43
 356.863  298247 298246  2.515
 398.401  324290 324289  2.435
 370.235  314989 314988  2.33
 386.519  308828 308827  2.511
 410.309  333098 333097  2.815
 425.404  343979 343978  2.347
 436.852  348897 348896  2.425
 397.241  330340 330339  2.498
 380.921  311974 311973  2.447
 418.842  346125 346124  2.619
 392.181  327748 327747  2.499
 384.428  319974 319973  2.472
 407.298  338833 338832  2.499
 438.16  356985 356984  3.093
 376.481  315066 315065  2.46
 356.919  300410 300409  2.508
 415.183  330178 330177  2.527
 416.914  333112 333111  2.463
 403.139  319534 319533  2.407
 385.266  307083 307082  2.573
 401.209  324503 324502  2.459
 418.894  342692 342691  2.493
 823.475  667604 667603  2.84
 849.775  688055 688054  2.826
 804.332  656801 656800  2.787
 880.36  719868 719867  2.807
 850.259  692275 692274  2.892
 811.739  654152 654151  2.688
 818.354  668942 668941  3.093
 789.174  626880 626879  2.843
 844.399  692198 692197  2.752
 822.016  661751 661750  2.648
 833.289  671269 671268  2.814
 851.073  689622 689621  2.999
 823.906  666611 666610  2.646
 730.928  595272 595271  2.808
 862.354  695154 695153  2.75
 757.718  625027 625026  2.716
 849.777  689703 689702  2.697
 883.943  693837 693836  2.865
 888.233  707334 707333  2.607
 796.315  650263 650262  2.584
 878.668  713144 713143  2.665
 854.548  687807 687806  2.725
 803.274  652145 652144  2.79
 792.21  625176 625175  2.733
 900.413  658557 658556  2.841
